EESchema Schematic File Version 2
LIBS:robot-rescue
LIBS:robot
LIBS:conn
LIBS:power
LIBS:w_analog
LIBS:w_connectors
LIBS:w_device
LIBS:w_logic
LIBS:w_memory
LIBS:w_microcontrollers
LIBS:w_opto
LIBS:w_relay
LIBS:w_rtx
LIBS:w_transistor
LIBS:w_vacuum
LIBS:robot-cache
EELAYER 25 0
EELAYER END
$Descr A4 11693 8268
encoding utf-8
Sheet 6 8
Title ""
Date ""
Rev ""
Comp ""
Comment1 ""
Comment2 ""
Comment3 ""
Comment4 ""
$EndDescr
$Comp
L HC-06_Bluetooth U5
U 1 1 54AAA4D6
P 6150 3150
F 0 "U5" H 6150 3900 60  0000 C CNN
F 1 "HC-06_Bluetooth" H 6150 4000 60  0000 C CNN
F 2 "Robot2015:HC-06" H 6100 3750 60  0001 C CNN
F 3 "" H 6100 3750 60  0000 C CNN
	1    6150 3150
	1    0    0    -1  
$EndComp
$Comp
L GND #PWR041
U 1 1 54AAA4DD
P 5200 3850
F 0 "#PWR041" H 5200 3850 30  0001 C CNN
F 1 "GND" H 5200 3780 30  0001 C CNN
F 2 "" H 5200 3850 60  0000 C CNN
F 3 "" H 5200 3850 60  0000 C CNN
	1    5200 3850
	1    0    0    -1  
$EndComp
$Comp
L GND #PWR042
U 1 1 54AAA4E9
P 7100 3850
F 0 "#PWR042" H 7100 3850 30  0001 C CNN
F 1 "GND" H 7100 3780 30  0001 C CNN
F 2 "" H 7100 3850 60  0000 C CNN
F 3 "" H 7100 3850 60  0000 C CNN
	1    7100 3850
	1    0    0    -1  
$EndComp
$Comp
L GND #PWR043
U 1 1 54AAA4EF
P 6500 4400
F 0 "#PWR043" H 6500 4400 30  0001 C CNN
F 1 "GND" H 6500 4330 30  0001 C CNN
F 2 "" H 6500 4400 60  0000 C CNN
F 3 "" H 6500 4400 60  0000 C CNN
	1    6500 4400
	1    0    0    -1  
$EndComp
$Comp
L R R16
U 1 1 54AAA50B
P 7100 3300
F 0 "R16" V 7180 3300 40  0000 C CNN
F 1 "470/680" V 7050 3300 40  0000 C CNN
F 2 "w_smd_resistors:r_1206" V 7030 3300 30  0001 C CNN
F 3 "" H 7100 3300 30  0000 C CNN
	1    7100 3300
	1    0    0    -1  
$EndComp
$Comp
L LED D1
U 1 1 54AAA512
P 7400 3300
F 0 "D1" H 7400 3400 50  0000 C CNN
F 1 "LED" H 7400 3200 50  0000 C CNN
F 2 "w_smd_leds:Led_1206" H 7400 3300 60  0001 C CNN
F 3 "" H 7400 3300 60  0000 C CNN
	1    7400 3300
	0    1    1    0   
$EndComp
$Comp
L GND #PWR044
U 1 1 54AAA519
P 7400 3850
F 0 "#PWR044" H 7400 3850 30  0001 C CNN
F 1 "GND" H 7400 3780 30  0001 C CNN
F 2 "" H 7400 3850 60  0000 C CNN
F 3 "" H 7400 3850 60  0000 C CNN
	1    7400 3850
	1    0    0    -1  
$EndComp
Wire Wire Line
	5500 2550 5300 2550
Wire Wire Line
	5500 3750 5200 3750
Wire Wire Line
	5200 3750 5200 3850
Wire Wire Line
	6800 3750 7100 3750
Wire Wire Line
	7100 3750 7100 3850
Wire Wire Line
	6500 4200 6500 4400
Wire Wire Line
	4900 1950 4900 2650
Wire Wire Line
	6800 3550 7100 3550
Wire Wire Line
	7100 3050 7400 3050
Wire Wire Line
	7400 3050 7400 3250
Wire Wire Line
	7400 3400 7400 3850
Text HLabel 4900 1950 1    60   Input ~ 0
RXD
Text HLabel 5300 1950 1    60   Output ~ 0
TXD
Wire Wire Line
	5300 2550 5300 1950
$Comp
L CONN_01X02 P1
U 1 1 54AB0FB8
P 4750 3850
F 0 "P1" H 4750 4000 50  0000 C CNN
F 1 "CONN_01X02" V 4850 3850 50  0000 C CNN
F 2 "w_pin_strip:pin_strip_2" H 4750 3850 60  0001 C CNN
F 3 "" H 4750 3850 60  0000 C CNN
	1    4750 3850
	0    1    1    0   
$EndComp
Wire Wire Line
	5500 3650 4800 3650
Wire Wire Line
	4700 3650 4500 3650
NoConn ~ 5500 3550
NoConn ~ 6800 3350
$Comp
L PWR_FLAG #FLG045
U 1 1 54AB4599
P 5200 3550
F 0 "#FLG045" H 5200 3645 30  0001 C CNN
F 1 "PWR_FLAG" H 5200 3730 30  0000 C CNN
F 2 "" H 5200 3550 60  0000 C CNN
F 3 "" H 5200 3550 60  0000 C CNN
	1    5200 3550
	1    0    0    -1  
$EndComp
Wire Wire Line
	5200 3650 5200 3550
Connection ~ 5200 3650
Wire Wire Line
	7100 3050 7100 3200
Wire Wire Line
	7100 3550 7100 3400
Text Label 4850 3650 0    60   ~ 0
JUMPER_3.3V
Wire Wire Line
	4900 2650 5500 2650
$Comp
L +3.3VP #PWR046
U 1 1 56BA2ECA
P 4500 3650
F 0 "#PWR046" H 4550 3680 20  0001 C CNN
F 1 "+3.3VP" H 4500 3740 30  0000 C CNN
F 2 "" H 4500 3650 60  0000 C CNN
F 3 "" H 4500 3650 60  0000 C CNN
	1    4500 3650
	1    0    0    -1  
$EndComp
$EndSCHEMATC
