EESchema Schematic File Version 2
LIBS:robot-rescue
LIBS:robot
LIBS:conn
LIBS:power
LIBS:w_analog
LIBS:w_connectors
LIBS:w_device
LIBS:w_logic
LIBS:w_memory
LIBS:w_microcontrollers
LIBS:w_opto
LIBS:w_relay
LIBS:w_rtx
LIBS:w_transistor
LIBS:w_vacuum
LIBS:robot-cache
EELAYER 25 0
EELAYER END
$Descr A4 11693 8268
encoding utf-8
Sheet 2 7
Title ""
Date ""
Rev ""
Comp ""
Comment1 ""
Comment2 ""
Comment3 ""
Comment4 ""
$EndDescr
$Comp
L R R4
U 1 1 54AA4ADF
P 3850 4350
F 0 "R4" V 3930 4350 40  0000 C CNN
F 1 "56 - 68" V 3800 4350 40  0000 C CNN
F 2 "w_smd_resistors:r_1206" V 3780 4350 30  0001 C CNN
F 3 "" H 3850 4350 30  0000 C CNN
	1    3850 4350
	1    0    0    -1  
$EndComp
$Comp
L R R5
U 1 1 54AA4B2A
P 4650 3700
F 0 "R5" V 4730 3700 40  0000 C CNN
F 1 "10K - 22K" V 4600 3700 40  0000 C CNN
F 2 "w_smd_resistors:r_1206" V 4580 3700 30  0001 C CNN
F 3 "" H 4650 3700 30  0000 C CNN
	1    4650 3700
	1    0    0    -1  
$EndComp
Text HLabel 5050 3950 2    60   Output ~ 0
OUT1
Wire Wire Line
	4650 3350 4650 3600
Wire Wire Line
	3850 3950 4000 3950
Wire Wire Line
	4000 4150 3850 4150
Connection ~ 4650 3950
Wire Wire Line
	3850 4150 3850 4250
Wire Wire Line
	3850 4450 3850 4550
Wire Wire Line
	3850 4550 4000 4550
Wire Wire Line
	4000 4750 3850 4750
Wire Wire Line
	3850 4750 3850 5100
Wire Wire Line
	3850 5100 4650 5100
Wire Wire Line
	4250 5100 4250 5200
Connection ~ 4250 5100
Wire Wire Line
	3850 3350 3850 3950
$Comp
L TCRT1000 SENF1
U 1 1 54BD109B
P 4250 4050
F 0 "SENF1" H 4250 3800 60  0000 C CNN
F 1 "TCRT1000" H 4250 4300 60  0000 C CNN
F 2 "Robot2015:TCRT1000" H 4235 4025 60  0001 C CNN
F 3 "" H 4235 4025 60  0000 C CNN
	1    4250 4050
	1    0    0    -1  
$EndComp
$Comp
L TCRT1000 SENF2
U 1 1 54BD10E8
P 4250 4650
F 0 "SENF2" H 4250 4400 60  0000 C CNN
F 1 "TCRT1000" H 4250 4900 60  0000 C CNN
F 2 "Robot2015:TCRT1000" H 4235 4625 60  0001 C CNN
F 3 "" H 4235 4625 60  0000 C CNN
	1    4250 4650
	1    0    0    -1  
$EndComp
Wire Wire Line
	4500 3950 5050 3950
Wire Wire Line
	4500 4150 4650 4150
Wire Wire Line
	4650 4150 4650 5100
Connection ~ 4650 4750
Wire Wire Line
	4500 4750 4650 4750
Wire Wire Line
	4500 4550 5050 4550
$Comp
L +5V #PWR018
U 1 1 54BD6248
P 3850 3350
F 0 "#PWR018" H 3850 3440 20  0001 C CNN
F 1 "+5V" H 3850 3440 30  0000 C CNN
F 2 "" H 3850 3350 60  0000 C CNN
F 3 "" H 3850 3350 60  0000 C CNN
	1    3850 3350
	1    0    0    -1  
$EndComp
$Comp
L GND #PWR019
U 1 1 54BD626C
P 4250 5200
F 0 "#PWR019" H 4250 5200 30  0001 C CNN
F 1 "GND" H 4250 5130 30  0001 C CNN
F 2 "" H 4250 5200 60  0000 C CNN
F 3 "" H 4250 5200 60  0000 C CNN
	1    4250 5200
	1    0    0    -1  
$EndComp
$Comp
L +3.3V #PWR020
U 1 1 56A912D1
P 4650 3350
F 0 "#PWR020" H 4650 3310 30  0001 C CNN
F 1 "+3.3V" H 4650 3460 30  0000 C CNN
F 2 "" H 4650 3350 60  0000 C CNN
F 3 "" H 4650 3350 60  0000 C CNN
	1    4650 3350
	1    0    0    -1  
$EndComp
$Comp
L R R6
U 1 1 56A912F9
P 4900 3700
F 0 "R6" V 4980 3700 40  0000 C CNN
F 1 "10K - 22K" V 4850 3700 40  0000 C CNN
F 2 "w_smd_resistors:r_1206" V 4830 3700 30  0001 C CNN
F 3 "" H 4900 3700 30  0000 C CNN
	1    4900 3700
	1    0    0    -1  
$EndComp
Wire Wire Line
	4650 3500 4900 3500
Wire Wire Line
	4900 3500 4900 3600
Connection ~ 4650 3500
Wire Wire Line
	4650 3800 4650 3950
Text HLabel 5050 4550 2    60   Output ~ 0
OUT2
Wire Wire Line
	4900 3800 4900 4550
Connection ~ 4900 4550
$EndSCHEMATC
