EESchema Schematic File Version 2
LIBS:robot-rescue
LIBS:robot
LIBS:conn
LIBS:power
LIBS:w_analog
LIBS:w_connectors
LIBS:w_device
LIBS:w_logic
LIBS:w_memory
LIBS:w_microcontrollers
LIBS:w_opto
LIBS:w_relay
LIBS:w_rtx
LIBS:w_transistor
LIBS:w_vacuum
LIBS:robot-cache
EELAYER 25 0
EELAYER END
$Descr A4 11693 8268
encoding utf-8
Sheet 7 8
Title ""
Date ""
Rev ""
Comp ""
Comment1 ""
Comment2 ""
Comment3 ""
Comment4 ""
$EndDescr
$Comp
L TB6612FNG IC1
U 1 1 56A73E85
P 4750 4600
F 0 "IC1" H 4750 5250 60  0000 C CNN
F 1 "TB6612FNG" H 4750 3950 60  0000 C CNN
F 2 "Robot:ssop-24-tb6612fng" H 4600 4600 60  0001 C CNN
F 3 "" H 4600 4600 60  0000 C CNN
	1    4750 4600
	1    0    0    -1  
$EndComp
$Comp
L +BATT #PWR047
U 1 1 56A74052
P 6150 3950
F 0 "#PWR047" H 6150 3900 20  0001 C CNN
F 1 "+BATT" H 6150 4050 30  0000 C CNN
F 2 "" H 6150 3950 60  0000 C CNN
F 3 "" H 6150 3950 60  0000 C CNN
	1    6150 3950
	1    0    0    -1  
$EndComp
Wire Wire Line
	5300 4050 6150 4050
Wire Wire Line
	6150 3950 6150 5150
Wire Wire Line
	6150 5050 5300 5050
Connection ~ 6150 4050
Wire Wire Line
	6150 5150 5300 5150
Connection ~ 6150 5050
Text HLabel 5300 4550 2    60   Input ~ 0
STBY
Text HLabel 5300 4250 2    60   Input ~ 0
AIN2
Text HLabel 5300 4350 2    60   Input ~ 0
AIN1
$Comp
L +3.3V #PWR048
U 1 1 56A740ED
P 6350 3950
F 0 "#PWR048" H 6350 3910 30  0001 C CNN
F 1 "+3.3V" H 6350 4060 30  0000 C CNN
F 2 "" H 6350 3950 60  0000 C CNN
F 3 "" H 6350 3950 60  0000 C CNN
	1    6350 3950
	1    0    0    -1  
$EndComp
Wire Wire Line
	5300 4150 6350 4150
Wire Wire Line
	6350 3950 6350 5300
Wire Wire Line
	6350 4950 5300 4950
Connection ~ 6350 4150
Text HLabel 5300 4750 2    60   Input ~ 0
BIN1
Text HLabel 5300 4850 2    60   Input ~ 0
BIN2
Wire Wire Line
	5300 4650 5800 4650
Wire Wire Line
	5800 4650 5800 4750
Wire Wire Line
	5300 4450 6350 4450
Connection ~ 6350 4450
Wire Wire Line
	4200 4050 4200 4150
Wire Wire Line
	4200 4250 4200 4350
Wire Wire Line
	4200 4450 4200 4550
Wire Wire Line
	4200 4650 4200 4750
Wire Wire Line
	4200 4850 4200 4950
Wire Wire Line
	4200 5050 4200 5150
Text Label 4200 4150 2    60   ~ 0
D_M2
Text Label 4200 4550 2    60   ~ 0
D_M1
Text Label 4200 4750 2    60   ~ 0
I_M2
Text Label 4200 5150 2    60   ~ 0
I_M1
$Comp
L GND #PWR049
U 1 1 56A74428
P 3650 5150
F 0 "#PWR049" H 3650 5150 30  0001 C CNN
F 1 "GND" H 3650 5080 30  0001 C CNN
F 2 "" H 3650 5150 60  0000 C CNN
F 3 "" H 3650 5150 60  0000 C CNN
	1    3650 5150
	1    0    0    -1  
$EndComp
Wire Wire Line
	4200 4350 3650 4350
Wire Wire Line
	3650 4350 3650 5150
Wire Wire Line
	4200 4950 3650 4950
Connection ~ 3650 4950
$Comp
L C C7
U 1 1 56A744DA
P 6350 5350
F 0 "C7" H 6400 5360 50  0000 L CNN
F 1 "0.1u" H 6400 5290 50  0000 L CNN
F 2 "w_smd_cap:c_1206" H 6350 5350 60  0001 C CNN
F 3 "" H 6350 5350 60  0000 C CNN
	1    6350 5350
	1    0    0    -1  
$EndComp
$Comp
L C C5
U 1 1 56A74518
P 5450 5350
F 0 "C5" H 5500 5360 50  0000 L CNN
F 1 "0.1u" H 5500 5290 50  0000 L CNN
F 2 "w_smd_cap:c_1206" H 5450 5350 60  0001 C CNN
F 3 "" H 5450 5350 60  0000 C CNN
	1    5450 5350
	1    0    0    -1  
$EndComp
$Comp
L cap C6
U 1 1 56A745B5
P 5750 5400
F 0 "C6" H 5800 5500 50  0000 L CNN
F 1 "10u, 20V" H 5800 5300 50  0000 L CNN
F 2 "w_smd_cap:c_tant_B" H 5750 5400 60  0001 C CNN
F 3 "" H 5750 5400 60  0000 C CNN
	1    5750 5400
	1    0    0    -1  
$EndComp
$Comp
L GND #PWR050
U 1 1 56A746A1
P 5750 5600
F 0 "#PWR050" H 5750 5600 30  0001 C CNN
F 1 "GND" H 5750 5530 30  0001 C CNN
F 2 "" H 5750 5600 60  0000 C CNN
F 3 "" H 5750 5600 60  0000 C CNN
	1    5750 5600
	1    0    0    -1  
$EndComp
Text Notes 3700 6000 0    60   ~ 0
Condensadores clonados del esquema de Sparkfun\nD_M2 y D_M1 intercambiados (respecto a la lógica I_M1, I_M2) para que no se crucen en el PCB\n
$Comp
L HEADER_6 J1
U 1 1 56AC795A
P 9000 3950
F 0 "J1" H 9000 4300 60  0000 C CNN
F 1 "HEADER_MOT_IZQ" H 9000 3600 60  0000 C CNN
F 2 "w_pin_strip:pin_strip_6" H 9000 3950 60  0001 C CNN
F 3 "" H 9000 3950 60  0000 C CNN
	1    9000 3950
	1    0    0    -1  
$EndComp
$Comp
L HEADER_6 J2
U 1 1 56AC7A01
P 9000 5050
F 0 "J2" H 9000 5400 60  0000 C CNN
F 1 "HEADER_MOT_DER" H 9000 4700 60  0000 C CNN
F 2 "w_pin_strip:pin_strip_6" H 9000 5050 60  0001 C CNN
F 3 "" H 9000 5050 60  0000 C CNN
	1    9000 5050
	1    0    0    -1  
$EndComp
$Comp
L GND #PWR051
U 1 1 56AC7A87
P 8900 4800
F 0 "#PWR051" H 8900 4800 30  0001 C CNN
F 1 "GND" H 8900 4730 30  0001 C CNN
F 2 "" H 8900 4800 60  0000 C CNN
F 3 "" H 8900 4800 60  0000 C CNN
	1    8900 4800
	0    1    1    0   
$EndComp
Text Label 8900 4100 2    60   ~ 0
I_M2
Text Label 8900 4200 2    60   ~ 0
I_M1
Text Label 8900 5200 2    60   ~ 0
D_M2
Text Label 8900 5300 2    60   ~ 0
D_M1
$Comp
L +3.3V #PWR052
U 1 1 56AC7B6C
P 8900 4000
F 0 "#PWR052" H 8900 3960 30  0001 C CNN
F 1 "+3.3V" H 8900 4110 30  0000 C CNN
F 2 "" H 8900 4000 60  0000 C CNN
F 3 "" H 8900 4000 60  0000 C CNN
	1    8900 4000
	0    -1   -1   0   
$EndComp
$Comp
L GND #PWR053
U 1 1 56AC7B8F
P 8900 3700
F 0 "#PWR053" H 8900 3700 30  0001 C CNN
F 1 "GND" H 8900 3630 30  0001 C CNN
F 2 "" H 8900 3700 60  0000 C CNN
F 3 "" H 8900 3700 60  0000 C CNN
	1    8900 3700
	0    1    1    0   
$EndComp
$Comp
L +3.3V #PWR054
U 1 1 56AC7C0C
P 8900 5100
F 0 "#PWR054" H 8900 5060 30  0001 C CNN
F 1 "+3.3V" H 8900 5210 30  0000 C CNN
F 2 "" H 8900 5100 60  0000 C CNN
F 3 "" H 8900 5100 60  0000 C CNN
	1    8900 5100
	0    -1   -1   0   
$EndComp
Wire Wire Line
	5450 5150 5450 5300
Connection ~ 5450 5150
Wire Wire Line
	5750 5150 5750 5300
Connection ~ 5750 5150
Wire Wire Line
	5450 5450 5450 5550
Wire Wire Line
	5450 5550 6350 5550
Wire Wire Line
	5750 5450 5750 5600
Connection ~ 5750 5550
Wire Wire Line
	6350 5550 6350 5450
Connection ~ 6350 4950
Text HLabel 8900 3800 0    60   Output ~ 0
I_OUT_B
Text HLabel 8900 3900 0    60   Output ~ 0
I_OUT_A
Text HLabel 8900 4900 0    60   Output ~ 0
D_OUT_B
Text HLabel 8900 5000 0    60   Output ~ 0
D_OUT_A
$Comp
L VSS #PWR055
U 1 1 56BA2BAD
P 5800 4750
F 0 "#PWR055" H 5800 4750 30  0001 C CNN
F 1 "VSS" H 5800 4680 30  0000 C CNN
F 2 "" H 5800 4750 60  0000 C CNN
F 3 "" H 5800 4750 60  0000 C CNN
	1    5800 4750
	1    0    0    -1  
$EndComp
$EndSCHEMATC
