EESchema Schematic File Version 2
LIBS:robot-rescue
LIBS:robot
LIBS:conn
LIBS:power
LIBS:w_analog
LIBS:w_connectors
LIBS:w_device
LIBS:w_logic
LIBS:w_memory
LIBS:w_microcontrollers
LIBS:w_opto
LIBS:w_relay
LIBS:w_rtx
LIBS:w_transistor
LIBS:w_vacuum
LIBS:robot-cache
EELAYER 25 0
EELAYER END
$Descr A4 11693 8268
encoding utf-8
Sheet 4 8
Title ""
Date ""
Rev ""
Comp ""
Comment1 ""
Comment2 ""
Comment3 ""
Comment4 ""
$EndDescr
Wire Wire Line
	5400 4250 4700 4250
Wire Wire Line
	4700 3850 5400 3850
Wire Wire Line
	4700 3750 5400 3750
Wire Wire Line
	5300 3650 5300 3250
Wire Wire Line
	5400 3650 5300 3650
Wire Wire Line
	5400 3550 5400 3550
Wire Wire Line
	5400 3300 5400 3550
$Comp
L GND #PWR030
U 1 1 54AA7BFF
P 5300 3250
F 0 "#PWR030" H 5300 3250 30  0001 C CNN
F 1 "GND" H 5300 3180 30  0001 C CNN
F 2 "" H 5300 3250 60  0000 C CNN
F 3 "" H 5300 3250 60  0000 C CNN
	1    5300 3250
	-1   0    0    1   
$EndComp
$Comp
L MPU_6050_Gyro_Accel_6DOF_Banggood_SKU080242 U4
U 1 1 54AA7C0B
P 5900 3850
F 0 "U4" H 5900 3350 60  0000 C CNN
F 1 "MPU_6050" H 5850 4250 60  0000 C CNN
F 2 "Robot2015:MPU_6050_Gyro_Accel_6DOF_Banggood_SKU080242" H 5800 3700 60  0001 C CNN
F 3 "" H 5800 3700 60  0000 C CNN
	1    5900 3850
	1    0    0    -1  
$EndComp
Text HLabel 4700 3750 0    60   Input ~ 0
SCL
Text HLabel 4700 3850 0    60   BiDi ~ 0
SDA
Text HLabel 4700 4250 0    60   Output ~ 0
INT
NoConn ~ 5400 3950
NoConn ~ 5400 4050
NoConn ~ 5400 4150
$Comp
L R R13
U 1 1 56A75BB4
P 4800 3500
F 0 "R13" V 4750 3550 50  0000 C CNN
F 1 "MPU PullUp" V 4850 3550 50  0000 C CNN
F 2 "w_smd_resistors:r_1206" H 4800 3500 60  0001 C CNN
F 3 "" H 4800 3500 60  0000 C CNN
	1    4800 3500
	1    0    0    -1  
$EndComp
$Comp
L R R14
U 1 1 56A75BCD
P 5000 3500
F 0 "R14" V 4950 3550 50  0000 C CNN
F 1 "MPU PullUp" V 5050 3550 50  0000 C CNN
F 2 "w_smd_resistors:r_1206" H 5000 3500 60  0001 C CNN
F 3 "" H 5000 3500 60  0000 C CNN
	1    5000 3500
	1    0    0    -1  
$EndComp
Wire Wire Line
	4800 3600 4800 3750
Connection ~ 4800 3750
Wire Wire Line
	5000 3600 5000 3850
Connection ~ 5000 3850
$Comp
L +3.3V #PWR031
U 1 1 56A75C05
P 4800 3250
F 0 "#PWR031" H 4800 3210 30  0001 C CNN
F 1 "+3.3V" H 4800 3360 30  0000 C CNN
F 2 "" H 4800 3250 60  0000 C CNN
F 3 "" H 4800 3250 60  0000 C CNN
	1    4800 3250
	1    0    0    -1  
$EndComp
$Comp
L +3.3V #PWR032
U 1 1 56A75C20
P 5000 3250
F 0 "#PWR032" H 5000 3210 30  0001 C CNN
F 1 "+3.3V" H 5000 3360 30  0000 C CNN
F 2 "" H 5000 3250 60  0000 C CNN
F 3 "" H 5000 3250 60  0000 C CNN
	1    5000 3250
	1    0    0    -1  
$EndComp
Wire Wire Line
	4800 3250 4800 3400
Wire Wire Line
	5000 3250 5000 3400
$Comp
L +5VP #PWR033
U 1 1 56BA2FEB
P 5400 3300
F 0 "#PWR033" H 5400 3390 20  0001 C CNN
F 1 "+5VP" H 5400 3390 30  0000 C CNN
F 2 "" H 5400 3300 60  0000 C CNN
F 3 "" H 5400 3300 60  0000 C CNN
	1    5400 3300
	1    0    0    -1  
$EndComp
$EndSCHEMATC
