(export (version D)
  (design
    (source /home/ad/kicad/robot2016/robot.sch)
    (date "sáb 02 abr 2016 11:53:58 CEST")
    (tool "Eeschema 4.0.1-3.201512221402+6198~38~ubuntu14.04.1-stable")
    (sheet (number 1) (name /) (tstamps /)
      (title_block
        (title)
        (company)
        (rev)
        (date)
        (source robot.sch)
        (comment (number 1) (value ""))
        (comment (number 2) (value ""))
        (comment (number 3) (value ""))
        (comment (number 4) (value ""))))
    (sheet (number 2) (name "/Sensores frontales/") (tstamps /54AA4E6F/)
      (title_block
        (title)
        (company)
        (rev)
        (date)
        (source sensores_frontales.sch)
        (comment (number 1) (value ""))
        (comment (number 2) (value ""))
        (comment (number 3) (value ""))
        (comment (number 4) (value ""))))
    (sheet (number 3) (name /MPU6050/) (tstamps /54AA7B99/)
      (title_block
        (title)
        (company)
        (rev)
        (date)
        (source mpu6050.sch)
        (comment (number 1) (value ""))
        (comment (number 2) (value ""))
        (comment (number 3) (value ""))
        (comment (number 4) (value ""))))
    (sheet (number 4) (name /Sonares/) (tstamps /54AA8B58/)
      (title_block
        (title)
        (company)
        (rev)
        (date)
        (source sonares.sch)
        (comment (number 1) (value ""))
        (comment (number 2) (value ""))
        (comment (number 3) (value ""))
        (comment (number 4) (value ""))))
    (sheet (number 5) (name /Bluetooth/) (tstamps /54AAA374/)
      (title_block
        (title)
        (company)
        (rev)
        (date)
        (source bluetooth.sch)
        (comment (number 1) (value ""))
        (comment (number 2) (value ""))
        (comment (number 3) (value ""))
        (comment (number 4) (value ""))))
    (sheet (number 6) (name "/Driver motores/") (tstamps /54AAE587/)
      (title_block
        (title)
        (company)
        (rev)
        (date)
        (source driver_motores.sch)
        (comment (number 1) (value ""))
        (comment (number 2) (value ""))
        (comment (number 3) (value ""))
        (comment (number 4) (value ""))))
    (sheet (number 7) (name /Leds/) (tstamps /56BAEB79/)
      (title_block
        (title)
        (company)
        (rev)
        (date)
        (source Leds.sch)
        (comment (number 1) (value ""))
        (comment (number 2) (value ""))
        (comment (number 3) (value ""))
        (comment (number 4) (value ""))))
    (sheet (number 8) (name /Mecanico/) (tstamps /56BB194B/)
      (title_block
        (title)
        (company)
        (rev)
        (date)
        (source Mecanico.sch)
        (comment (number 1) (value ""))
        (comment (number 2) (value ""))
        (comment (number 3) (value ""))
        (comment (number 4) (value "")))))
  (components
    (comp (ref C3)
      (value 10u)
      (footprint w_smd_cap:c_tant_B)
      (libsource (lib robot-cache) (part CP2))
      (sheetpath (names /) (tstamps /))
      (tstamp 546BED42))
    (comp (ref C1)
      (value 10u)
      (footprint w_smd_cap:c_tant_B)
      (libsource (lib robot-cache) (part CP2))
      (sheetpath (names /) (tstamps /))
      (tstamp 546BEDFC))
    (comp (ref C2)
      (value 10u)
      (footprint w_smd_cap:c_tant_B)
      (libsource (lib robot-cache) (part CP2))
      (sheetpath (names /) (tstamps /))
      (tstamp 546BEE5E))
    (comp (ref C4)
      (value 10u)
      (footprint w_smd_cap:c_tant_B)
      (libsource (lib robot-cache) (part CP2))
      (sheetpath (names /) (tstamps /))
      (tstamp 546BEEB3))
    (comp (ref BT1)
      (value BATTERY)
      (footprint Robot2015:Portapilas_keystone_1028)
      (fields
        (field (name "Farnell PN") 1650669))
      (libsource (lib robot-cache) (part BATTERY))
      (sheetpath (names /) (tstamps /))
      (tstamp 546C96F8))
    (comp (ref BT2)
      (value BATTERY)
      (footprint Robot2015:Portapilas_keystone_1028)
      (fields
        (field (name "Farnell PN") 1650669))
      (libsource (lib robot-cache) (part BATTERY))
      (sheetpath (names /) (tstamps /))
      (tstamp 546C9782))
    (comp (ref SW1)
      (value SWITCH_INV)
      (footprint Robot2015:SS-12F45_slide_switch_bangood)
      (libsource (lib robot-cache) (part SWITCH_INV))
      (sheetpath (names /) (tstamps /))
      (tstamp 546D1503))
    (comp (ref SW2)
      (value SW_PUSH)
      (footprint w_switch:PCB_PUSH)
      (libsource (lib w_device) (part SW_PUSH))
      (sheetpath (names /) (tstamps /))
      (tstamp 54A2ED97))
    (comp (ref U3)
      (value LD1117S33TR)
      (footprint Robot2015:sot223-regulator)
      (fields
        (field (name "Farnell PN") 1202826))
      (libsource (lib robot) (part LM1117-SOT))
      (sheetpath (names /) (tstamps /))
      (tstamp 54AC4378))
    (comp (ref U1)
      (value LD1117S50TR)
      (footprint Robot2015:sot223-regulator)
      (fields
        (field (name "Farnell PN") 1467781))
      (libsource (lib robot) (part LM1117-SOT))
      (sheetpath (names /) (tstamps /))
      (tstamp 54AC66A8))
    (comp (ref Q1)
      (value PMV48XP)
      (footprint Robot2015:sot23-hand-solder)
      (libsource (lib w_transistor) (part MOS_P_GDS))
      (sheetpath (names /) (tstamps /))
      (tstamp 54BB0DAE))
    (comp (ref U2)
      (value Bluepill_STM32F103C8T6)
      (footprint Robot2015:Bluepill_STM32F103C8T6)
      (libsource (lib robot) (part Bluepill_STM32F103C8T6))
      (sheetpath (names /) (tstamps /))
      (tstamp 56A66F0E))
    (comp (ref NT3)
      (value Net_tie)
      (footprint Robot2015:Net_tie_30_10_mil)
      (libsource (lib robot) (part Net_tie))
      (sheetpath (names /) (tstamps /))
      (tstamp 56BA0B82))
    (comp (ref NT2)
      (value Net_tie)
      (footprint Robot2015:Net_tie_30_10_mil)
      (libsource (lib robot) (part Net_tie))
      (sheetpath (names /) (tstamps /))
      (tstamp 56BA1096))
    (comp (ref NT1)
      (value Net_tie)
      (footprint Robot2015:Net_tie_30_10_mil)
      (libsource (lib robot) (part Net_tie))
      (sheetpath (names /) (tstamps /))
      (tstamp 56BA4585))
    (comp (ref SEN1)
      (value CNY70)
      (footprint Robot2015:CNY70)
      (fields
        (field (name "Farnell PN") 1470063))
      (libsource (lib robot) (part CNY70))
      (sheetpath (names "/Sensores frontales/") (tstamps /54AA4E6F/))
      (tstamp 54AA52E0))
    (comp (ref SEN2)
      (value CNY70)
      (footprint Robot2015:CNY70)
      (fields
        (field (name "Farnell PN") 1470063))
      (libsource (lib robot) (part CNY70))
      (sheetpath (names "/Sensores frontales/") (tstamps /54AA4E6F/))
      (tstamp 54AA52E7))
    (comp (ref SEN3)
      (value CNY70)
      (footprint Robot2015:CNY70)
      (fields
        (field (name "Farnell PN") 1470063))
      (libsource (lib robot) (part CNY70))
      (sheetpath (names "/Sensores frontales/") (tstamps /54AA4E6F/))
      (tstamp 54AA52EE))
    (comp (ref SEN4)
      (value CNY70)
      (footprint Robot2015:CNY70)
      (fields
        (field (name "Farnell PN") 1470063))
      (libsource (lib robot) (part CNY70))
      (sheetpath (names "/Sensores frontales/") (tstamps /54AA4E6F/))
      (tstamp 54AA52F5))
    (comp (ref SEN5)
      (value CNY70)
      (footprint Robot2015:CNY70)
      (fields
        (field (name "Farnell PN") 1470063))
      (libsource (lib robot) (part CNY70))
      (sheetpath (names "/Sensores frontales/") (tstamps /54AA4E6F/))
      (tstamp 54AA52FC))
    (comp (ref SEN6)
      (value CNY70)
      (footprint Robot2015:CNY70)
      (fields
        (field (name "Farnell PN") 1470063))
      (libsource (lib robot) (part CNY70))
      (sheetpath (names "/Sensores frontales/") (tstamps /54AA4E6F/))
      (tstamp 54AA5303))
    (comp (ref R4)
      (value "68 1/4W")
      (footprint w_smd_resistors:r_1206)
      (libsource (lib w_device) (part R))
      (sheetpath (names "/Sensores frontales/") (tstamps /54AA4E6F/))
      (tstamp 54AA530A))
    (comp (ref R5)
      (value "68 1/4W")
      (footprint w_smd_resistors:r_1206)
      (libsource (lib w_device) (part R))
      (sheetpath (names "/Sensores frontales/") (tstamps /54AA4E6F/))
      (tstamp 54AA5311))
    (comp (ref R6)
      (value "68 1/4W")
      (footprint w_smd_resistors:r_1206)
      (libsource (lib w_device) (part R))
      (sheetpath (names "/Sensores frontales/") (tstamps /54AA4E6F/))
      (tstamp 54AA5318))
    (comp (ref R8)
      (value 10K)
      (footprint w_smd_resistors:r_1206)
      (libsource (lib w_device) (part R))
      (sheetpath (names "/Sensores frontales/") (tstamps /54AA4E6F/))
      (tstamp 54AA5338))
    (comp (ref R9)
      (value 10K)
      (footprint w_smd_resistors:r_1206)
      (libsource (lib w_device) (part R))
      (sheetpath (names "/Sensores frontales/") (tstamps /54AA4E6F/))
      (tstamp 54AA533F))
    (comp (ref R10)
      (value 10K)
      (footprint w_smd_resistors:r_1206)
      (libsource (lib w_device) (part R))
      (sheetpath (names "/Sensores frontales/") (tstamps /54AA4E6F/))
      (tstamp 54AA5346))
    (comp (ref R11)
      (value 10K)
      (footprint w_smd_resistors:r_1206)
      (libsource (lib w_device) (part R))
      (sheetpath (names "/Sensores frontales/") (tstamps /54AA4E6F/))
      (tstamp 54AA534D))
    (comp (ref R12)
      (value 10K)
      (footprint w_smd_resistors:r_1206)
      (libsource (lib w_device) (part R))
      (sheetpath (names "/Sensores frontales/") (tstamps /54AA4E6F/))
      (tstamp 54AA5354))
    (comp (ref R7)
      (value 10K)
      (footprint w_smd_resistors:r_1206)
      (libsource (lib w_device) (part R))
      (sheetpath (names "/Sensores frontales/") (tstamps /54AA4E6F/))
      (tstamp 54AA535B))
    (comp (ref Q2)
      (value IRFML8244TRPbF)
      (footprint Robot2015:sot23-hand-solder)
      (libsource (lib w_transistor) (part MOS_N_GDS))
      (sheetpath (names "/Sensores frontales/") (tstamps /54AA4E6F/))
      (tstamp 54BB158C))
    (comp (ref R1)
      (value "56 - 68")
      (footprint w_smd_resistors:r_1206)
      (libsource (lib w_device) (part R))
      (sheetpath (names "/Sensores frontales/") (tstamps /54AA4E6F/))
      (tstamp 56BAC0D3))
    (comp (ref R2)
      (value "10K - 22K")
      (footprint w_smd_resistors:r_1206)
      (libsource (lib w_device) (part R))
      (sheetpath (names "/Sensores frontales/") (tstamps /54AA4E6F/))
      (tstamp 56BAC0DA))
    (comp (ref SENF1)
      (value TCRT1000)
      (footprint Robot2015:TCRT1000)
      (libsource (lib robot) (part TCRT1000))
      (sheetpath (names "/Sensores frontales/") (tstamps /54AA4E6F/))
      (tstamp 56BAC0EF))
    (comp (ref SENF2)
      (value TCRT1000)
      (footprint Robot2015:TCRT1000)
      (libsource (lib robot) (part TCRT1000))
      (sheetpath (names "/Sensores frontales/") (tstamps /54AA4E6F/))
      (tstamp 56BAC0F6))
    (comp (ref R3)
      (value "10K - 22K")
      (footprint w_smd_resistors:r_1206)
      (libsource (lib w_device) (part R))
      (sheetpath (names "/Sensores frontales/") (tstamps /54AA4E6F/))
      (tstamp 56BAC10F))
    (comp (ref U4)
      (value MPU_6050)
      (footprint Robot2015:MPU_6050_Gyro_Accel_6DOF_Banggood_SKU080242)
      (libsource (lib robot) (part MPU_6050_Gyro_Accel_6DOF_Banggood_SKU080242))
      (sheetpath (names /MPU6050/) (tstamps /54AA7B99/))
      (tstamp 54AA7C0B))
    (comp (ref R13)
      (value "MPU PullUp")
      (footprint w_smd_resistors:r_1206)
      (libsource (lib w_device) (part R))
      (sheetpath (names /MPU6050/) (tstamps /54AA7B99/))
      (tstamp 56A75BB4))
    (comp (ref R14)
      (value "MPU PullUp")
      (footprint w_smd_resistors:r_1206)
      (libsource (lib w_device) (part R))
      (sheetpath (names /MPU6050/) (tstamps /54AA7B99/))
      (tstamp 56A75BCD))
    (comp (ref SONAR2)
      (value HC-SR04)
      (footprint Robot2015:HC-SR04)
      (libsource (lib robot) (part HC-SR04))
      (sheetpath (names /Sonares/) (tstamps /54AA8B58/))
      (tstamp 54AA8F53))
    (comp (ref SONAR1)
      (value HC-SR04)
      (footprint Robot2015:HC-SR04)
      (libsource (lib robot) (part HC-SR04))
      (sheetpath (names /Sonares/) (tstamps /54AA8B58/))
      (tstamp 54AA8F5A))
    (comp (ref SONAR3)
      (value HC-SR04)
      (footprint Robot2015:HC-SR04)
      (libsource (lib robot) (part HC-SR04))
      (sheetpath (names /Sonares/) (tstamps /54AA8B58/))
      (tstamp 54AA8F61))
    (comp (ref R15)
      (value 4K7)
      (footprint w_smd_resistors:r_1206)
      (libsource (lib w_device) (part R))
      (sheetpath (names /Sonares/) (tstamps /54AA8B58/))
      (tstamp 54AA8FCD))
    (comp (ref NT4)
      (value Net_tie)
      (footprint Robot2015:Net_tie_10_mil)
      (libsource (lib robot) (part Net_tie))
      (sheetpath (names /Sonares/) (tstamps /54AA8B58/))
      (tstamp 56BA01BA))
    (comp (ref NT5)
      (value Net_tie)
      (footprint Robot2015:Net_tie_10_mil)
      (libsource (lib robot) (part Net_tie))
      (sheetpath (names /Sonares/) (tstamps /54AA8B58/))
      (tstamp 56BA02CF))
    (comp (ref U5)
      (value HC-06_Bluetooth)
      (footprint Robot2015:HC-06)
      (libsource (lib robot) (part HC-06_Bluetooth))
      (sheetpath (names /Bluetooth/) (tstamps /54AAA374/))
      (tstamp 54AAA4D6))
    (comp (ref R16)
      (value 470/680)
      (footprint w_smd_resistors:r_1206)
      (libsource (lib w_device) (part R))
      (sheetpath (names /Bluetooth/) (tstamps /54AAA374/))
      (tstamp 54AAA50B))
    (comp (ref D1)
      (value LED)
      (footprint w_smd_leds:Led_1206)
      (libsource (lib w_device) (part LED))
      (sheetpath (names /Bluetooth/) (tstamps /54AAA374/))
      (tstamp 54AAA512))
    (comp (ref P1)
      (value CONN_01X02)
      (footprint w_pin_strip:pin_strip_2)
      (libsource (lib robot-cache) (part CONN_01X02))
      (sheetpath (names /Bluetooth/) (tstamps /54AAA374/))
      (tstamp 54AB0FB8))
    (comp (ref IC1)
      (value TB6612FNG)
      (footprint Robot:ssop-24-tb6612fng)
      (libsource (lib robot) (part TB6612FNG))
      (sheetpath (names "/Driver motores/") (tstamps /54AAE587/))
      (tstamp 56A73E85))
    (comp (ref C7)
      (value 0.1u)
      (footprint w_smd_cap:c_1206)
      (libsource (lib w_device) (part C))
      (sheetpath (names "/Driver motores/") (tstamps /54AAE587/))
      (tstamp 56A744DA))
    (comp (ref C5)
      (value 0.1u)
      (footprint w_smd_cap:c_1206)
      (libsource (lib w_device) (part C))
      (sheetpath (names "/Driver motores/") (tstamps /54AAE587/))
      (tstamp 56A74518))
    (comp (ref C6)
      (value "10u, 20V")
      (footprint w_smd_cap:c_tant_B)
      (libsource (lib w_device) (part cap))
      (sheetpath (names "/Driver motores/") (tstamps /54AAE587/))
      (tstamp 56A745B5))
    (comp (ref J1)
      (value HEADER_MOT_IZQ)
      (footprint w_pin_strip:pin_strip_6)
      (libsource (lib w_connectors) (part HEADER_6))
      (sheetpath (names "/Driver motores/") (tstamps /54AAE587/))
      (tstamp 56AC795A))
    (comp (ref J2)
      (value HEADER_MOT_DER)
      (footprint w_pin_strip:pin_strip_6)
      (libsource (lib w_connectors) (part HEADER_6))
      (sheetpath (names "/Driver motores/") (tstamps /54AAE587/))
      (tstamp 56AC7A01))
    (comp (ref LD2)
      (value LED_Y)
      (footprint w_smd_leds:Led_1206)
      (libsource (lib w_device) (part LED))
      (sheetpath (names /Leds/) (tstamps /56BAEB79/))
      (tstamp 56BAEDC9))
    (comp (ref LD1)
      (value LED_R)
      (footprint w_smd_leds:Led_1206)
      (libsource (lib w_device) (part LED))
      (sheetpath (names /Leds/) (tstamps /56BAEB79/))
      (tstamp 56BAEDD0))
    (comp (ref R18)
      (value 470/680)
      (footprint w_smd_resistors:r_1206)
      (libsource (lib w_device) (part R))
      (sheetpath (names /Leds/) (tstamps /56BAEB79/))
      (tstamp 56BAEDE3))
    (comp (ref R17)
      (value 470/680)
      (footprint w_smd_resistors:r_1206)
      (libsource (lib w_device) (part R))
      (sheetpath (names /Leds/) (tstamps /56BAEB79/))
      (tstamp 56BAEDEA))
    (comp (ref MOTOR1)
      (value Motor)
      (footprint Robot2015:Pololu_brackets_with_HP_MOTOR)
      (libsource (lib robot) (part Motor))
      (sheetpath (names /Mecanico/) (tstamps /56BB194B/))
      (tstamp 56BB1C25))
    (comp (ref MOTOR2)
      (value Motor)
      (footprint Robot2015:Pololu_brackets_with_HP_MOTOR)
      (libsource (lib robot) (part Motor))
      (sheetpath (names /Mecanico/) (tstamps /56BB194B/))
      (tstamp 56BB1CB9))
    (comp (ref RL1)
      (value Rueda_loca)
      (footprint Robot2015:Pololu_ball_caster)
      (libsource (lib robot) (part Rueda_loca))
      (sheetpath (names /Mecanico/) (tstamps /56BB194B/))
      (tstamp 56BB1CD7))
    (comp (ref LOGO1)
      (value Logo)
      (footprint Robot2015:libertas_logo)
      (libsource (lib robot) (part Logo))
      (sheetpath (names /Mecanico/) (tstamps /56BB194B/))
      (tstamp 56BB20CA)))
  (libparts
    (libpart (lib robot-cache) (part BATTERY)
      (fields
        (field (name Reference) BT)
        (field (name Value) BATTERY))
      (pins
        (pin (num 1) (name +) (type passive))
        (pin (num 2) (name -) (type passive))))
    (libpart (lib robot) (part Bluepill_STM32F103C8T6)
      (fields
        (field (name Reference) U)
        (field (name Value) Bluepill_STM32F103C8T6))
      (pins
        (pin (num 1) (name B12) (type BiDi))
        (pin (num 2) (name B13) (type BiDi))
        (pin (num 3) (name B14) (type BiDi))
        (pin (num 4) (name B15) (type BiDi))
        (pin (num 5) (name A8) (type BiDi))
        (pin (num 6) (name A9) (type BiDi))
        (pin (num 7) (name A10) (type BiDi))
        (pin (num 8) (name A11) (type BiDi))
        (pin (num 9) (name A12) (type BiDi))
        (pin (num 10) (name A15) (type BiDi))
        (pin (num 11) (name B3) (type BiDi))
        (pin (num 12) (name B4) (type BiDi))
        (pin (num 13) (name B5) (type BiDi))
        (pin (num 14) (name B6) (type BiDi))
        (pin (num 15) (name B7) (type BiDi))
        (pin (num 16) (name B8) (type BiDi))
        (pin (num 17) (name B9) (type BiDi))
        (pin (num 18) (name 5V) (type power_in))
        (pin (num 19) (name GND) (type power_in))
        (pin (num 20) (name 3.3) (type power_in))
        (pin (num 21) (name VB) (type power_in))
        (pin (num 22) (name C13) (type BiDi))
        (pin (num 23) (name C14) (type BiDi))
        (pin (num 24) (name C15) (type BiDi))
        (pin (num 25) (name A0) (type BiDi))
        (pin (num 26) (name A1) (type BiDi))
        (pin (num 27) (name A2) (type BiDi))
        (pin (num 28) (name A3) (type BiDi))
        (pin (num 29) (name A4) (type BiDi))
        (pin (num 30) (name A5) (type BiDi))
        (pin (num 31) (name A6) (type BiDi))
        (pin (num 32) (name A7) (type BiDi))
        (pin (num 33) (name B0) (type BiDi))
        (pin (num 34) (name B1) (type BiDi))
        (pin (num 35) (name B10) (type BiDi))
        (pin (num 36) (name B11) (type BiDi))
        (pin (num 37) (name RESET) (type BiDi))
        (pin (num 38) (name 3.3) (type power_in))
        (pin (num 39) (name GND) (type power_in))
        (pin (num 40) (name GND) (type power_in))))
    (libpart (lib w_device) (part C)
      (aliases
        (alias cap_np))
      (description "Capacitor non pol")
      (fields
        (field (name Reference) C)
        (field (name Value) C))
      (pins
        (pin (num 1) (name ~) (type passive))
        (pin (num 2) (name ~) (type passive))))
    (libpart (lib robot) (part CNY70)
      (fields
        (field (name Reference) SEN)
        (field (name Value) CNY70))
      (pins
        (pin (num A) (name A) (type passive))
        (pin (num C) (name C) (type passive))
        (pin (num E) (name E) (type passive))
        (pin (num K) (name C) (type passive))))
    (libpart (lib robot-cache) (part CONN_01X02)
      (footprints
        (fp Pin_Header_Straight_1X02)
        (fp Pin_Header_Angled_1X02)
        (fp Socket_Strip_Straight_1X02)
        (fp Socket_Strip_Angled_1X02))
      (fields
        (field (name Reference) P)
        (field (name Value) CONN_01X02))
      (pins
        (pin (num 1) (name P1) (type passive))
        (pin (num 2) (name P2) (type passive))))
    (libpart (lib robot-cache) (part CP2)
      (footprints
        (fp SM*)
        (fp C?)
        (fp C1-1))
      (fields
        (field (name Reference) C)
        (field (name Value) CP2))
      (pins
        (pin (num 1) (name ~) (type passive))
        (pin (num 2) (name ~) (type passive))))
    (libpart (lib robot) (part HC-06_Bluetooth)
      (fields
        (field (name Reference) U)
        (field (name Value) HC-06_Bluetooth))
      (pins
        (pin (num 1) (name TXD) (type output))
        (pin (num 2) (name RXD) (type input))
        (pin (num 3) (name NC) (type NotConnected))
        (pin (num 4) (name NC) (type NotConnected))
        (pin (num 5) (name NC) (type NotConnected))
        (pin (num 6) (name NC) (type NotConnected))
        (pin (num 7) (name NC) (type NotConnected))
        (pin (num 8) (name NC) (type NotConnected))
        (pin (num 9) (name NC) (type NotConnected))
        (pin (num 10) (name NC) (type NotConnected))
        (pin (num 11) (name RESET) (type input))
        (pin (num 12) (name 3.3V) (type power_in))
        (pin (num 13) (name GND) (type passive))
        (pin (num 14) (name NC) (type NotConnected))
        (pin (num 15) (name NC) (type NotConnected))
        (pin (num 16) (name NC) (type NotConnected))
        (pin (num 17) (name NC) (type NotConnected))
        (pin (num 18) (name NC) (type NotConnected))
        (pin (num 19) (name NC) (type NotConnected))
        (pin (num 20) (name NC) (type NotConnected))
        (pin (num 21) (name GND) (type passive))
        (pin (num 22) (name GND) (type passive))
        (pin (num 23) (name NC) (type NotConnected))
        (pin (num 24) (name LED) (type output))
        (pin (num 25) (name NC) (type NotConnected))
        (pin (num 26) (name KEY) (type input))
        (pin (num 27) (name NC) (type NotConnected))
        (pin (num 28) (name NC) (type NotConnected))
        (pin (num 29) (name NC) (type NotConnected))
        (pin (num 30) (name NC) (type NotConnected))
        (pin (num 31) (name NC) (type NotConnected))
        (pin (num 32) (name NC) (type NotConnected))
        (pin (num 33) (name NC) (type NotConnected))
        (pin (num 34) (name NC) (type NotConnected))))
    (libpart (lib robot) (part HC-SR04)
      (fields
        (field (name Reference) SONAR?)
        (field (name Value) HC-SR04))
      (pins
        (pin (num 1) (name GND) (type passive))
        (pin (num 2) (name Echo) (type output))
        (pin (num 3) (name Trigger) (type input))
        (pin (num 4) (name VCC) (type power_in))))
    (libpart (lib w_connectors) (part HEADER_6)
      (fields
        (field (name Reference) J)
        (field (name Value) HEADER_6))
      (pins
        (pin (num 1) (name ~) (type passive))
        (pin (num 2) (name ~) (type passive))
        (pin (num 3) (name ~) (type passive))
        (pin (num 4) (name ~) (type passive))
        (pin (num 5) (name ~) (type passive))
        (pin (num 6) (name ~) (type passive))))
    (libpart (lib w_device) (part LED)
      (description "Diode LED (emitter)")
      (fields
        (field (name Reference) LD)
        (field (name Value) LED))
      (pins
        (pin (num 1) (name A) (type passive))
        (pin (num 2) (name K) (type passive))))
    (libpart (lib robot) (part LM1117-SOT)
      (description "800mA Low Dropout Linear Regulator, SOT packages")
      (docs /home/walter/Documenti/Elettronica/DATA_SHEET/Elettronici/Integrati/Analogici/Regolatori/TI_LM1117.pdf)
      (footprints
        (fp d2-pak)
        (fp sot223)
        (fp d-pak))
      (fields
        (field (name Reference) U)
        (field (name Value) LM1117-SOT))
      (pins
        (pin (num 1) (name ADJ/GND) (type power_in))
        (pin (num 2) (name VOUT) (type power_out))
        (pin (num 3) (name VIN) (type input))))
    (libpart (lib robot) (part Logo)
      (fields
        (field (name Reference) LOGO)
        (field (name Value) Logo)))
    (libpart (lib w_transistor) (part MOS_N_GDS)
      (description "N channel MOSFET, GDS footprint")
      (fields
        (field (name Reference) Q)
        (field (name Value) MOS_N_GDS))
      (pins
        (pin (num 1) (name G) (type input))
        (pin (num 2) (name D) (type passive))
        (pin (num 3) (name S) (type passive))))
    (libpart (lib w_transistor) (part MOS_P_GDS)
      (description "P channel MOSFET, GDS footprint")
      (fields
        (field (name Reference) Q)
        (field (name Value) MOS_P_GDS))
      (pins
        (pin (num 1) (name G) (type input))
        (pin (num 2) (name D) (type passive))
        (pin (num 3) (name S) (type passive))))
    (libpart (lib robot) (part MPU_6050_Gyro_Accel_6DOF_Banggood_SKU080242)
      (fields
        (field (name Reference) U)
        (field (name Value) MPU_6050_Gyro_Accel_6DOF_Banggood_SKU080242))
      (pins
        (pin (num 1) (name VCC) (type power_in))
        (pin (num 2) (name GND) (type passive))
        (pin (num 3) (name SCL) (type BiDi))
        (pin (num 4) (name SDA) (type BiDi))
        (pin (num 5) (name XDA) (type BiDi))
        (pin (num 6) (name XCL) (type BiDi))
        (pin (num 7) (name AD0) (type input))
        (pin (num 8) (name INT) (type output))))
    (libpart (lib robot) (part Motor)
      (fields
        (field (name Reference) MOTOR)
        (field (name Value) Motor)))
    (libpart (lib robot) (part Net_tie)
      (fields
        (field (name Reference) NT)
        (field (name Value) Net_tie))
      (pins
        (pin (num 1) (name >) (type passive))
        (pin (num 2) (name <) (type passive))))
    (libpart (lib w_device) (part R)
      (description Resistance)
      (fields
        (field (name Reference) R)
        (field (name Value) R))
      (pins
        (pin (num 1) (name ~) (type passive))
        (pin (num 2) (name ~) (type passive))))
    (libpart (lib robot) (part Rueda_loca)
      (fields
        (field (name Reference) RL)
        (field (name Value) Rueda_loca)))
    (libpart (lib robot-cache) (part SWITCH_INV)
      (fields
        (field (name Reference) SW)
        (field (name Value) SWITCH_INV))
      (pins
        (pin (num 1) (name 1) (type passive))
        (pin (num 2) (name 2) (type passive))
        (pin (num 3) (name 3) (type passive))))
    (libpart (lib w_device) (part SW_PUSH)
      (description "Push Button")
      (fields
        (field (name Reference) SW)
        (field (name Value) SW_PUSH))
      (pins
        (pin (num 1) (name 1) (type passive))
        (pin (num 2) (name 2) (type passive))))
    (libpart (lib robot) (part TB6612FNG)
      (fields
        (field (name Reference) IC)
        (field (name Value) TB6612FNG))
      (pins
        (pin (num 1) (name AO1) (type power_out))
        (pin (num 2) (name AO1) (type passive))
        (pin (num 3) (name PGND1) (type power_in))
        (pin (num 4) (name PGND1) (type power_in))
        (pin (num 5) (name AO2) (type power_out))
        (pin (num 6) (name AO2) (type passive))
        (pin (num 7) (name BO2) (type power_out))
        (pin (num 8) (name BO2) (type passive))
        (pin (num 9) (name PGND2) (type power_in))
        (pin (num 10) (name PGND2) (type input))
        (pin (num 11) (name BO1) (type power_out))
        (pin (num 12) (name BO1) (type passive))
        (pin (num 13) (name VM2) (type power_in))
        (pin (num 14) (name VM3) (type power_in))
        (pin (num 15) (name PWMB) (type input))
        (pin (num 16) (name BIN2) (type input))
        (pin (num 17) (name BIN1) (type input))
        (pin (num 18) (name GND) (type power_in))
        (pin (num 19) (name /STBY) (type input))
        (pin (num 20) (name VCC) (type power_in))
        (pin (num 21) (name AIN1) (type input))
        (pin (num 22) (name AIN2) (type input))
        (pin (num 23) (name PWMA) (type input))
        (pin (num 24) (name VM1) (type power_in))))
    (libpart (lib robot) (part TCRT1000)
      (fields
        (field (name Reference) SEN)
        (field (name Value) TCRT1000))
      (pins
        (pin (num A) (name A) (type passive))
        (pin (num C) (name C) (type passive))
        (pin (num E) (name E) (type passive))
        (pin (num K) (name C) (type passive))))
    (libpart (lib w_device) (part cap)
      (fields
        (field (name Reference) C)
        (field (name Value) cap))
      (pins
        (pin (num 1) (name ~) (type passive))
        (pin (num 2) (name ~) (type passive)))))
  (libraries
    (library (logical robot)
      (uri robot.lib))
    (library (logical w_device)
      (uri /usr/local/kicad/library/w_device.lib))
    (library (logical w_connectors)
      (uri /usr/local/kicad/library/w_connectors.lib))
    (library (logical w_transistor)
      (uri /usr/local/kicad/library/w_transistor.lib))
    (library (logical robot-cache)
      (uri /home/ad/kicad/robot2016/robot-cache.lib)))
  (nets
    (net (code 1) (name "/Sensores frontales/SEN3")
      (node (ref SEN3) (pin C))
      (node (ref U2) (pin 28))
      (node (ref R9) (pin 2)))
    (net (code 2) (name "/Sensores frontales/SEN4")
      (node (ref R10) (pin 2))
      (node (ref SEN4) (pin C))
      (node (ref U2) (pin 29)))
    (net (code 3) (name GND)
      (node (ref SW2) (pin 2))
      (node (ref U5) (pin 13))
      (node (ref Q2) (pin 3))
      (node (ref SONAR2) (pin 1))
      (node (ref SONAR1) (pin 1))
      (node (ref SONAR3) (pin 1))
      (node (ref U3) (pin 1))
      (node (ref C4) (pin 2))
      (node (ref C3) (pin 2))
      (node (ref J1) (pin 1))
      (node (ref C1) (pin 2))
      (node (ref C2) (pin 2))
      (node (ref C7) (pin 2))
      (node (ref C5) (pin 2))
      (node (ref C6) (pin 2))
      (node (ref U1) (pin 1))
      (node (ref U5) (pin 22))
      (node (ref BT1) (pin 2))
      (node (ref J2) (pin 1))
      (node (ref U5) (pin 21))
      (node (ref D1) (pin 2))
      (node (ref SEN5) (pin E))
      (node (ref Q1) (pin 1))
      (node (ref SEN4) (pin E))
      (node (ref SEN2) (pin E))
      (node (ref SEN1) (pin E))
      (node (ref SEN3) (pin E))
      (node (ref U2) (pin 40))
      (node (ref SEN6) (pin E))
      (node (ref SENF2) (pin E))
      (node (ref SENF1) (pin E))
      (node (ref U2) (pin 39))
      (node (ref U2) (pin 19))
      (node (ref IC1) (pin 3))
      (node (ref IC1) (pin 4))
      (node (ref IC1) (pin 9))
      (node (ref IC1) (pin 10))
      (node (ref NT1) (pin 1))
      (node (ref U4) (pin 2))
      (node (ref R15) (pin 2)))
    (net (code 4) (name "Net-(U2-Pad18)")
      (node (ref U2) (pin 18)))
    (net (code 5) (name /RESET)
      (node (ref U2) (pin 37))
      (node (ref SW2) (pin 1)))
    (net (code 6) (name "/Sensores frontales/SEN2")
      (node (ref U2) (pin 27))
      (node (ref R8) (pin 2))
      (node (ref SEN2) (pin C)))
    (net (code 7) (name /MPU6050/SDA)
      (node (ref U4) (pin 4))
      (node (ref U2) (pin 17))
      (node (ref R14) (pin 2)))
    (net (code 8) (name "/Driver motores/BIN2")
      (node (ref U2) (pin 36))
      (node (ref IC1) (pin 16)))
    (net (code 9) (name "/Sensores frontales/SEN1")
      (node (ref U2) (pin 26))
      (node (ref SEN1) (pin C))
      (node (ref R7) (pin 2)))
    (net (code 10) (name /MPU6050/SCL)
      (node (ref R13) (pin 2))
      (node (ref U4) (pin 3))
      (node (ref U2) (pin 16)))
    (net (code 11) (name "/Driver motores/BIN1")
      (node (ref IC1) (pin 17))
      (node (ref U2) (pin 35)))
    (net (code 12) (name "/Sensores frontales/SEN5")
      (node (ref SEN5) (pin C))
      (node (ref R11) (pin 2))
      (node (ref U2) (pin 30)))
    (net (code 13) (name /Leds/YELLOW_LED)
      (node (ref U2) (pin 1))
      (node (ref R18) (pin 2)))
    (net (code 14) (name /MPU6050/INT)
      (node (ref U2) (pin 3))
      (node (ref U4) (pin 8)))
    (net (code 15) (name /Sonares/TRIG)
      (node (ref SONAR2) (pin 3))
      (node (ref SONAR3) (pin 3))
      (node (ref U2) (pin 4))
      (node (ref SONAR1) (pin 3)))
    (net (code 16) (name /Leds/RED_LED)
      (node (ref R17) (pin 2))
      (node (ref U2) (pin 5)))
    (net (code 17) (name /Bluetooth/RXD)
      (node (ref U2) (pin 6))
      (node (ref U5) (pin 2)))
    (net (code 18) (name /Bluetooth/TXD)
      (node (ref U5) (pin 1))
      (node (ref U2) (pin 7)))
    (net (code 19) (name "Net-(U2-Pad8)")
      (node (ref U2) (pin 8)))
    (net (code 20) (name "Net-(U2-Pad9)")
      (node (ref U2) (pin 9)))
    (net (code 21) (name "/Driver motores/AIN1")
      (node (ref IC1) (pin 21))
      (node (ref U2) (pin 10)))
    (net (code 22) (name "/Driver motores/AIN2")
      (node (ref U2) (pin 11))
      (node (ref IC1) (pin 22)))
    (net (code 23) (name "Net-(U2-Pad21)")
      (node (ref U2) (pin 21)))
    (net (code 24) (name "/Sensores frontales/SEN6")
      (node (ref R12) (pin 2))
      (node (ref SEN6) (pin C))
      (node (ref U2) (pin 31)))
    (net (code 25) (name "/Driver motores/I_OUT_A")
      (node (ref J1) (pin 3))
      (node (ref U2) (pin 12)))
    (net (code 26) (name "Net-(U2-Pad22)")
      (node (ref U2) (pin 22)))
    (net (code 27) (name "/Sensores frontales/SENF1")
      (node (ref U2) (pin 32))
      (node (ref SENF1) (pin C))
      (node (ref R2) (pin 2)))
    (net (code 28) (name "/Driver motores/I_OUT_B")
      (node (ref J1) (pin 2))
      (node (ref U2) (pin 13)))
    (net (code 29) (name "Net-(U2-Pad23)")
      (node (ref U2) (pin 23)))
    (net (code 30) (name "/Sensores frontales/SENF2")
      (node (ref SENF2) (pin C))
      (node (ref R3) (pin 2))
      (node (ref U2) (pin 33)))
    (net (code 31) (name "/Driver motores/D_OUT_A")
      (node (ref J2) (pin 3))
      (node (ref U2) (pin 14)))
    (net (code 32) (name "Net-(U2-Pad24)")
      (node (ref U2) (pin 24)))
    (net (code 33) (name "/Driver motores/D_OUT_B")
      (node (ref J2) (pin 2))
      (node (ref U2) (pin 15)))
    (net (code 34) (name "/Driver motores/STBY")
      (node (ref IC1) (pin 19))
      (node (ref U2) (pin 25)))
    (net (code 35) (name +3.3V)
      (node (ref IC1) (pin 15))
      (node (ref IC1) (pin 20))
      (node (ref C7) (pin 1))
      (node (ref J2) (pin 4))
      (node (ref J1) (pin 4))
      (node (ref R13) (pin 1))
      (node (ref IC1) (pin 23))
      (node (ref R14) (pin 1))
      (node (ref R12) (pin 1))
      (node (ref R11) (pin 1))
      (node (ref R10) (pin 1))
      (node (ref R8) (pin 1))
      (node (ref R9) (pin 1))
      (node (ref R2) (pin 1))
      (node (ref R3) (pin 1))
      (node (ref NT3) (pin 2))
      (node (ref R7) (pin 1)))
    (net (code 36) (name +5V)
      (node (ref SONAR3) (pin 4))
      (node (ref SONAR1) (pin 4))
      (node (ref SONAR2) (pin 4))
      (node (ref NT2) (pin 2)))
    (net (code 37) (name VSS)
      (node (ref NT1) (pin 2))
      (node (ref IC1) (pin 18)))
    (net (code 38) (name +5VP)
      (node (ref U1) (pin 2))
      (node (ref C2) (pin 1))
      (node (ref SENF1) (pin A))
      (node (ref NT2) (pin 1))
      (node (ref SEN1) (pin A))
      (node (ref SEN3) (pin A))
      (node (ref U4) (pin 1))
      (node (ref SEN5) (pin A)))
    (net (code 39) (name +3.3VP)
      (node (ref NT3) (pin 1))
      (node (ref U2) (pin 20))
      (node (ref LD1) (pin 1))
      (node (ref U2) (pin 38))
      (node (ref P1) (pin 2))
      (node (ref U3) (pin 2))
      (node (ref C4) (pin 1))
      (node (ref LD2) (pin 1)))
    (net (code 40) (name /BAT1_BAT2)
      (node (ref BT2) (pin 2))
      (node (ref BT1) (pin 1)))
    (net (code 41) (name /BAT_FET)
      (node (ref SW1) (pin 1))
      (node (ref Q1) (pin 2)))
    (net (code 42) (name "Net-(SW1-Pad3)")
      (node (ref SW1) (pin 3)))
    (net (code 43) (name +BATT)
      (node (ref U1) (pin 3))
      (node (ref U3) (pin 3))
      (node (ref C3) (pin 1))
      (node (ref C1) (pin 1))
      (node (ref C5) (pin 1))
      (node (ref C6) (pin 1))
      (node (ref Q1) (pin 3))
      (node (ref IC1) (pin 13))
      (node (ref IC1) (pin 14))
      (node (ref IC1) (pin 24)))
    (net (code 44) (name /BAT_INT)
      (node (ref SW1) (pin 2))
      (node (ref BT2) (pin 1)))
    (net (code 45) (name "/Sensores frontales/LEDON")
      (node (ref U2) (pin 2))
      (node (ref Q2) (pin 1)))
    (net (code 46) (name /Sonares/ECHO)
      (node (ref NT5) (pin 2))
      (node (ref R15) (pin 1))
      (node (ref NT4) (pin 2))
      (node (ref U2) (pin 34))
      (node (ref SONAR1) (pin 2)))
    (net (code 47) (name "Net-(R1-Pad1)")
      (node (ref R1) (pin 1))
      (node (ref SENF1) (pin K)))
    (net (code 48) (name "Net-(R1-Pad2)")
      (node (ref R1) (pin 2))
      (node (ref SENF2) (pin A)))
    (net (code 49) (name "Net-(R4-Pad1)")
      (node (ref R4) (pin 1))
      (node (ref SEN1) (pin K)))
    (net (code 50) (name "Net-(R4-Pad2)")
      (node (ref R4) (pin 2))
      (node (ref SEN2) (pin A)))
    (net (code 51) (name "Net-(R5-Pad1)")
      (node (ref R5) (pin 1))
      (node (ref SEN3) (pin K)))
    (net (code 52) (name "Net-(R5-Pad2)")
      (node (ref R5) (pin 2))
      (node (ref SEN4) (pin A)))
    (net (code 53) (name "Net-(R6-Pad1)")
      (node (ref R6) (pin 1))
      (node (ref SEN5) (pin K)))
    (net (code 54) (name "Net-(R6-Pad2)")
      (node (ref SEN6) (pin A))
      (node (ref R6) (pin 2)))
    (net (code 55) (name "Net-(Q2-Pad2)")
      (node (ref Q2) (pin 2))
      (node (ref SENF2) (pin K))
      (node (ref SEN4) (pin K))
      (node (ref SEN2) (pin K))
      (node (ref SEN6) (pin K)))
    (net (code 56) (name "Net-(U4-Pad5)")
      (node (ref U4) (pin 5)))
    (net (code 57) (name "Net-(U4-Pad6)")
      (node (ref U4) (pin 6)))
    (net (code 58) (name "Net-(U4-Pad7)")
      (node (ref U4) (pin 7)))
    (net (code 59) (name "Net-(NT4-Pad1)")
      (node (ref SONAR2) (pin 2))
      (node (ref NT4) (pin 1)))
    (net (code 60) (name "Net-(NT5-Pad1)")
      (node (ref SONAR3) (pin 2))
      (node (ref NT5) (pin 1)))
    (net (code 61) (name "Net-(R16-Pad2)")
      (node (ref U5) (pin 24))
      (node (ref R16) (pin 2)))
    (net (code 62) (name "Net-(D1-Pad1)")
      (node (ref D1) (pin 1))
      (node (ref R16) (pin 1)))
    (net (code 63) (name /Bluetooth/JUMPER_3.3V)
      (node (ref U5) (pin 12))
      (node (ref P1) (pin 1)))
    (net (code 64) (name "Net-(U5-Pad9)")
      (node (ref U5) (pin 9)))
    (net (code 65) (name "Net-(U5-Pad26)")
      (node (ref U5) (pin 26)))
    (net (code 66) (name "Net-(U5-Pad11)")
      (node (ref U5) (pin 11)))
    (net (code 67) (name "Net-(U5-Pad8)")
      (node (ref U5) (pin 8)))
    (net (code 68) (name "Net-(U5-Pad32)")
      (node (ref U5) (pin 32)))
    (net (code 69) (name "Net-(U5-Pad31)")
      (node (ref U5) (pin 31)))
    (net (code 70) (name "Net-(U5-Pad30)")
      (node (ref U5) (pin 30)))
    (net (code 71) (name "Net-(U5-Pad20)")
      (node (ref U5) (pin 20)))
    (net (code 72) (name "Net-(U5-Pad10)")
      (node (ref U5) (pin 10)))
    (net (code 73) (name "Net-(U5-Pad7)")
      (node (ref U5) (pin 7)))
    (net (code 74) (name "Net-(U5-Pad6)")
      (node (ref U5) (pin 6)))
    (net (code 75) (name "Net-(U5-Pad5)")
      (node (ref U5) (pin 5)))
    (net (code 76) (name "Net-(U5-Pad4)")
      (node (ref U5) (pin 4)))
    (net (code 77) (name "Net-(U5-Pad3)")
      (node (ref U5) (pin 3)))
    (net (code 78) (name "Net-(U5-Pad23)")
      (node (ref U5) (pin 23)))
    (net (code 79) (name "Net-(U5-Pad29)")
      (node (ref U5) (pin 29)))
    (net (code 80) (name "Net-(U5-Pad19)")
      (node (ref U5) (pin 19)))
    (net (code 81) (name "Net-(U5-Pad28)")
      (node (ref U5) (pin 28)))
    (net (code 82) (name "Net-(U5-Pad18)")
      (node (ref U5) (pin 18)))
    (net (code 83) (name "Net-(U5-Pad27)")
      (node (ref U5) (pin 27)))
    (net (code 84) (name "Net-(U5-Pad17)")
      (node (ref U5) (pin 17)))
    (net (code 85) (name "Net-(U5-Pad16)")
      (node (ref U5) (pin 16)))
    (net (code 86) (name "Net-(U5-Pad25)")
      (node (ref U5) (pin 25)))
    (net (code 87) (name "Net-(U5-Pad15)")
      (node (ref U5) (pin 15)))
    (net (code 88) (name "Net-(U5-Pad34)")
      (node (ref U5) (pin 34)))
    (net (code 89) (name "Net-(U5-Pad14)")
      (node (ref U5) (pin 14)))
    (net (code 90) (name "Net-(U5-Pad33)")
      (node (ref U5) (pin 33)))
    (net (code 91) (name "/Driver motores/I_M2")
      (node (ref IC1) (pin 7))
      (node (ref IC1) (pin 8))
      (node (ref J1) (pin 5)))
    (net (code 92) (name "/Driver motores/D_M2")
      (node (ref IC1) (pin 1))
      (node (ref J2) (pin 5))
      (node (ref IC1) (pin 2)))
    (net (code 93) (name "/Driver motores/D_M1")
      (node (ref IC1) (pin 5))
      (node (ref IC1) (pin 6))
      (node (ref J2) (pin 6)))
    (net (code 94) (name "/Driver motores/I_M1")
      (node (ref J1) (pin 6))
      (node (ref IC1) (pin 11))
      (node (ref IC1) (pin 12)))
    (net (code 95) (name "Net-(LD2-Pad2)")
      (node (ref R18) (pin 1))
      (node (ref LD2) (pin 2)))
    (net (code 96) (name "Net-(LD1-Pad2)")
      (node (ref R17) (pin 1))
      (node (ref LD1) (pin 2)))))