EESchema Schematic File Version 2
LIBS:robot-rescue
LIBS:robot
LIBS:conn
LIBS:power
LIBS:w_analog
LIBS:w_connectors
LIBS:w_device
LIBS:w_logic
LIBS:w_memory
LIBS:w_microcontrollers
LIBS:w_opto
LIBS:w_relay
LIBS:w_rtx
LIBS:w_transistor
LIBS:w_vacuum
LIBS:robot-cache
EELAYER 25 0
EELAYER END
$Descr A4 11693 8268
encoding utf-8
Sheet 1 8
Title ""
Date ""
Rev ""
Comp ""
Comment1 ""
Comment2 ""
Comment3 ""
Comment4 ""
$EndDescr
Text Label 5150 1450 2    60   ~ 0
LEDON
$Comp
L GND #PWR01
U 1 1 546BE962
P 2050 7550
F 0 "#PWR01" H 2050 7550 30  0001 C CNN
F 1 "GND" H 2050 7480 30  0001 C CNN
F 2 "" H 2050 7550 60  0000 C CNN
F 3 "" H 2050 7550 60  0000 C CNN
	1    2050 7550
	1    0    0    -1  
$EndComp
$Comp
L GND #PWR02
U 1 1 546BE987
P 4750 7550
F 0 "#PWR02" H 4750 7550 30  0001 C CNN
F 1 "GND" H 4750 7480 30  0001 C CNN
F 2 "" H 4750 7550 60  0000 C CNN
F 3 "" H 4750 7550 60  0000 C CNN
	1    4750 7550
	1    0    0    -1  
$EndComp
$Comp
L CP2 C3
U 1 1 546BED42
P 4250 7150
F 0 "C3" H 4250 7250 40  0000 L CNN
F 1 "10u" H 4256 7065 40  0000 L CNN
F 2 "w_smd_cap:c_tant_B" H 4288 7000 30  0001 C CNN
F 3 "" H 4250 7150 60  0000 C CNN
	1    4250 7150
	1    0    0    -1  
$EndComp
$Comp
L CP2 C1
U 1 1 546BEDFC
P 1550 7150
F 0 "C1" H 1550 7250 40  0000 L CNN
F 1 "10u" H 1556 7065 40  0000 L CNN
F 2 "w_smd_cap:c_tant_B" H 1588 7000 30  0001 C CNN
F 3 "" H 1550 7150 60  0000 C CNN
	1    1550 7150
	1    0    0    -1  
$EndComp
$Comp
L CP2 C2
U 1 1 546BEE5E
P 2550 7150
F 0 "C2" H 2550 7250 40  0000 L CNN
F 1 "10u" H 2556 7065 40  0000 L CNN
F 2 "w_smd_cap:c_tant_B" H 2588 7000 30  0001 C CNN
F 3 "" H 2550 7150 60  0000 C CNN
	1    2550 7150
	1    0    0    -1  
$EndComp
$Comp
L CP2 C4
U 1 1 546BEEB3
P 5250 7150
F 0 "C4" H 5250 7250 40  0000 L CNN
F 1 "10u" H 5256 7065 40  0000 L CNN
F 2 "w_smd_cap:c_tant_B" H 5288 7000 30  0001 C CNN
F 3 "" H 5250 7150 60  0000 C CNN
	1    5250 7150
	1    0    0    -1  
$EndComp
$Comp
L +3.3V #PWR03
U 1 1 546BFDE4
P 6050 6850
F 0 "#PWR03" H 6050 6810 30  0001 C CNN
F 1 "+3.3V" H 6050 6960 30  0000 C CNN
F 2 "" H 6050 6850 60  0000 C CNN
F 3 "" H 6050 6850 60  0000 C CNN
	1    6050 6850
	1    0    0    -1  
$EndComp
$Comp
L +5V #PWR04
U 1 1 546C03D5
P 3350 6800
F 0 "#PWR04" H 3350 6890 20  0001 C CNN
F 1 "+5V" H 3350 6890 30  0000 C CNN
F 2 "" H 3350 6800 60  0000 C CNN
F 3 "" H 3350 6800 60  0000 C CNN
	1    3350 6800
	1    0    0    -1  
$EndComp
$Comp
L BATTERY BT1
U 1 1 546C96F8
P 1850 6000
F 0 "BT1" H 1850 6200 50  0000 C CNN
F 1 "BATTERY" H 1850 5810 50  0000 C CNN
F 2 "Robot2015:Portapilas_keystone_1028" H 1850 6000 60  0001 C CNN
F 3 "" H 1850 6000 60  0000 C CNN
F 4 "1650669" H 1850 6000 60  0001 C CNN "Farnell PN"
	1    1850 6000
	-1   0    0    1   
$EndComp
$Comp
L BATTERY BT2
U 1 1 546C9782
P 2650 6000
F 0 "BT2" H 2650 6200 50  0000 C CNN
F 1 "BATTERY" H 2650 5810 50  0000 C CNN
F 2 "Robot2015:Portapilas_keystone_1028" H 2650 6000 60  0001 C CNN
F 3 "" H 2650 6000 60  0000 C CNN
F 4 "1650669" H 2650 6000 60  0001 C CNN "Farnell PN"
	1    2650 6000
	-1   0    0    1   
$EndComp
$Comp
L +BATT #PWR05
U 1 1 546C97D2
P 4900 5850
F 0 "#PWR05" H 4900 5800 20  0001 C CNN
F 1 "+BATT" H 4900 5950 30  0000 C CNN
F 2 "" H 4900 5850 60  0000 C CNN
F 3 "" H 4900 5850 60  0000 C CNN
	1    4900 5850
	1    0    0    -1  
$EndComp
$Comp
L GND #PWR06
U 1 1 546C97FD
P 1300 6100
F 0 "#PWR06" H 1300 6100 30  0001 C CNN
F 1 "GND" H 1300 6030 30  0001 C CNN
F 2 "" H 1300 6100 60  0000 C CNN
F 3 "" H 1300 6100 60  0000 C CNN
	1    1300 6100
	1    0    0    -1  
$EndComp
$Comp
L +BATT #PWR07
U 1 1 546CA3A6
P 1300 6800
F 0 "#PWR07" H 1300 6750 20  0001 C CNN
F 1 "+BATT" H 1300 6900 30  0000 C CNN
F 2 "" H 1300 6800 60  0000 C CNN
F 3 "" H 1300 6800 60  0000 C CNN
	1    1300 6800
	1    0    0    -1  
$EndComp
$Comp
L +BATT #PWR08
U 1 1 546CABF1
P 4000 6800
F 0 "#PWR08" H 4000 6750 20  0001 C CNN
F 1 "+BATT" H 4000 6900 30  0000 C CNN
F 2 "" H 4000 6800 60  0000 C CNN
F 3 "" H 4000 6800 60  0000 C CNN
	1    4000 6800
	1    0    0    -1  
$EndComp
$Comp
L SWITCH_INV SW1
U 1 1 546D1503
P 3650 6000
F 0 "SW1" H 3450 6150 50  0000 C CNN
F 1 "SWITCH_INV" H 3500 5850 50  0000 C CNN
F 2 "Robot2015:SS-12F45_slide_switch_bangood" H 3650 6000 60  0001 C CNN
F 3 "" H 3650 6000 60  0000 C CNN
	1    3650 6000
	1    0    0    -1  
$EndComp
Entry Wire Line
	-11300 -4450 -11200 -4350
Entry Wire Line
	-11300 -4450 -11200 -4350
$Comp
L GND #PWR09
U 1 1 546D241A
P 4550 6350
F 0 "#PWR09" H 4550 6350 30  0001 C CNN
F 1 "GND" H 4550 6280 30  0001 C CNN
F 2 "" H 4550 6350 60  0000 C CNN
F 3 "" H 4550 6350 60  0000 C CNN
	1    4550 6350
	1    0    0    -1  
$EndComp
$Comp
L SW_PUSH SW2
U 1 1 54A2ED97
P 6350 6150
F 0 "SW2" H 6500 6260 50  0000 C CNN
F 1 "SW_PUSH" H 6350 6070 50  0000 C CNN
F 2 "w_switch:PCB_PUSH" H 6350 6150 60  0001 C CNN
F 3 "" H 6350 6150 60  0000 C CNN
	1    6350 6150
	1    0    0    -1  
$EndComp
Text Label 5900 6150 2    60   ~ 0
RESET
$Comp
L GND #PWR010
U 1 1 54A2EFCD
P 6750 6350
F 0 "#PWR010" H 6750 6350 30  0001 C CNN
F 1 "GND" H 6750 6280 30  0001 C CNN
F 2 "" H 6750 6350 60  0000 C CNN
F 3 "" H 6750 6350 60  0000 C CNN
	1    6750 6350
	1    0    0    -1  
$EndComp
Wire Wire Line
	1300 6900 1700 6900
Wire Wire Line
	2400 6900 2850 6900
Wire Wire Line
	4000 6900 4400 6900
Wire Wire Line
	5100 6900 5550 6900
Wire Wire Line
	1550 7350 1550 7400
Wire Wire Line
	1550 7400 2550 7400
Connection ~ 2050 7400
Wire Wire Line
	2550 7400 2550 7350
Wire Wire Line
	2550 6950 2550 6900
Connection ~ 2550 6900
Wire Wire Line
	1550 6900 1550 6950
Connection ~ 1550 6900
Wire Wire Line
	4250 6900 4250 6950
Connection ~ 4250 6900
Wire Wire Line
	4250 7350 4250 7400
Wire Wire Line
	4250 7400 5250 7400
Connection ~ 4750 7400
Wire Wire Line
	5250 7400 5250 7350
Wire Wire Line
	5250 6950 5250 6900
Connection ~ 5250 6900
Wire Wire Line
	2750 6900 2750 6800
Wire Wire Line
	5450 6900 5450 6850
Wire Wire Line
	3150 6000 2950 6000
Wire Wire Line
	2350 6000 2150 6000
Wire Wire Line
	1200 6000 1550 6000
Wire Wire Line
	1300 6800 1300 6900
Wire Wire Line
	4000 6800 4000 6900
Wire Wire Line
	1300 6000 1300 6100
Wire Wire Line
	4700 5900 4900 5900
Wire Wire Line
	4900 5900 4900 5850
Wire Wire Line
	4550 6100 4550 6350
Wire Wire Line
	5900 6150 6200 6150
Wire Wire Line
	6500 6150 6750 6150
Wire Wire Line
	6750 6150 6750 6350
$Sheet
S 5150 850  1200 1050
U 54AA4E6F
F0 "Sensores frontales" 60
F1 "sensores_frontales.sch" 60
F2 "LEDON" I L 5150 1450 60 
F3 "SEN1" O R 6350 950 60 
F4 "SEN2" O R 6350 1050 60 
F5 "SEN3" O R 6350 1150 60 
F6 "SEN4" O R 6350 1250 60 
F7 "SEN5" O R 6350 1350 60 
F8 "SEN6" O R 6350 1450 60 
F9 "SENF1" O R 6350 1650 60 
F10 "SENF2" O R 6350 1750 60 
$EndSheet
$Sheet
S 7650 2600 1050 700 
U 54AA7B99
F0 "MPU6050" 60
F1 "mpu6050.sch" 60
F2 "SCL" I L 7650 2800 60 
F3 "SDA" B L 7650 3100 60 
F4 "INT" O R 8700 2800 60 
$EndSheet
$Sheet
S 5300 4100 950  600 
U 54AA8B58
F0 "Sonares" 60
F1 "sonares.sch" 60
F2 "TRIG" I L 5300 4350 60 
F3 "ECHO" O L 5300 4500 60 
$EndSheet
$Sheet
S 5300 2600 900  550 
U 54AAA374
F0 "Bluetooth" 60
F1 "bluetooth.sch" 60
F2 "RXD" I L 5300 2750 60 
F3 "TXD" O L 5300 3050 60 
$EndSheet
Text Label 5300 2750 2    60   ~ 0
MCU_TX
Text Label 5300 3050 2    60   ~ 0
MCU_RX
Text Label 6350 950  0    60   ~ 0
SEN1
Text Label 6350 1050 0    60   ~ 0
SEN2
Text Label 6350 1150 0    60   ~ 0
SEN3
Text Label 6350 1250 0    60   ~ 0
SEN4
Text Label 6350 1350 0    60   ~ 0
SEN5
Text Label 6350 1450 0    60   ~ 0
SEN6
Text Label 6350 1650 0    60   ~ 0
SENF1
Text Label 5300 4350 2    60   ~ 0
SONAR_TRIG
Text Label 7650 2800 2    60   ~ 0
SCL
Text Label 7650 3100 2    60   ~ 0
SDA
Text Label 8700 2800 0    60   ~ 0
MPU_INT
$Sheet
S 7750 850  1100 800 
U 54AAE587
F0 "Driver motores" 60
F1 "driver_motores.sch" 60
F2 "AIN1" I L 7750 1000 60 
F3 "AIN2" I L 7750 1100 60 
F4 "BIN1" I L 7750 1200 60 
F5 "BIN2" I L 7750 1300 60 
F6 "STBY" I L 7750 1400 60 
F7 "I_OUT_B" O R 8850 1200 60 
F8 "I_OUT_A" O R 8850 1100 60 
F9 "D_OUT_B" O R 8850 1400 60 
F10 "D_OUT_A" O R 8850 1300 60 
$EndSheet
Text Label 7750 1000 2    60   ~ 0
LEFT_MOTOR_1
Text Label 7750 1100 2    60   ~ 0
LEFT_MOTOR_2
Text Label 7750 1200 2    60   ~ 0
RIGHT_MOTOR_1
Text Label 7750 1300 2    60   ~ 0
RIGHT_MOTOR_2
Text Label 7750 1400 2    60   ~ 0
MOTOR_STBY
NoConn ~ 4150 6100
$Comp
L PWR_FLAG #FLG011
U 1 1 54AB2148
P 4900 5900
F 0 "#FLG011" H 4900 5995 30  0001 C CNN
F 1 "PWR_FLAG" H 4900 6080 30  0000 C CNN
F 2 "" H 4900 5900 60  0000 C CNN
F 3 "" H 4900 5900 60  0000 C CNN
	1    4900 5900
	0    1    1    0   
$EndComp
$Comp
L PWR_FLAG #FLG012
U 1 1 54AB448B
P 1300 6000
F 0 "#FLG012" H 1300 6095 30  0001 C CNN
F 1 "PWR_FLAG" H 1300 6180 30  0000 C CNN
F 2 "" H 1300 6000 60  0000 C CNN
F 3 "" H 1300 6000 60  0000 C CNN
	1    1300 6000
	1    0    0    -1  
$EndComp
$Comp
L LM1117-SOT U3
U 1 1 54AC4378
P 4750 6900
F 0 "U3" H 4750 7100 60  0000 C CNN
F 1 "LD1117S33TR" H 4750 7000 60  0000 C CNN
F 2 "Robot2015:sot223-regulator" H 4750 6900 60  0001 C CNN
F 3 "" H 4750 6900 60  0000 C CNN
F 4 "1202826" H 4750 6900 60  0001 C CNN "Farnell PN"
	1    4750 6900
	1    0    0    -1  
$EndComp
Wire Wire Line
	2050 7250 2050 7550
Wire Wire Line
	4750 7250 4750 7550
Wire Wire Line
	4150 5900 4400 5900
$Comp
L LM1117-SOT U1
U 1 1 54AC66A8
P 2050 6900
F 0 "U1" H 2050 7100 60  0000 C CNN
F 1 "LD1117S50TR" H 2050 7000 60  0000 C CNN
F 2 "Robot2015:sot223-regulator" H 2050 6900 60  0001 C CNN
F 3 "" H 2050 6900 60  0000 C CNN
F 4 "1467781" H 2050 6900 60  0001 C CNN "Farnell PN"
	1    2050 6900
	1    0    0    -1  
$EndComp
Text Label 2250 6000 1    60   ~ 0
BAT1_BAT2
Text Label 3050 6000 1    60   ~ 0
BAT_INT
Text Label 4300 5900 1    60   ~ 0
BAT_FET
$Comp
L MOS_P_GDS Q1
U 1 1 54BB0DAE
P 4550 6000
F 0 "Q1" H 4453 6250 70  0000 C CNN
F 1 "PMV48XP" H 4403 5753 60  0000 C CNN
F 2 "Robot2015:sot23-hand-solder" H 4550 6000 60  0001 C CNN
F 3 "" H 4550 6000 60  0000 C CNN
	1    4550 6000
	0    -1   -1   0   
$EndComp
$Comp
L Bluepill_STM32F103C8T6 U2
U 1 1 56A66F0E
P 2250 1950
F 0 "U2" H 2250 3000 60  0000 C CNN
F 1 "Bluepill_STM32F103C8T6" H 2250 900 60  0000 C CNN
F 2 "Robot2015:Bluepill_STM32F103C8T6" H 2250 1950 60  0001 C CNN
F 3 "" H 2250 1950 60  0000 C CNN
	1    2250 1950
	1    0    0    -1  
$EndComp
Text Label 2950 2400 0    60   ~ 0
SEN1
Text Label 2950 2300 0    60   ~ 0
SEN2
Text Label 2950 2200 0    60   ~ 0
SEN3
Text Label 2950 2100 0    60   ~ 0
SEN4
Text Label 2950 2000 0    60   ~ 0
SEN5
Text Label 2950 1900 0    60   ~ 0
SEN6
Text Label 2950 1800 0    60   ~ 0
SENF1
Text Label 2950 1700 0    60   ~ 0
SENF2
Text Label 2950 1500 0    60   ~ 0
RIGHT_MOTOR_1
Text Label 2950 1400 0    60   ~ 0
RIGHT_MOTOR_2
$Comp
L GND #PWR013
U 1 1 56A68237
P 1300 3050
F 0 "#PWR013" H 1300 3050 30  0001 C CNN
F 1 "GND" H 1300 2980 30  0001 C CNN
F 2 "" H 1300 3050 60  0000 C CNN
F 3 "" H 1300 3050 60  0000 C CNN
	1    1300 3050
	1    0    0    -1  
$EndComp
Wire Wire Line
	1550 2800 1300 2800
Wire Wire Line
	1300 2800 1300 3050
$Comp
L GND #PWR014
U 1 1 56A6B03E
P 3400 1200
F 0 "#PWR014" H 3400 1200 30  0001 C CNN
F 1 "GND" H 3400 1130 30  0001 C CNN
F 2 "" H 3400 1200 60  0000 C CNN
F 3 "" H 3400 1200 60  0000 C CNN
	1    3400 1200
	1    0    0    -1  
$EndComp
Wire Wire Line
	2950 1100 3400 1100
Wire Wire Line
	3400 1000 3400 1200
Wire Wire Line
	2950 1000 3400 1000
Connection ~ 3400 1100
Text Label 1550 1200 2    60   ~ 0
MPU_INT
Text Label 1550 2600 2    60   ~ 0
SDA
Text Label 1550 2500 2    60   ~ 0
SCL
Text Label 1550 1900 2    60   ~ 0
LEFT_MOTOR_1
Text Label 1550 2000 2    60   ~ 0
LEFT_MOTOR_2
Text Label 1550 2100 2    60   ~ 0
LEFT_ENCODER_1
Text Label 1550 2200 2    60   ~ 0
LEFT_ENCODER_2
Text Label 1550 2300 2    60   ~ 0
RIGHT_ENCODER_1
Text Label 1550 2400 2    60   ~ 0
RIGHT_ENCODER_2
Text Label 2950 1300 0    60   ~ 0
RESET
Text Label 1550 1500 2    60   ~ 0
MCU_TX
Text Label 1550 1600 2    60   ~ 0
MCU_RX
NoConn ~ 1550 1700
NoConn ~ 1550 1800
Text Notes 950  4150 0    60   ~ 0
BROKEN OUT, NOT USED\n--------------\n5V: NOT USED\nA11: USB_DM\nA12: USB_DP\nC13: ON-BOARD LED\nC14: ON-BOARD RCC\nC15: ON-BOARD RCC\nVB: NOT USED
Text Notes 2400 3800 0    60   ~ 0
NOT BROKEN OUT\n--------------\nA13: SWD\nA14: SWD\nB2: BOOT1
NoConn ~ 2950 2800
NoConn ~ 2950 2600
NoConn ~ 2950 2700
NoConn ~ 2950 2900
NoConn ~ 1550 2700
Text Label 1550 1300 2    60   ~ 0
SONAR_TRIG
Text Label 1550 1400 2    60   ~ 0
RED_LED
Text Label 1550 1100 2    60   ~ 0
LEDON
Text Label 1550 1000 2    60   ~ 0
YELLOW_LED
Text Label 2950 1600 0    60   ~ 0
SONAR_ECHO
Text Label 7450 4200 2    60   ~ 0
RED_LED
Text Label 7450 4350 2    60   ~ 0
YELLOW_LED
Text Label 6350 1750 0    60   ~ 0
SENF2
Text Label 2950 2500 0    60   ~ 0
MOTOR_STBY
Text Label 8850 1100 0    60   ~ 0
LEFT_ENCODER_1
Text Label 8850 1200 0    60   ~ 0
LEFT_ENCODER_2
Text Label 8850 1300 0    60   ~ 0
RIGHT_ENCODER_1
Text Label 8850 1400 0    60   ~ 0
RIGHT_ENCODER_2
$Comp
L +3.3VP #PWR015
U 1 1 56BA0866
P 5450 6850
F 0 "#PWR015" H 5500 6880 20  0001 C CNN
F 1 "+3.3VP" H 5450 6940 30  0000 C CNN
F 2 "" H 5450 6850 60  0000 C CNN
F 3 "" H 5450 6850 60  0000 C CNN
	1    5450 6850
	1    0    0    -1  
$EndComp
$Comp
L Net_tie NT3
U 1 1 56BA0B82
P 5750 6900
F 0 "NT3" H 5750 6750 60  0000 C CNN
F 1 "Net_tie" H 5750 7050 60  0000 C CNN
F 2 "Robot2015:Net_tie_30_10_mil" H 5750 6900 60  0001 C CNN
F 3 "" H 5750 6900 60  0000 C CNN
	1    5750 6900
	1    0    0    -1  
$EndComp
Connection ~ 5450 6900
Wire Wire Line
	5950 6900 6050 6900
Wire Wire Line
	6050 6900 6050 6850
$Comp
L Net_tie NT2
U 1 1 56BA1096
P 3050 6900
F 0 "NT2" H 3050 6750 60  0000 C CNN
F 1 "Net_tie" H 3050 7050 60  0000 C CNN
F 2 "Robot2015:Net_tie_30_10_mil" H 3050 6900 60  0001 C CNN
F 3 "" H 3050 6900 60  0000 C CNN
	1    3050 6900
	1    0    0    -1  
$EndComp
$Comp
L +5VP #PWR016
U 1 1 56BA1270
P 2750 6800
F 0 "#PWR016" H 2750 6890 20  0001 C CNN
F 1 "+5VP" H 2750 6890 30  0000 C CNN
F 2 "" H 2750 6800 60  0000 C CNN
F 3 "" H 2750 6800 60  0000 C CNN
	1    2750 6800
	1    0    0    -1  
$EndComp
Connection ~ 2750 6900
Wire Wire Line
	3250 6900 3350 6900
Wire Wire Line
	3350 6900 3350 6800
$Comp
L +3.3VP #PWR017
U 1 1 56BA196E
P 1550 2900
F 0 "#PWR017" H 1600 2930 20  0001 C CNN
F 1 "+3.3VP" H 1550 2990 30  0000 C CNN
F 2 "" H 1550 2900 60  0000 C CNN
F 3 "" H 1550 2900 60  0000 C CNN
	1    1550 2900
	0    -1   -1   0   
$EndComp
$Comp
L +3.3VP #PWR018
U 1 1 56BA1B81
P 2950 1200
F 0 "#PWR018" H 3000 1230 20  0001 C CNN
F 1 "+3.3VP" H 2950 1290 30  0000 C CNN
F 2 "" H 2950 1200 60  0000 C CNN
F 3 "" H 2950 1200 60  0000 C CNN
	1    2950 1200
	0    1    1    0   
$EndComp
$Comp
L Net_tie NT1
U 1 1 56BA4585
P 1000 6000
F 0 "NT1" H 1000 5850 60  0000 C CNN
F 1 "Net_tie" H 1000 6150 60  0000 C CNN
F 2 "Robot2015:Net_tie_30_10_mil" H 1000 6000 60  0001 C CNN
F 3 "" H 1000 6000 60  0000 C CNN
	1    1000 6000
	-1   0    0    1   
$EndComp
$Comp
L VSS #PWR019
U 1 1 56BA4681
P 700 6100
F 0 "#PWR019" H 700 6100 30  0001 C CNN
F 1 "VSS" H 700 6030 30  0000 C CNN
F 2 "" H 700 6100 60  0000 C CNN
F 3 "" H 700 6100 60  0000 C CNN
	1    700  6100
	1    0    0    -1  
$EndComp
Connection ~ 1300 6000
Wire Wire Line
	800  6000 700  6000
Wire Wire Line
	700  6000 700  6100
$Comp
L PWR_FLAG #FLG020
U 1 1 56BA4C09
P 700 6000
F 0 "#FLG020" H 700 6095 30  0001 C CNN
F 1 "PWR_FLAG" H 700 6180 30  0000 C CNN
F 2 "" H 700 6000 60  0000 C CNN
F 3 "" H 700 6000 60  0000 C CNN
	1    700  6000
	1    0    0    -1  
$EndComp
$Comp
L PWR_FLAG #FLG021
U 1 1 56BA7AE4
P 3350 6900
F 0 "#FLG021" H 3350 6995 30  0001 C CNN
F 1 "PWR_FLAG" H 3350 7080 30  0000 C CNN
F 2 "" H 3350 6900 60  0000 C CNN
F 3 "" H 3350 6900 60  0000 C CNN
	1    3350 6900
	0    1    1    0   
$EndComp
$Comp
L PWR_FLAG #FLG022
U 1 1 56BA8C17
P 6050 6900
F 0 "#FLG022" H 6050 6995 30  0001 C CNN
F 1 "PWR_FLAG" H 6050 7080 30  0000 C CNN
F 2 "" H 6050 6900 60  0000 C CNN
F 3 "" H 6050 6900 60  0000 C CNN
	1    6050 6900
	0    1    1    0   
$EndComp
$Sheet
S 7450 4050 1150 600 
U 56BAEB79
F0 "Leds" 60
F1 "Leds.sch" 60
F2 "RED_LED" I L 7450 4200 60 
F3 "YELLOW_LED" I L 7450 4350 60 
$EndSheet
$Sheet
S 8050 5350 1300 600 
U 56BB194B
F0 "Mecanico" 60
F1 "Mecanico.sch" 60
$EndSheet
Text Label 5300 4500 2    60   ~ 0
SONAR_ECHO
$EndSCHEMATC
