EESchema Schematic File Version 2
LIBS:robot-rescue
LIBS:robot
LIBS:conn
LIBS:power
LIBS:w_analog
LIBS:w_connectors
LIBS:w_device
LIBS:w_logic
LIBS:w_memory
LIBS:w_microcontrollers
LIBS:w_opto
LIBS:w_relay
LIBS:w_rtx
LIBS:w_transistor
LIBS:w_vacuum
LIBS:robot-cache
EELAYER 25 0
EELAYER END
$Descr A4 11693 8268
encoding utf-8
Sheet 2 8
Title ""
Date ""
Rev ""
Comp ""
Comment1 ""
Comment2 ""
Comment3 ""
Comment4 ""
$EndDescr
$Comp
L CNY70 SEN?
U 1 1 54AA52E0
P 4600 1900
AR Path="/54AA52E0" Ref="SEN?"  Part="1" 
AR Path="/54AA4E6F/54AA52E0" Ref="SEN1"  Part="1" 
F 0 "SEN1" H 4600 1650 60  0000 C CNN
F 1 "CNY70" H 4600 2150 60  0000 C CNN
F 2 "Robot2015:CNY70" H 4585 1875 60  0001 C CNN
F 3 "" H 4585 1875 60  0000 C CNN
F 4 "1470063" H 4600 1900 60  0001 C CNN "Farnell PN"
	1    4600 1900
	1    0    0    -1  
$EndComp
$Comp
L CNY70 SEN?
U 1 1 54AA52E7
P 4600 2600
AR Path="/54AA52E7" Ref="SEN?"  Part="1" 
AR Path="/54AA4E6F/54AA52E7" Ref="SEN2"  Part="1" 
F 0 "SEN2" H 4600 2350 60  0000 C CNN
F 1 "CNY70" H 4600 2850 60  0000 C CNN
F 2 "Robot2015:CNY70" H 4585 2575 60  0001 C CNN
F 3 "" H 4585 2575 60  0000 C CNN
F 4 "1470063" H 4600 2600 60  0001 C CNN "Farnell PN"
	1    4600 2600
	1    0    0    -1  
$EndComp
$Comp
L CNY70 SEN?
U 1 1 54AA52EE
P 4600 3300
AR Path="/54AA52EE" Ref="SEN?"  Part="1" 
AR Path="/54AA4E6F/54AA52EE" Ref="SEN3"  Part="1" 
F 0 "SEN3" H 4600 3050 60  0000 C CNN
F 1 "CNY70" H 4600 3550 60  0000 C CNN
F 2 "Robot2015:CNY70" H 4585 3275 60  0001 C CNN
F 3 "" H 4585 3275 60  0000 C CNN
F 4 "1470063" H 4600 3300 60  0001 C CNN "Farnell PN"
	1    4600 3300
	1    0    0    -1  
$EndComp
$Comp
L CNY70 SEN?
U 1 1 54AA52F5
P 4600 4000
AR Path="/54AA52F5" Ref="SEN?"  Part="1" 
AR Path="/54AA4E6F/54AA52F5" Ref="SEN4"  Part="1" 
F 0 "SEN4" H 4600 3750 60  0000 C CNN
F 1 "CNY70" H 4600 4250 60  0000 C CNN
F 2 "Robot2015:CNY70" H 4585 3975 60  0001 C CNN
F 3 "" H 4585 3975 60  0000 C CNN
F 4 "1470063" H 4600 4000 60  0001 C CNN "Farnell PN"
	1    4600 4000
	1    0    0    -1  
$EndComp
$Comp
L CNY70 SEN?
U 1 1 54AA52FC
P 4600 4700
AR Path="/54AA52FC" Ref="SEN?"  Part="1" 
AR Path="/54AA4E6F/54AA52FC" Ref="SEN5"  Part="1" 
F 0 "SEN5" H 4600 4450 60  0000 C CNN
F 1 "CNY70" H 4600 4950 60  0000 C CNN
F 2 "Robot2015:CNY70" H 4585 4675 60  0001 C CNN
F 3 "" H 4585 4675 60  0000 C CNN
F 4 "1470063" H 4600 4700 60  0001 C CNN "Farnell PN"
	1    4600 4700
	1    0    0    -1  
$EndComp
$Comp
L CNY70 SEN?
U 1 1 54AA5303
P 4600 5400
AR Path="/54AA5303" Ref="SEN?"  Part="1" 
AR Path="/54AA4E6F/54AA5303" Ref="SEN6"  Part="1" 
F 0 "SEN6" H 4600 5150 60  0000 C CNN
F 1 "CNY70" H 4600 5650 60  0000 C CNN
F 2 "Robot2015:CNY70" H 4585 5375 60  0001 C CNN
F 3 "" H 4585 5375 60  0000 C CNN
F 4 "1470063" H 4600 5400 60  0001 C CNN "Farnell PN"
	1    4600 5400
	1    0    0    -1  
$EndComp
$Comp
L R R4
U 1 1 54AA530A
P 4100 2250
F 0 "R4" V 4180 2250 40  0000 C CNN
F 1 "68 1/4W" V 4050 2250 40  0000 C CNN
F 2 "w_smd_resistors:r_1206" V 4030 2250 30  0001 C CNN
F 3 "" H 4100 2250 30  0000 C CNN
	1    4100 2250
	1    0    0    -1  
$EndComp
$Comp
L R R5
U 1 1 54AA5311
P 4100 3650
F 0 "R5" V 4180 3650 40  0000 C CNN
F 1 "68 1/4W" V 4050 3650 40  0000 C CNN
F 2 "w_smd_resistors:r_1206" V 4030 3650 30  0001 C CNN
F 3 "" H 4100 3650 30  0000 C CNN
	1    4100 3650
	1    0    0    -1  
$EndComp
$Comp
L R R6
U 1 1 54AA5318
P 4100 5050
F 0 "R6" V 4180 5050 40  0000 C CNN
F 1 "68 1/4W" V 4050 5050 40  0000 C CNN
F 2 "w_smd_resistors:r_1206" V 4030 5050 30  0001 C CNN
F 3 "" H 4100 5050 30  0000 C CNN
	1    4100 5050
	1    0    0    -1  
$EndComp
$Comp
L GND #PWR023
U 1 1 54AA532C
P 3600 6300
F 0 "#PWR023" H 3600 6300 30  0001 C CNN
F 1 "GND" H 3600 6230 30  0001 C CNN
F 2 "" H 3600 6300 60  0000 C CNN
F 3 "" H 3600 6300 60  0000 C CNN
	1    3600 6300
	1    0    0    -1  
$EndComp
$Comp
L R R8
U 1 1 54AA5338
P 5400 2250
F 0 "R8" V 5480 2250 40  0000 C CNN
F 1 "10K" V 5350 2250 40  0000 C CNN
F 2 "w_smd_resistors:r_1206" V 5330 2250 30  0001 C CNN
F 3 "" H 5400 2250 30  0000 C CNN
	1    5400 2250
	1    0    0    -1  
$EndComp
$Comp
L R R9
U 1 1 54AA533F
P 5400 2950
F 0 "R9" V 5480 2950 40  0000 C CNN
F 1 "10K" V 5350 2950 40  0000 C CNN
F 2 "w_smd_resistors:r_1206" V 5330 2950 30  0001 C CNN
F 3 "" H 5400 2950 30  0000 C CNN
	1    5400 2950
	1    0    0    -1  
$EndComp
$Comp
L R R10
U 1 1 54AA5346
P 5400 3650
F 0 "R10" V 5480 3650 40  0000 C CNN
F 1 "10K" V 5350 3650 40  0000 C CNN
F 2 "w_smd_resistors:r_1206" V 5330 3650 30  0001 C CNN
F 3 "" H 5400 3650 30  0000 C CNN
	1    5400 3650
	1    0    0    -1  
$EndComp
$Comp
L R R11
U 1 1 54AA534D
P 5400 4350
F 0 "R11" V 5480 4350 40  0000 C CNN
F 1 "10K" V 5350 4350 40  0000 C CNN
F 2 "w_smd_resistors:r_1206" V 5330 4350 30  0001 C CNN
F 3 "" H 5400 4350 30  0000 C CNN
	1    5400 4350
	1    0    0    -1  
$EndComp
$Comp
L R R12
U 1 1 54AA5354
P 5400 5050
F 0 "R12" V 5480 5050 40  0000 C CNN
F 1 "10K" V 5350 5050 40  0000 C CNN
F 2 "w_smd_resistors:r_1206" V 5330 5050 30  0001 C CNN
F 3 "" H 5400 5050 30  0000 C CNN
	1    5400 5050
	1    0    0    -1  
$EndComp
$Comp
L R R7
U 1 1 54AA535B
P 5400 1550
F 0 "R7" V 5480 1550 40  0000 C CNN
F 1 "10K" V 5350 1550 40  0000 C CNN
F 2 "w_smd_resistors:r_1206" V 5330 1550 30  0001 C CNN
F 3 "" H 5400 1550 30  0000 C CNN
	1    5400 1550
	1    0    0    -1  
$EndComp
Wire Wire Line
	4100 2000 4350 2000
Wire Wire Line
	4100 2500 4350 2500
Wire Wire Line
	4100 3400 4350 3400
Wire Wire Line
	4350 3900 4100 3900
Wire Wire Line
	4100 4800 4350 4800
Wire Wire Line
	4100 5300 4350 5300
Wire Wire Line
	3800 1200 3800 4600
Wire Wire Line
	3800 1800 4350 1800
Wire Wire Line
	4350 2700 3600 2700
Wire Wire Line
	3800 3200 4350 3200
Connection ~ 3800 1800
Wire Wire Line
	3800 4600 4350 4600
Connection ~ 3800 3200
Wire Wire Line
	3600 2700 3600 5700
Wire Wire Line
	4350 4100 3600 4100
Connection ~ 3600 4100
Wire Wire Line
	1250 5500 4350 5500
Connection ~ 3600 5500
Wire Wire Line
	3600 6000 3600 6300
Wire Wire Line
	5200 2000 5200 6300
Wire Wire Line
	4850 2000 5200 2000
Wire Wire Line
	4850 2700 5200 2700
Connection ~ 5200 2700
Wire Wire Line
	4850 3400 5200 3400
Connection ~ 5200 3400
Wire Wire Line
	4850 4100 5200 4100
Connection ~ 5200 4100
Wire Wire Line
	4850 4800 5200 4800
Connection ~ 5200 4800
Wire Wire Line
	4850 5500 5200 5500
Connection ~ 5200 5500
Wire Wire Line
	4850 1800 5950 1800
Wire Wire Line
	4850 2500 5950 2500
Connection ~ 5400 2500
Connection ~ 5400 1800
Wire Wire Line
	4850 3200 5950 3200
Connection ~ 5400 3200
Wire Wire Line
	4850 3900 5950 3900
Connection ~ 5400 3900
Wire Wire Line
	4850 4600 5950 4600
Connection ~ 5400 4600
Wire Wire Line
	4850 5300 5950 5300
Connection ~ 5400 5300
Wire Wire Line
	5400 1300 5700 1300
Wire Wire Line
	5700 1200 5700 4800
Wire Wire Line
	5700 2000 5400 2000
Connection ~ 5700 1300
Wire Wire Line
	5700 2700 5400 2700
Connection ~ 5700 2000
Wire Wire Line
	5700 3400 5400 3400
Connection ~ 5700 2700
Wire Wire Line
	5700 4100 5400 4100
Connection ~ 5700 3400
Wire Wire Line
	5700 4800 5400 4800
Connection ~ 5700 4100
Wire Wire Line
	3100 5850 3400 5850
Text HLabel 3100 5850 0    60   Input ~ 0
LEDON
Text HLabel 5950 1800 2    60   Output ~ 0
SEN1
Text HLabel 5950 2500 2    60   Output ~ 0
SEN2
Text HLabel 5950 3200 2    60   Output ~ 0
SEN3
Text HLabel 5950 3900 2    60   Output ~ 0
SEN4
Text HLabel 5950 4600 2    60   Output ~ 0
SEN5
Text HLabel 5950 5300 2    60   Output ~ 0
SEN6
Wire Wire Line
	4100 2350 4100 2500
Wire Wire Line
	4100 2000 4100 2150
Wire Wire Line
	5400 1300 5400 1450
Wire Wire Line
	5400 1650 5400 1800
Wire Wire Line
	5400 2000 5400 2150
Wire Wire Line
	5400 2350 5400 2500
Wire Wire Line
	5400 2700 5400 2850
Wire Wire Line
	5400 3050 5400 3200
Wire Wire Line
	5400 3400 5400 3550
Wire Wire Line
	5400 3750 5400 3900
Wire Wire Line
	5400 4100 5400 4250
Wire Wire Line
	5400 4450 5400 4600
Wire Wire Line
	5400 4800 5400 4950
Wire Wire Line
	5400 5150 5400 5300
Wire Wire Line
	4100 5300 4100 5150
Wire Wire Line
	4100 4950 4100 4800
Wire Wire Line
	4100 3900 4100 3750
Wire Wire Line
	4100 3400 4100 3550
Text Notes 9050 5200 0    60   ~ 0
I = V/R\nV = 5 - 2 * Vak\nVak = 1.24\nR = 68\n\nI = 2.52 / 68 = 37 mA <<< 50 mA\nP = I^2 * R = 93 mW <<< 1/4 mW
$Comp
L MOS_N_GDS Q2
U 1 1 54BB158C
P 3500 5850
F 0 "Q2" H 3403 6100 70  0000 C CNN
F 1 "IRFML8244TRPbF" H 3353 5603 60  0000 C CNN
F 2 "Robot2015:sot23-hand-solder" H 3500 5850 60  0001 C CNN
F 3 "" H 3500 5850 60  0000 C CNN
	1    3500 5850
	1    0    0    -1  
$EndComp
$Comp
L +3.3V #PWR024
U 1 1 56A73560
P 5700 1200
F 0 "#PWR024" H 5700 1160 30  0001 C CNN
F 1 "+3.3V" H 5700 1310 30  0000 C CNN
F 2 "" H 5700 1200 60  0000 C CNN
F 3 "" H 5700 1200 60  0000 C CNN
	1    5700 1200
	1    0    0    -1  
$EndComp
$Comp
L +5VP #PWR025
U 1 1 56BA1FF0
P 3800 1200
F 0 "#PWR025" H 3800 1290 20  0001 C CNN
F 1 "+5VP" H 3800 1290 30  0000 C CNN
F 2 "" H 3800 1200 60  0000 C CNN
F 3 "" H 3800 1200 60  0000 C CNN
	1    3800 1200
	1    0    0    -1  
$EndComp
$Comp
L GND #PWR026
U 1 1 54AA5368
P 5200 6300
F 0 "#PWR026" H 5200 6300 30  0001 C CNN
F 1 "GND" H 5200 6230 30  0001 C CNN
F 2 "" H 5200 6300 60  0000 C CNN
F 3 "" H 5200 6300 60  0000 C CNN
	1    5200 6300
	1    0    0    -1  
$EndComp
$Comp
L R R1
U 1 1 56BAC0D3
P 1250 3650
F 0 "R1" V 1330 3650 40  0000 C CNN
F 1 "56 - 68" V 1200 3650 40  0000 C CNN
F 2 "w_smd_resistors:r_1206" V 1180 3650 30  0001 C CNN
F 3 "" H 1250 3650 30  0000 C CNN
	1    1250 3650
	1    0    0    -1  
$EndComp
$Comp
L R R2
U 1 1 56BAC0DA
P 2300 2950
F 0 "R2" V 2380 2950 40  0000 C CNN
F 1 "10K - 22K" V 2250 2950 40  0000 C CNN
F 2 "w_smd_resistors:r_1206" V 2230 2950 30  0001 C CNN
F 3 "" H 2300 2950 30  0000 C CNN
	1    2300 2950
	1    0    0    -1  
$EndComp
Text HLabel 2450 3200 2    60   Output ~ 0
SENF1
Wire Wire Line
	1250 3200 1400 3200
Wire Wire Line
	1400 3400 1250 3400
Wire Wire Line
	1250 3400 1250 3550
Wire Wire Line
	1250 3750 1250 3900
Wire Wire Line
	1250 3900 1400 3900
Wire Wire Line
	1400 4100 1250 4100
Wire Wire Line
	1250 4100 1250 5500
Wire Wire Line
	1250 2600 1250 3200
$Comp
L TCRT1000 SENF?
U 1 1 56BAC0EF
P 1650 3300
AR Path="/54AA49CC/56BAC0EF" Ref="SENF?"  Part="1" 
AR Path="/54AA4E6F/56BAC0EF" Ref="SENF1"  Part="1" 
F 0 "SENF1" H 1650 3050 60  0000 C CNN
F 1 "TCRT1000" H 1650 3550 60  0000 C CNN
F 2 "Robot2015:TCRT1000" H 1635 3275 60  0001 C CNN
F 3 "" H 1635 3275 60  0000 C CNN
	1    1650 3300
	1    0    0    -1  
$EndComp
$Comp
L TCRT1000 SENF?
U 1 1 56BAC0F6
P 1650 4000
AR Path="/54AA49CC/56BAC0F6" Ref="SENF?"  Part="1" 
AR Path="/54AA4E6F/56BAC0F6" Ref="SENF2"  Part="1" 
F 0 "SENF2" H 1650 3750 60  0000 C CNN
F 1 "TCRT1000" H 1650 4250 60  0000 C CNN
F 2 "Robot2015:TCRT1000" H 1635 3975 60  0001 C CNN
F 3 "" H 1635 3975 60  0000 C CNN
	1    1650 4000
	1    0    0    -1  
$EndComp
Wire Wire Line
	1900 3200 2450 3200
Wire Wire Line
	1900 3400 2050 3400
Wire Wire Line
	2050 3400 2050 4350
Connection ~ 2050 4100
Wire Wire Line
	1900 4100 2050 4100
Wire Wire Line
	1900 3900 2450 3900
$Comp
L GND #PWR027
U 1 1 56BAC103
P 2050 4350
F 0 "#PWR027" H 2050 4350 30  0001 C CNN
F 1 "GND" H 2050 4280 30  0001 C CNN
F 2 "" H 2050 4350 60  0000 C CNN
F 3 "" H 2050 4350 60  0000 C CNN
	1    2050 4350
	1    0    0    -1  
$EndComp
$Comp
L +3.3V #PWR028
U 1 1 56BAC109
P 2900 2600
F 0 "#PWR028" H 2900 2560 30  0001 C CNN
F 1 "+3.3V" H 2900 2710 30  0000 C CNN
F 2 "" H 2900 2600 60  0000 C CNN
F 3 "" H 2900 2600 60  0000 C CNN
	1    2900 2600
	1    0    0    -1  
$EndComp
$Comp
L R R3
U 1 1 56BAC10F
P 2300 3650
F 0 "R3" V 2380 3650 40  0000 C CNN
F 1 "10K - 22K" V 2250 3650 40  0000 C CNN
F 2 "w_smd_resistors:r_1206" V 2230 3650 30  0001 C CNN
F 3 "" H 2300 3650 30  0000 C CNN
	1    2300 3650
	1    0    0    -1  
$EndComp
Text HLabel 2450 3900 2    60   Output ~ 0
SENF2
$Comp
L +5VP #PWR029
U 1 1 56BAC11D
P 1250 2600
F 0 "#PWR029" H 1250 2690 20  0001 C CNN
F 1 "+5VP" H 1250 2690 30  0000 C CNN
F 2 "" H 1250 2600 60  0000 C CNN
F 3 "" H 1250 2600 60  0000 C CNN
	1    1250 2600
	1    0    0    -1  
$EndComp
Wire Wire Line
	2900 2650 2300 2650
Wire Wire Line
	2300 2650 2300 2850
Wire Wire Line
	2300 3050 2300 3200
Connection ~ 2300 3200
Wire Wire Line
	2900 2600 2900 3400
Wire Wire Line
	2900 3400 2300 3400
Wire Wire Line
	2300 3400 2300 3550
Wire Wire Line
	2300 3750 2300 3900
Connection ~ 2300 3900
Connection ~ 2900 2650
$EndSCHEMATC
