EESchema Schematic File Version 2
LIBS:robot-rescue
LIBS:robot
LIBS:conn
LIBS:power
LIBS:w_analog
LIBS:w_connectors
LIBS:w_device
LIBS:w_logic
LIBS:w_memory
LIBS:w_microcontrollers
LIBS:w_opto
LIBS:w_relay
LIBS:w_rtx
LIBS:w_transistor
LIBS:w_vacuum
LIBS:robot-cache
EELAYER 25 0
EELAYER END
$Descr A4 11693 8268
encoding utf-8
Sheet 4 8
Title ""
Date ""
Rev ""
Comp ""
Comment1 ""
Comment2 ""
Comment3 ""
Comment4 ""
$EndDescr
$Comp
L HC-SR04 SONAR2
U 1 1 54AA8F53
P 5600 5000
F 0 "SONAR2" H 5600 5300 60  0000 C CNN
F 1 "HC-SR04" H 5600 4700 60  0000 C CNN
F 2 "Robot2015:HC-SR04" H 5600 5000 60  0001 C CNN
F 3 "" H 5600 5000 60  0000 C CNN
	1    5600 5000
	0    1    1    0   
$EndComp
$Comp
L HC-SR04 SONAR1
U 1 1 54AA8F5A
P 4750 3950
F 0 "SONAR1" H 4750 4250 60  0000 C CNN
F 1 "HC-SR04" H 4750 3650 60  0000 C CNN
F 2 "Robot2015:HC-SR04" H 4750 3950 60  0001 C CNN
F 3 "" H 4750 3950 60  0000 C CNN
	1    4750 3950
	0    1    1    0   
$EndComp
$Comp
L HC-SR04 SONAR3
U 1 1 54AA8F61
P 6400 5000
F 0 "SONAR3" H 6400 5300 60  0000 C CNN
F 1 "HC-SR04" H 6400 4700 60  0000 C CNN
F 2 "Robot2015:HC-SR04" H 6400 5000 60  0001 C CNN
F 3 "" H 6400 5000 60  0000 C CNN
	1    6400 5000
	0    1    1    0   
$EndComp
Text Label 4800 3400 3    60   ~ 0
ECHO
Text Label 4700 3400 3    60   ~ 0
TRIG
Text Label 5550 3400 3    60   ~ 0
TRIG
Text Label 5650 3400 3    60   ~ 0
ECHO
Text Label 6350 3400 3    60   ~ 0
TRIG
Entry Wire Line
	6350 3300 6450 3400
Entry Wire Line
	6250 3300 6350 3400
Entry Wire Line
	5550 3300 5650 3400
Entry Wire Line
	5450 3300 5550 3400
Entry Wire Line
	4700 3300 4800 3400
Entry Wire Line
	4600 3300 4700 3400
Entry Wire Line
	4250 3200 4350 3300
Entry Wire Line
	4150 3200 4250 3300
Wire Wire Line
	4700 3600 4700 3400
Wire Wire Line
	4800 3600 4800 3400
Wire Wire Line
	5550 4650 5550 3400
Wire Wire Line
	6350 4650 6350 3400
Wire Bus Line
	4150 3300 7250 3300
$Comp
L +5V #PWR034
U 1 1 54AA8F95
P 4600 3600
F 0 "#PWR034" H 4600 3690 20  0001 C CNN
F 1 "+5V" H 4600 3690 30  0000 C CNN
F 2 "" H 4600 3600 60  0000 C CNN
F 3 "" H 4600 3600 60  0000 C CNN
	1    4600 3600
	0    -1   -1   0   
$EndComp
$Comp
L +5V #PWR035
U 1 1 54AA8F9B
P 5450 4650
F 0 "#PWR035" H 5450 4740 20  0001 C CNN
F 1 "+5V" H 5450 4740 30  0000 C CNN
F 2 "" H 5450 4650 60  0000 C CNN
F 3 "" H 5450 4650 60  0000 C CNN
	1    5450 4650
	0    -1   -1   0   
$EndComp
$Comp
L +5V #PWR036
U 1 1 54AA8FA1
P 6250 4650
F 0 "#PWR036" H 6250 4740 20  0001 C CNN
F 1 "+5V" H 6250 4740 30  0000 C CNN
F 2 "" H 6250 4650 60  0000 C CNN
F 3 "" H 6250 4650 60  0000 C CNN
	1    6250 4650
	0    -1   -1   0   
$EndComp
$Comp
L GND #PWR037
U 1 1 54AA8FB3
P 6650 4650
F 0 "#PWR037" H 6650 4650 30  0001 C CNN
F 1 "GND" H 6650 4580 30  0001 C CNN
F 2 "" H 6650 4650 60  0000 C CNN
F 3 "" H 6650 4650 60  0000 C CNN
	1    6650 4650
	0    -1   -1   0   
$EndComp
$Comp
L GND #PWR038
U 1 1 54AA8FB9
P 5850 4650
F 0 "#PWR038" H 5850 4650 30  0001 C CNN
F 1 "GND" H 5850 4580 30  0001 C CNN
F 2 "" H 5850 4650 60  0000 C CNN
F 3 "" H 5850 4650 60  0000 C CNN
	1    5850 4650
	0    -1   -1   0   
$EndComp
$Comp
L GND #PWR039
U 1 1 54AA8FBF
P 5000 3600
F 0 "#PWR039" H 5000 3600 30  0001 C CNN
F 1 "GND" H 5000 3530 30  0001 C CNN
F 2 "" H 5000 3600 60  0000 C CNN
F 3 "" H 5000 3600 60  0000 C CNN
	1    5000 3600
	0    -1   -1   0   
$EndComp
Wire Wire Line
	4900 3600 5000 3600
Wire Wire Line
	5750 4650 5850 4650
Wire Wire Line
	6550 4650 6650 4650
Wire Wire Line
	4150 2400 4150 3200
Wire Wire Line
	4250 2400 4250 3200
Text Label 4150 3000 3    60   ~ 0
TRIG
Text Label 4250 3000 3    60   ~ 0
ECHO
$Comp
L R R15
U 1 1 54AA8FCD
P 4800 2750
F 0 "R15" V 4880 2750 40  0000 C CNN
F 1 "4K7" V 4750 2750 40  0000 C CNN
F 2 "w_smd_resistors:r_1206" V 4730 2750 30  0001 C CNN
F 3 "" H 4800 2750 30  0000 C CNN
	1    4800 2750
	1    0    0    -1  
$EndComp
Text HLabel 4150 2400 0    60   Input ~ 0
TRIG
Text Label 6450 3400 3    60   ~ 0
ECHO
Wire Wire Line
	6450 3400 6450 3950
Wire Wire Line
	5650 3400 5650 3950
$Comp
L Net_tie NT4
U 1 1 56BA01BA
P 5650 4150
F 0 "NT4" H 5650 4000 60  0000 C CNN
F 1 "Net_tie" H 5650 4300 60  0000 C CNN
F 2 "Robot2015:Net_tie_10_mil" H 5650 4150 60  0001 C CNN
F 3 "" H 5650 4150 60  0000 C CNN
	1    5650 4150
	0    -1   -1   0   
$EndComp
$Comp
L Net_tie NT5
U 1 1 56BA02CF
P 6450 4150
F 0 "NT5" H 6450 4000 60  0000 C CNN
F 1 "Net_tie" H 6450 4300 60  0000 C CNN
F 2 "Robot2015:Net_tie_10_mil" H 6450 4150 60  0001 C CNN
F 3 "" H 6450 4150 60  0000 C CNN
	1    6450 4150
	0    -1   -1   0   
$EndComp
Wire Wire Line
	5650 4350 5650 4650
Wire Wire Line
	6450 4350 6450 4650
Text Notes 3350 5700 0    60   ~ 0
Net ties evitan errores ERC al haber 3 salidas interconectadas en la red ECHO
Text HLabel 4250 2400 2    60   Output ~ 0
ECHO
$Comp
L GND #PWR040
U 1 1 56FECA38
P 4800 2900
F 0 "#PWR040" H 4800 2900 30  0001 C CNN
F 1 "GND" H 4800 2830 30  0001 C CNN
F 2 "" H 4800 2900 60  0000 C CNN
F 3 "" H 4800 2900 60  0000 C CNN
	1    4800 2900
	1    0    0    -1  
$EndComp
Wire Wire Line
	4800 2850 4800 2900
Wire Wire Line
	4250 2550 4800 2550
Wire Wire Line
	4800 2550 4800 2650
Connection ~ 4250 2550
$EndSCHEMATC
