(module MPU_6050_Gyro_Accel_6DOF_Banggood_SKU080242 (layer F.Cu) (tedit 54A98EDA)
  (fp_text reference MPU_6050_Gyro_Accel_6DOF_Banggood_SKU080242 (at 0 11.43) (layer F.SilkS)
    (effects (font (size 1.5 1.5) (thickness 0.15)))
  )
  (fp_text value VAL** (at 0 -11.43) (layer F.SilkS)
    (effects (font (size 1.5 1.5) (thickness 0.15)))
  )
  (fp_line (start -7.62 -10.16) (end 7.62 -10.16) (layer F.SilkS) (width 0.15))
  (fp_line (start 7.62 -10.16) (end 7.62 10.16) (layer F.SilkS) (width 0.15))
  (fp_line (start 7.62 10.16) (end -7.62 10.16) (layer F.SilkS) (width 0.15))
  (fp_line (start -7.62 10.16) (end -7.62 -10.16) (layer F.SilkS) (width 0.15))
  (pad 1 thru_hole circle (at -6.35 -8.89) (size 1.6 1.6) (drill 0.8) (layers *.Cu *.Mask F.SilkS))
  (pad 2 thru_hole circle (at -6.35 -6.35) (size 1.6 1.6) (drill 0.8) (layers *.Cu *.Mask F.SilkS))
  (pad 3 thru_hole circle (at -6.35 -3.81) (size 1.6 1.6) (drill 0.8) (layers *.Cu *.Mask F.SilkS))
  (pad 4 thru_hole circle (at -6.35 -1.27) (size 1.6 1.6) (drill 0.8) (layers *.Cu *.Mask F.SilkS))
  (pad 5 thru_hole circle (at -6.35 1.27) (size 1.6 1.6) (drill 0.8) (layers *.Cu *.Mask F.SilkS))
  (pad 6 thru_hole circle (at -6.35 3.81) (size 1.6 1.6) (drill 0.8) (layers *.Cu *.Mask F.SilkS))
  (pad 7 thru_hole circle (at -6.35 6.35) (size 1.6 1.6) (drill 0.8) (layers *.Cu *.Mask F.SilkS))
  (pad 8 thru_hole circle (at -6.35 8.89) (size 1.6 1.6) (drill 0.8) (layers *.Cu *.Mask F.SilkS))
  (pad "" thru_hole circle (at 5.08 -7.62) (size 3.6 3.6) (drill 3.2) (layers *.Cu *.Mask F.SilkS))
  (pad "" thru_hole circle (at 5.08 7.62) (size 3.6 3.6) (drill 3.2) (layers *.Cu *.Mask F.SilkS))
)
