(module Net_tie_10_mil (layer F.Cu) (tedit 56B9F353)
  (fp_text reference NT4 (at 0 1.524) (layer F.SilkS)
    (effects (font (size 1 1) (thickness 0.15)))
  )
  (fp_text value Net_tie (at 0 -1.27) (layer F.Fab)
    (effects (font (size 1 1) (thickness 0.15)))
  )
  (fp_line (start -0.508 0) (end 0.508 0) (layer F.Cu) (width 0.254))
  (pad 1 smd circle (at -0.508 0) (size 0.254 0.254) (layers F.Cu))
  (pad 2 smd circle (at 0.508 0) (size 0.254 0.254) (layers F.Cu))
)
