(module Pololu_brackets_with_HP_MOTOR (layer F.Cu) (tedit 56BA21DB)
  (fp_text reference MOTOR2 (at 0.02 0.884) (layer F.SilkS) hide
    (effects (font (size 1 1) (thickness 0.15)))
  )
  (fp_text value Motor (at 0 2.286) (layer F.SilkS) hide
    (effects (font (size 1 1) (thickness 0.15)))
  )
  (fp_text user + (at 4.064 13.462) (layer F.SilkS)
    (effects (font (size 1 1) (thickness 0.15)))
  )
  (fp_line (start 1.5 -8.8) (end 1.5 -11.4) (layer Dwgs.User) (width 0.15))
  (fp_line (start -1.5 -11.4) (end -1.5 -8.8) (layer Dwgs.User) (width 0.15))
  (fp_line (start -15.9 -18) (end 15.9 -18) (layer Dwgs.User) (width 0.15))
  (fp_line (start 15.9 -18) (end 15.9 -11.4) (layer Dwgs.User) (width 0.15))
  (fp_line (start 15.9 -11.4) (end -15.9 -11.4) (layer Dwgs.User) (width 0.15))
  (fp_line (start -15.9 -11.4) (end -15.9 -18) (layer Dwgs.User) (width 0.15))
  (fp_line (start -0.05 16.6) (end -0.05 21.6) (layer F.SilkS) (width 0.15))
  (fp_line (start -0.05 21.6) (end 0.05 21.6) (layer F.SilkS) (width 0.15))
  (fp_line (start 0.05 21.6) (end 0.05 16.6) (layer F.SilkS) (width 0.15))
  (fp_line (start -2.5 15.4) (end -2.5 16.6) (layer F.SilkS) (width 0.15))
  (fp_line (start -2.5 16.6) (end 2.5 16.6) (layer F.SilkS) (width 0.15))
  (fp_line (start 2.5 16.6) (end 2.5 15.4) (layer F.SilkS) (width 0.15))
  (fp_line (start -6 8.5) (end -6 15.4) (layer F.SilkS) (width 0.15))
  (fp_line (start -6 15.4) (end 6 15.4) (layer F.SilkS) (width 0.15))
  (fp_line (start 6 15.4) (end 6 8.5) (layer F.SilkS) (width 0.15))
  (fp_line (start -9.05 8.5) (end 9.05 8.5) (layer F.SilkS) (width 0.15))
  (fp_arc (start -9.05 4.25) (end -9.05 8.5) (angle 180) (layer F.SilkS) (width 0.15))
  (fp_line (start -7.5 0) (end -9.05 0) (layer F.SilkS) (width 0.15))
  (fp_line (start 7.5 0) (end 9.05 0) (layer F.SilkS) (width 0.15))
  (fp_arc (start 9.05 4.25) (end 9.05 0) (angle 180) (layer F.SilkS) (width 0.15))
  (fp_line (start -7.5 0) (end -7.5 -8.8) (layer Dwgs.User) (width 0.15))
  (fp_line (start -7.5 -8.8) (end 7.5 -8.8) (layer Dwgs.User) (width 0.15))
  (fp_line (start 7.5 -8.8) (end 7.5 0) (layer Dwgs.User) (width 0.15))
  (pad 2 thru_hole circle (at 9 4.25) (size 3.048 3.048) (drill 2.3622) (layers *.Cu *.Mask F.SilkS))
  (pad 1 thru_hole circle (at -9 4.25) (size 3.048 3.048) (drill 2.3622) (layers *.Cu *.Mask F.SilkS))
)
