(module sot23-hand-solder (layer F.Cu) (tedit 54CD3EBB)
  (descr SOT23)
  (fp_text reference SOT23 (at 0 3) (layer F.SilkS)
    (effects (font (size 1 1) (thickness 0.15)))
  )
  (fp_text value VAL** (at 0 -2.54) (layer F.SilkS) hide
    (effects (font (size 0.50038 0.50038) (thickness 0.09906)))
  )
  (fp_line (start 0.9525 0.6985) (end 0.9525 1.3589) (layer F.SilkS) (width 0.127))
  (fp_line (start -0.9525 0.6985) (end -0.9525 1.3589) (layer F.SilkS) (width 0.127))
  (fp_line (start 0 -0.6985) (end 0 -1.3589) (layer F.SilkS) (width 0.127))
  (fp_line (start -1.4986 -0.6985) (end 1.4986 -0.6985) (layer F.SilkS) (width 0.127))
  (fp_line (start 1.4986 -0.6985) (end 1.4986 0.6985) (layer F.SilkS) (width 0.127))
  (fp_line (start 1.4986 0.6985) (end -1.4986 0.6985) (layer F.SilkS) (width 0.127))
  (fp_line (start -1.4986 0.6985) (end -1.4986 -0.6985) (layer F.SilkS) (width 0.127))
  (pad 1 smd rect (at -0.95 1.1) (size 1 1.4) (layers F.Cu F.Paste F.Mask))
  (pad 2 smd rect (at 0 -1.1) (size 1 1.4) (layers F.Cu F.Paste F.Mask))
  (pad 3 smd rect (at 0.95 1.1) (size 1 1.4) (layers F.Cu F.Paste F.Mask))
  (model walter/smd_trans/sot23.wrl
    (at (xyz 0 0 0))
    (scale (xyz 1 1 1))
    (rotate (xyz 0 0 0))
  )
)
