(module sot223-regulator (layer F.Cu) (tedit 54AD8A7B)
  (descr SOT223)
  (fp_text reference SOT223 (at 0.0508 -0.8382) (layer F.SilkS)
    (effects (font (size 1.00076 1.00076) (thickness 0.20066)))
  )
  (fp_text value Q*** (at 5.08 0 90) (layer F.SilkS) hide
    (effects (font (size 1.00076 1.00076) (thickness 0.20066)))
  )
  (fp_line (start -1.5494 -3.6449) (end 1.5494 -3.6449) (layer F.SilkS) (width 0.127))
  (fp_line (start 1.5494 -3.6449) (end 1.5494 -1.8542) (layer F.SilkS) (width 0.127))
  (fp_line (start -1.5494 -3.6449) (end -1.5494 -1.8542) (layer F.SilkS) (width 0.127))
  (fp_line (start 1.8923 3.6449) (end 2.7051 3.6449) (layer F.SilkS) (width 0.127))
  (fp_line (start 2.7051 3.6449) (end 2.7051 1.8542) (layer F.SilkS) (width 0.127))
  (fp_line (start 1.8923 3.6449) (end 1.8923 1.8542) (layer F.SilkS) (width 0.127))
  (fp_line (start -0.4064 3.6449) (end -0.4064 1.8542) (layer F.SilkS) (width 0.127))
  (fp_line (start 0.4064 3.6449) (end 0.4064 1.8542) (layer F.SilkS) (width 0.127))
  (fp_line (start -0.4064 3.6449) (end 0.4064 3.6449) (layer F.SilkS) (width 0.127))
  (fp_line (start -2.7051 3.6449) (end -1.8923 3.6449) (layer F.SilkS) (width 0.127))
  (fp_line (start -1.8923 3.6449) (end -1.8923 1.8542) (layer F.SilkS) (width 0.127))
  (fp_line (start -2.7051 3.6449) (end -2.7051 1.8542) (layer F.SilkS) (width 0.127))
  (fp_line (start 3.3528 1.8542) (end -3.3528 1.8542) (layer F.SilkS) (width 0.127))
  (fp_line (start -3.3528 1.8542) (end -3.3528 -1.8542) (layer F.SilkS) (width 0.127))
  (fp_line (start -3.3528 -1.8542) (end 3.3528 -1.8542) (layer F.SilkS) (width 0.127))
  (fp_line (start 3.3528 -1.8542) (end 3.3528 1.8542) (layer F.SilkS) (width 0.127))
  (pad 1 smd rect (at -2.30124 2.99974) (size 1.30048 1.80086) (layers F.Cu F.Paste F.Mask))
  (pad 2 smd rect (at 0 2.99974) (size 1.30048 1.80086) (layers F.Cu F.Paste F.Mask))
  (pad 3 smd rect (at 2.30124 2.99974) (size 1.30048 1.80086) (layers F.Cu F.Paste F.Mask))
  (pad 2 smd rect (at 0 -2.99974) (size 3.79984 1.80086) (layers F.Cu F.Paste F.Mask))
  (model walter/smd_trans/sot223.wrl
    (at (xyz 0 0 0))
    (scale (xyz 1 1 1))
    (rotate (xyz 0 0 0))
  )
)
