%!PS-Adobe-3.0
%%Creator: PCBNEW
%%CreationDate: Sun Jan 25 14:28:57 2015
%%Title: /home/ad/kicad/robot2015/ps/robot2015-B_SilkS.ps
%%Pages: 1
%%PageOrder: Ascend
%%BoundingBox: 0 0 596 842
%%DocumentMedia: A4 595 842 0 () ()
%%Orientation: Landscape
%%EndComments
%%BeginProlog
/line { newpath moveto lineto stroke } bind def
/cir0 { newpath 0 360 arc stroke } bind def
/cir1 { newpath 0 360 arc gsave fill grestore stroke } bind def
/cir2 { newpath 0 360 arc gsave fill grestore stroke } bind def
/arc0 { newpath arc stroke } bind def
/arc1 { newpath 4 index 4 index moveto arc closepath gsave fill
    grestore stroke } bind def
/arc2 { newpath 4 index 4 index moveto arc closepath gsave fill
    grestore stroke } bind def
/poly0 { stroke } bind def
/poly1 { closepath gsave fill grestore stroke } bind def
/poly2 { closepath gsave fill grestore stroke } bind def
/rect0 { rectstroke } bind def
/rect1 { rectfill } bind def
/rect2 { rectfill } bind def
/linemode0 { 0 setlinecap 0 setlinejoin 0 setlinewidth } bind def
/linemode1 { 1 setlinecap 1 setlinejoin } bind def
/dashedline { [200] 100 setdash } bind def
/solidline { [] 0 setdash } bind def
/phantomshow { moveto
    /KicadFont findfont 0.000001 scalefont setfont
    show } bind def
/textshow { gsave
    findfont exch scalefont setfont concat 1 scale 0 0 moveto show
    } bind def
/reencodefont {
  findfont dup length dict begin
  { 1 index /FID ne
    { def }
    { pop pop } ifelse
  } forall
  /Encoding ISOLatin1Encoding def
  currentdict
  end } bind def
/KicadFont /Helvetica reencodefont definefont pop
/KicadFont-Bold /Helvetica-Bold reencodefont definefont pop
/KicadFont-Oblique /Helvetica-Oblique reencodefont definefont pop
/KicadFont-BoldOblique /Helvetica-BoldOblique reencodefont definefont pop
%%EndProlog
%%Page: 1 1
%%BeginPageSetup
gsave
0.0072 0.0072 scale
linemode1
82680 0 translate 90 rotate
39.3701 setlinewidth
%%EndPageSetup
0 0 0 setrgbcolor
0 0 0 setrgbcolor
39.3701 setlinewidth
newpath
70824.2 51235.7 moveto
70824.2 57928.6 lineto
stroke
0 0 0 setrgbcolor
newpath
20430.5 25645.1 moveto
34603.7 25645.1 lineto
stroke
0 0 0 setrgbcolor
newpath
18068.3 57141.2 moveto
18068.3 33519.1 lineto
stroke
0 0 0 setrgbcolor
newpath
34603.7 65015.2 moveto
20430.5 65015.2 lineto
stroke
0 0 0 setrgbcolor
newpath
35784.8 63834.1 moveto
34603.7 65015.2 lineto
stroke
0 0 0 setrgbcolor
newpath
35784.8 59897.1 moveto
35784.8 63834.1 lineto
stroke
0 0 0 setrgbcolor
newpath
36965.9 58716 moveto
35784.8 59897.1 lineto
stroke
0 0 0 setrgbcolor
newpath
45627.3 58716 moveto
36965.9 58716 lineto
stroke
0 0 0 setrgbcolor
newpath
56257.3 48086.1 moveto
45627.3 58716 lineto
stroke
0 0 0 setrgbcolor
newpath
67674.6 48086.1 moveto
56257.3 48086.1 lineto
stroke
0 0 0 setrgbcolor
newpath
70824.2 51235.7 moveto
67674.6 48086.1 lineto
stroke
0 0 0 setrgbcolor
newpath
72792.7 59897.1 moveto
70824.2 57928.6 lineto
stroke
0 0 0 setrgbcolor
newpath
75154.9 59897.1 moveto
72792.7 59897.1 lineto
stroke
0 0 0 setrgbcolor
newpath
77123.4 57928.6 moveto
75154.9 59897.1 lineto
stroke
0 0 0 setrgbcolor
newpath
77123.4 56747.5 moveto
77123.4 57928.6 lineto
stroke
0 0 0 setrgbcolor
newpath
76336 55960.1 moveto
77123.4 56747.5 lineto
stroke
0 0 0 setrgbcolor
newpath
76336 34700.2 moveto
76336 55960.1 lineto
stroke
0 0 0 setrgbcolor
newpath
77123.4 33912.8 moveto
76336 34700.2 lineto
stroke
0 0 0 setrgbcolor
newpath
77123.4 32731.7 moveto
77123.4 33912.8 lineto
stroke
0 0 0 setrgbcolor
newpath
75154.9 30763.2 moveto
77123.4 32731.7 lineto
stroke
0 0 0 setrgbcolor
newpath
72792.7 30763.2 moveto
75154.9 30763.2 lineto
stroke
0 0 0 setrgbcolor
newpath
70824.2 32731.7 moveto
72792.7 30763.2 lineto
stroke
0 0 0 setrgbcolor
newpath
70824.2 39424.6 moveto
70824.2 32731.7 lineto
stroke
0 0 0 setrgbcolor
newpath
67674.6 42574.3 moveto
70824.2 39424.6 lineto
stroke
0 0 0 setrgbcolor
newpath
56257.3 42574.3 moveto
67674.6 42574.3 lineto
stroke
0 0 0 setrgbcolor
newpath
45627.3 31944.3 moveto
56257.3 42574.3 lineto
stroke
0 0 0 setrgbcolor
newpath
36965.9 31944.3 moveto
45627.3 31944.3 lineto
stroke
0 0 0 setrgbcolor
newpath
35784.8 30763.2 moveto
36965.9 31944.3 lineto
stroke
0 0 0 setrgbcolor
newpath
35784.8 26826.2 moveto
35784.8 30763.2 lineto
stroke
0 0 0 setrgbcolor
newpath
34603.7 25645.1 moveto
35784.8 26826.2 lineto
stroke
0 0 0 setrgbcolor
newpath
19249.4 63834.1 moveto
20430.5 65015.2 lineto
stroke
0 0 0 setrgbcolor
newpath
19249.4 58322.3 moveto
19249.4 63834.1 lineto
stroke
0 0 0 setrgbcolor
newpath
18068.3 57141.2 moveto
19249.4 58322.3 lineto
stroke
0 0 0 setrgbcolor
newpath
19249.4 26826.2 moveto
20430.5 25645.1 lineto
stroke
0 0 0 setrgbcolor
newpath
19249.4 32338 moveto
19249.4 26826.2 lineto
stroke
0 0 0 setrgbcolor
newpath
18068.3 33519.1 moveto
19249.4 32338 lineto
stroke
0 0 0 setrgbcolor
59.0551 setlinewidth
newpath
72202.1 58322.3 moveto
72202.1 55960.1 lineto
stroke
0 0 0 setrgbcolor
newpath
75154.9 58519.1 moveto
73973.8 58519.1 lineto
stroke
0 0 0 setrgbcolor
newpath
73973.8 58519.1 moveto
73973.8 58322.3 lineto
stroke
0 0 0 setrgbcolor
newpath
73973.8 58322.3 moveto
73580.1 58322.3 lineto
stroke
0 0 0 setrgbcolor
newpath
73580.1 58322.3 moveto
73580.1 58519.1 lineto
stroke
0 0 0 setrgbcolor
newpath
73580.1 58519.1 moveto
72399 58519.1 lineto
stroke
0 0 0 setrgbcolor
newpath
72399 58519.1 moveto
72399 55763.2 lineto
stroke
0 0 0 setrgbcolor
newpath
72399 55763.2 moveto
73580.1 55763.2 lineto
stroke
0 0 0 setrgbcolor
newpath
73580.1 55763.2 moveto
73580.1 55960.1 lineto
stroke
0 0 0 setrgbcolor
newpath
73580.1 55960.1 moveto
73973.8 55960.1 lineto
stroke
0 0 0 setrgbcolor
newpath
73973.8 55960.1 moveto
73973.8 55763.2 lineto
stroke
0 0 0 setrgbcolor
newpath
73973.8 55763.2 moveto
75154.9 55763.2 lineto
stroke
0 0 0 setrgbcolor
newpath
75154.9 55763.2 moveto
75154.9 58519.1 lineto
stroke
0 0 0 setrgbcolor
newpath
72202.1 53597.9 moveto
72202.1 51235.7 lineto
stroke
0 0 0 setrgbcolor
newpath
75154.9 53794.7 moveto
73973.8 53794.7 lineto
stroke
0 0 0 setrgbcolor
newpath
73973.8 53794.7 moveto
73973.8 53597.9 lineto
stroke
0 0 0 setrgbcolor
newpath
73973.8 53597.9 moveto
73580.1 53597.9 lineto
stroke
0 0 0 setrgbcolor
newpath
73580.1 53597.9 moveto
73580.1 53794.7 lineto
stroke
0 0 0 setrgbcolor
newpath
73580.1 53794.7 moveto
72399 53794.7 lineto
stroke
0 0 0 setrgbcolor
newpath
72399 53794.7 moveto
72399 51038.8 lineto
stroke
0 0 0 setrgbcolor
newpath
72399 51038.8 moveto
73580.1 51038.8 lineto
stroke
0 0 0 setrgbcolor
newpath
73580.1 51038.8 moveto
73580.1 51235.7 lineto
stroke
0 0 0 setrgbcolor
newpath
73580.1 51235.7 moveto
73973.8 51235.7 lineto
stroke
0 0 0 setrgbcolor
newpath
73973.8 51235.7 moveto
73973.8 51038.8 lineto
stroke
0 0 0 setrgbcolor
newpath
73973.8 51038.8 moveto
75154.9 51038.8 lineto
stroke
0 0 0 setrgbcolor
newpath
75154.9 51038.8 moveto
75154.9 53794.7 lineto
stroke
0 0 0 setrgbcolor
newpath
72202.1 48873.5 moveto
72202.1 46511.3 lineto
stroke
0 0 0 setrgbcolor
newpath
75154.9 49070.3 moveto
73973.8 49070.3 lineto
stroke
0 0 0 setrgbcolor
newpath
73973.8 49070.3 moveto
73973.8 48873.5 lineto
stroke
0 0 0 setrgbcolor
newpath
73973.8 48873.5 moveto
73580.1 48873.5 lineto
stroke
0 0 0 setrgbcolor
newpath
73580.1 48873.5 moveto
73580.1 49070.3 lineto
stroke
0 0 0 setrgbcolor
newpath
73580.1 49070.3 moveto
72399 49070.3 lineto
stroke
0 0 0 setrgbcolor
newpath
72399 49070.3 moveto
72399 46314.4 lineto
stroke
0 0 0 setrgbcolor
newpath
72399 46314.4 moveto
73580.1 46314.4 lineto
stroke
0 0 0 setrgbcolor
newpath
73580.1 46314.4 moveto
73580.1 46511.3 lineto
stroke
0 0 0 setrgbcolor
newpath
73580.1 46511.3 moveto
73973.8 46511.3 lineto
stroke
0 0 0 setrgbcolor
newpath
73973.8 46511.3 moveto
73973.8 46314.4 lineto
stroke
0 0 0 setrgbcolor
newpath
73973.8 46314.4 moveto
75154.9 46314.4 lineto
stroke
0 0 0 setrgbcolor
newpath
75154.9 46314.4 moveto
75154.9 49070.3 lineto
stroke
0 0 0 setrgbcolor
newpath
72202.1 44149.1 moveto
72202.1 41786.8 lineto
stroke
0 0 0 setrgbcolor
newpath
75154.9 44345.9 moveto
73973.8 44345.9 lineto
stroke
0 0 0 setrgbcolor
newpath
73973.8 44345.9 moveto
73973.8 44149.1 lineto
stroke
0 0 0 setrgbcolor
newpath
73973.8 44149.1 moveto
73580.1 44149.1 lineto
stroke
0 0 0 setrgbcolor
newpath
73580.1 44149.1 moveto
73580.1 44345.9 lineto
stroke
0 0 0 setrgbcolor
newpath
73580.1 44345.9 moveto
72399 44345.9 lineto
stroke
0 0 0 setrgbcolor
newpath
72399 44345.9 moveto
72399 41590 lineto
stroke
0 0 0 setrgbcolor
newpath
72399 41590 moveto
73580.1 41590 lineto
stroke
0 0 0 setrgbcolor
newpath
73580.1 41590 moveto
73580.1 41786.8 lineto
stroke
0 0 0 setrgbcolor
newpath
73580.1 41786.8 moveto
73973.8 41786.8 lineto
stroke
0 0 0 setrgbcolor
newpath
73973.8 41786.8 moveto
73973.8 41590 lineto
stroke
0 0 0 setrgbcolor
newpath
73973.8 41590 moveto
75154.9 41590 lineto
stroke
0 0 0 setrgbcolor
newpath
75154.9 41590 moveto
75154.9 44345.9 lineto
stroke
0 0 0 setrgbcolor
newpath
72202.1 39424.6 moveto
72202.1 37062.4 lineto
stroke
0 0 0 setrgbcolor
newpath
75154.9 39621.5 moveto
73973.8 39621.5 lineto
stroke
0 0 0 setrgbcolor
newpath
73973.8 39621.5 moveto
73973.8 39424.6 lineto
stroke
0 0 0 setrgbcolor
newpath
73973.8 39424.6 moveto
73580.1 39424.6 lineto
stroke
0 0 0 setrgbcolor
newpath
73580.1 39424.6 moveto
73580.1 39621.5 lineto
stroke
0 0 0 setrgbcolor
newpath
73580.1 39621.5 moveto
72399 39621.5 lineto
stroke
0 0 0 setrgbcolor
newpath
72399 39621.5 moveto
72399 36865.6 lineto
stroke
0 0 0 setrgbcolor
newpath
72399 36865.6 moveto
73580.1 36865.6 lineto
stroke
0 0 0 setrgbcolor
newpath
73580.1 36865.6 moveto
73580.1 37062.4 lineto
stroke
0 0 0 setrgbcolor
newpath
73580.1 37062.4 moveto
73973.8 37062.4 lineto
stroke
0 0 0 setrgbcolor
newpath
73973.8 37062.4 moveto
73973.8 36865.6 lineto
stroke
0 0 0 setrgbcolor
newpath
73973.8 36865.6 moveto
75154.9 36865.6 lineto
stroke
0 0 0 setrgbcolor
newpath
75154.9 36865.6 moveto
75154.9 39621.5 lineto
stroke
0 0 0 setrgbcolor
50 setlinewidth
newpath
42421.4 35167.6 moveto
42421.4 35807.6 lineto
stroke
0 0 0 setrgbcolor
newpath
43321.4 35807.6 moveto
43321.4 35167.6 lineto
stroke
0 0 0 setrgbcolor
newpath
43501.4 35807.6 moveto
43501.4 35167.6 lineto
stroke
0 0 0 setrgbcolor
newpath
43501.4 35167.6 moveto
42241.4 35167.6 lineto
stroke
0 0 0 setrgbcolor
newpath
42241.4 35167.6 moveto
42241.4 35807.6 lineto
stroke
0 0 0 setrgbcolor
newpath
42241.4 35807.6 moveto
43501.4 35807.6 lineto
stroke
0 0 0 setrgbcolor
newpath
74030.1 55099 moveto
74030.1 54459 lineto
stroke
0 0 0 setrgbcolor
newpath
73130.1 54459 moveto
73130.1 55099 lineto
stroke
0 0 0 setrgbcolor
newpath
72950.1 54459 moveto
72950.1 55099 lineto
stroke
0 0 0 setrgbcolor
newpath
72950.1 55099 moveto
74210.1 55099 lineto
stroke
0 0 0 setrgbcolor
newpath
74210.1 55099 moveto
74210.1 54459 lineto
stroke
0 0 0 setrgbcolor
newpath
74210.1 54459 moveto
72950.1 54459 lineto
stroke
0 0 0 setrgbcolor
newpath
74030.1 36201.3 moveto
74030.1 35561.3 lineto
stroke
0 0 0 setrgbcolor
newpath
73130.1 35561.3 moveto
73130.1 36201.3 lineto
stroke
0 0 0 setrgbcolor
newpath
72950.1 35561.3 moveto
72950.1 36201.3 lineto
stroke
0 0 0 setrgbcolor
newpath
72950.1 36201.3 moveto
74210.1 36201.3 lineto
stroke
0 0 0 setrgbcolor
newpath
74210.1 36201.3 moveto
74210.1 35561.3 lineto
stroke
0 0 0 setrgbcolor
newpath
74210.1 35561.3 moveto
72950.1 35561.3 lineto
stroke
0 0 0 setrgbcolor
newpath
43208.8 38317.2 moveto
43208.8 38957.2 lineto
stroke
0 0 0 setrgbcolor
newpath
44108.8 38957.2 moveto
44108.8 38317.2 lineto
stroke
0 0 0 setrgbcolor
newpath
44288.8 38957.2 moveto
44288.8 38317.2 lineto
stroke
0 0 0 setrgbcolor
newpath
44288.8 38317.2 moveto
43028.8 38317.2 lineto
stroke
0 0 0 setrgbcolor
newpath
43028.8 38317.2 moveto
43028.8 38957.2 lineto
stroke
0 0 0 setrgbcolor
newpath
43028.8 38957.2 moveto
44288.8 38957.2 lineto
stroke
0 0 0 setrgbcolor
newpath
43208.8 39498.3 moveto
43208.8 40138.3 lineto
stroke
0 0 0 setrgbcolor
newpath
44108.8 40138.3 moveto
44108.8 39498.3 lineto
stroke
0 0 0 setrgbcolor
newpath
44288.8 40138.3 moveto
44288.8 39498.3 lineto
stroke
0 0 0 setrgbcolor
newpath
44288.8 39498.3 moveto
43028.8 39498.3 lineto
stroke
0 0 0 setrgbcolor
newpath
43028.8 39498.3 moveto
43028.8 40138.3 lineto
stroke
0 0 0 setrgbcolor
newpath
43028.8 40138.3 moveto
44288.8 40138.3 lineto
stroke
0 0 0 setrgbcolor
newpath
43208.8 40679.4 moveto
43208.8 41319.4 lineto
stroke
0 0 0 setrgbcolor
newpath
44108.8 41319.4 moveto
44108.8 40679.4 lineto
stroke
0 0 0 setrgbcolor
newpath
44288.8 41319.4 moveto
44288.8 40679.4 lineto
stroke
0 0 0 setrgbcolor
newpath
44288.8 40679.4 moveto
43028.8 40679.4 lineto
stroke
0 0 0 setrgbcolor
newpath
43028.8 40679.4 moveto
43028.8 41319.4 lineto
stroke
0 0 0 setrgbcolor
newpath
43028.8 41319.4 moveto
44288.8 41319.4 lineto
stroke
0 0 0 setrgbcolor
newpath
43208.8 41860.6 moveto
43208.8 42500.6 lineto
stroke
0 0 0 setrgbcolor
newpath
44108.8 42500.6 moveto
44108.8 41860.6 lineto
stroke
0 0 0 setrgbcolor
newpath
44288.8 42500.6 moveto
44288.8 41860.6 lineto
stroke
0 0 0 setrgbcolor
newpath
44288.8 41860.6 moveto
43028.8 41860.6 lineto
stroke
0 0 0 setrgbcolor
newpath
43028.8 41860.6 moveto
43028.8 42500.6 lineto
stroke
0 0 0 setrgbcolor
newpath
43028.8 42500.6 moveto
44288.8 42500.6 lineto
stroke
0 0 0 setrgbcolor
newpath
43208.8 37136.1 moveto
43208.8 37776.1 lineto
stroke
0 0 0 setrgbcolor
newpath
44108.8 37776.1 moveto
44108.8 37136.1 lineto
stroke
0 0 0 setrgbcolor
newpath
44288.8 37776.1 moveto
44288.8 37136.1 lineto
stroke
0 0 0 setrgbcolor
newpath
44288.8 37136.1 moveto
43028.8 37136.1 lineto
stroke
0 0 0 setrgbcolor
newpath
43028.8 37136.1 moveto
43028.8 37776.1 lineto
stroke
0 0 0 setrgbcolor
newpath
43028.8 37776.1 moveto
44288.8 37776.1 lineto
stroke
0 0 0 setrgbcolor
newpath
42815.1 45010.2 moveto
42815.1 45650.2 lineto
stroke
0 0 0 setrgbcolor
newpath
43715.1 45650.2 moveto
43715.1 45010.2 lineto
stroke
0 0 0 setrgbcolor
newpath
43895.1 45650.2 moveto
43895.1 45010.2 lineto
stroke
0 0 0 setrgbcolor
newpath
43895.1 45010.2 moveto
42635.1 45010.2 lineto
stroke
0 0 0 setrgbcolor
newpath
42635.1 45010.2 moveto
42635.1 45650.2 lineto
stroke
0 0 0 setrgbcolor
newpath
42635.1 45650.2 moveto
43895.1 45650.2 lineto
stroke
0 0 0 setrgbcolor
newpath
43715.1 44469.1 moveto
43715.1 43829.1 lineto
stroke
0 0 0 setrgbcolor
newpath
42815.1 43829.1 moveto
42815.1 44469.1 lineto
stroke
0 0 0 setrgbcolor
newpath
42635.1 43829.1 moveto
42635.1 44469.1 lineto
stroke
0 0 0 setrgbcolor
newpath
42635.1 44469.1 moveto
43895.1 44469.1 lineto
stroke
0 0 0 setrgbcolor
newpath
43895.1 44469.1 moveto
43895.1 43829.1 lineto
stroke
0 0 0 setrgbcolor
newpath
43895.1 43829.1 moveto
42635.1 43829.1 lineto
stroke
0 0 0 setrgbcolor
newpath
41746.6 55886.4 moveto
41746.6 55246.4 lineto
stroke
0 0 0 setrgbcolor
newpath
40846.6 55246.4 moveto
40846.6 55886.4 lineto
stroke
0 0 0 setrgbcolor
newpath
40666.6 55246.4 moveto
40666.6 55886.4 lineto
stroke
0 0 0 setrgbcolor
newpath
40666.6 55886.4 moveto
41926.6 55886.4 lineto
stroke
0 0 0 setrgbcolor
newpath
41926.6 55886.4 moveto
41926.6 55246.4 lineto
stroke
0 0 0 setrgbcolor
newpath
41926.6 55246.4 moveto
40666.6 55246.4 lineto
stroke
0 0 0 setrgbcolor
59.0551 setlinewidth
newpath
72202.1 34700.2 moveto
72202.1 32338 lineto
stroke
0 0 0 setrgbcolor
newpath
75154.9 34897.1 moveto
73973.8 34897.1 lineto
stroke
0 0 0 setrgbcolor
newpath
73973.8 34897.1 moveto
73973.8 34700.2 lineto
stroke
0 0 0 setrgbcolor
newpath
73973.8 34700.2 moveto
73580.1 34700.2 lineto
stroke
0 0 0 setrgbcolor
newpath
73580.1 34700.2 moveto
73580.1 34897.1 lineto
stroke
0 0 0 setrgbcolor
newpath
73580.1 34897.1 moveto
72399 34897.1 lineto
stroke
0 0 0 setrgbcolor
newpath
72399 34897.1 moveto
72399 32141.2 lineto
stroke
0 0 0 setrgbcolor
newpath
72399 32141.2 moveto
73580.1 32141.2 lineto
stroke
0 0 0 setrgbcolor
newpath
73580.1 32141.2 moveto
73580.1 32338 lineto
stroke
0 0 0 setrgbcolor
newpath
73580.1 32338 moveto
73973.8 32338 lineto
stroke
0 0 0 setrgbcolor
newpath
73973.8 32338 moveto
73973.8 32141.2 lineto
stroke
0 0 0 setrgbcolor
newpath
73973.8 32141.2 moveto
75154.9 32141.2 lineto
stroke
0 0 0 setrgbcolor
newpath
75154.9 32141.2 moveto
75154.9 34897.1 lineto
stroke
0 0 0 setrgbcolor
149 setlinewidth
newpath
49432.6 54555.2 moveto
48653.4 53776 lineto
stroke
0 0 0 setrgbcolor
newpath
49794.6 54193.2 moveto
49015.4 53413.9 lineto
stroke
0 0 0 setrgbcolor
newpath
48653.4 53777.4 moveto
49015.4 53415.4 lineto
stroke
0 0 0 setrgbcolor
newpath
48709.9 55279.3 moveto
47930.7 54500.1 lineto
stroke
0 0 0 setrgbcolor
newpath
49072 54917.3 moveto
48292.7 54138 lineto
stroke
0 0 0 setrgbcolor
newpath
47930.7 54501.5 moveto
48292.7 54139.4 lineto
stroke
0 0 0 setrgbcolor
newpath
49072.7 54918 moveto
49434.7 54555.9 lineto
stroke
0 0 0 setrgbcolor
newpath
47985.9 56003.4 moveto
47206.6 55224.1 lineto
stroke
0 0 0 setrgbcolor
newpath
48347.9 55641.3 moveto
47568.7 54862.1 lineto
stroke
0 0 0 setrgbcolor
newpath
47206.6 55225.6 moveto
47568.7 54863.5 lineto
stroke
0 0 0 setrgbcolor
newpath
48348.6 55642 moveto
48710.6 55280 lineto
stroke
0 0 0 setrgbcolor
newpath
46899.7 57089.5 moveto
45702.6 55892.4 lineto
stroke
0 0 0 setrgbcolor
newpath
47261.8 56727.5 moveto
46482.6 55948.2 lineto
stroke
0 0 0 setrgbcolor
newpath
47623.8 56365.4 moveto
46844.6 55586.2 lineto
stroke
0 0 0 setrgbcolor
newpath
42222.9 47902.8 moveto
43865.6 49545.4 lineto
stroke
0 0 0 setrgbcolor
newpath
41638.2 51772.8 moveto
39995.6 50130.1 lineto
stroke
0 0 0 setrgbcolor
newpath
43866.3 49546.1 moveto
41638.9 51773.5 lineto
stroke
0 0 0 setrgbcolor
newpath
39995.6 50130.1 moveto
42222.9 47902.8 lineto
stroke
0 0 0 setrgbcolor
newpath
44255.2 54389.8 moveto
42027.8 52162.4 lineto
stroke
0 0 0 setrgbcolor
newpath
42027.8 52162.4 moveto
44255.2 49935 lineto
stroke
0 0 0 setrgbcolor
newpath
44255.2 49935 moveto
46482.6 52162.4 lineto
stroke
0 0 0 setrgbcolor
newpath
46482.6 52162.4 moveto
44255.2 54389.8 lineto
stroke
0 0 0 setrgbcolor
newpath
49795.3 54193.9 moveto
49906.4 54082.9 lineto
stroke
0 0 0 setrgbcolor
newpath
46482.6 55949.6 moveto
46844.6 55587.6 lineto
stroke
0 0 0 setrgbcolor
newpath
47624.5 56366.1 moveto
47986.6 56004.1 lineto
stroke
0 0 0 setrgbcolor
newpath
46900.5 57090.2 moveto
47262.5 56728.2 lineto
stroke
0 0 0 setrgbcolor
newpath
45424 56171 moveto
48987.8 52607.1 lineto
stroke
0 0 0 setrgbcolor
newpath
42863.6 46482.9 moveto
50380.1 53999.4 lineto
stroke
0 0 0 setrgbcolor
newpath
50380.1 53999.4 moveto
46816.3 57563.3 lineto
stroke
0 0 0 setrgbcolor
newpath
46816.3 57563.3 moveto
39299.8 50046.7 lineto
stroke
0 0 0 setrgbcolor
newpath
39299.8 50046.7 moveto
42863.6 46482.9 lineto
stroke
0 0 0 setrgbcolor
50 setlinewidth
newpath
34070.2 50232 moveto
34070.2 51452 lineto
stroke
0 0 0 setrgbcolor
newpath
34070.2 51452 moveto
33365.2 51452 lineto
stroke
0 0 0 setrgbcolor
newpath
34070.2 50232 moveto
33365.2 50232 lineto
stroke
0 0 0 setrgbcolor
newpath
31200.2 51587 moveto
31200.2 51907 lineto
stroke
0 0 0 setrgbcolor
newpath
31200.2 51907 moveto
31905.2 51907 lineto
stroke
0 0 0 setrgbcolor
newpath
31200.2 51587 moveto
31905.2 51587 lineto
stroke
0 0 0 setrgbcolor
newpath
31200.2 50682 moveto
31905.2 50682 lineto
stroke
0 0 0 setrgbcolor
newpath
31200.2 51002 moveto
31905.2 51002 lineto
stroke
0 0 0 setrgbcolor
newpath
31200.2 50682 moveto
31200.2 51002 lineto
stroke
0 0 0 setrgbcolor
newpath
31200.2 49777 moveto
31200.2 50097 lineto
stroke
0 0 0 setrgbcolor
newpath
31200.2 50097 moveto
31905.2 50097 lineto
stroke
0 0 0 setrgbcolor
newpath
31200.2 49777 moveto
31905.2 49777 lineto
stroke
0 0 0 setrgbcolor
newpath
31905.2 52162 moveto
31905.2 49522 lineto
stroke
0 0 0 setrgbcolor
newpath
31905.2 49522 moveto
33365.2 49522 lineto
stroke
0 0 0 setrgbcolor
newpath
33365.2 49522 moveto
33365.2 52162 lineto
stroke
0 0 0 setrgbcolor
newpath
33365.2 52162 moveto
31905.2 52162 lineto
stroke
0 0 0 setrgbcolor
newpath
34070.2 39995.7 moveto
34070.2 41215.7 lineto
stroke
0 0 0 setrgbcolor
newpath
34070.2 41215.7 moveto
33365.2 41215.7 lineto
stroke
0 0 0 setrgbcolor
newpath
34070.2 39995.7 moveto
33365.2 39995.7 lineto
stroke
0 0 0 setrgbcolor
newpath
31200.2 41350.7 moveto
31200.2 41670.7 lineto
stroke
0 0 0 setrgbcolor
newpath
31200.2 41670.7 moveto
31905.2 41670.7 lineto
stroke
0 0 0 setrgbcolor
newpath
31200.2 41350.7 moveto
31905.2 41350.7 lineto
stroke
0 0 0 setrgbcolor
newpath
31200.2 40445.7 moveto
31905.2 40445.7 lineto
stroke
0 0 0 setrgbcolor
newpath
31200.2 40765.7 moveto
31905.2 40765.7 lineto
stroke
0 0 0 setrgbcolor
newpath
31200.2 40445.7 moveto
31200.2 40765.7 lineto
stroke
0 0 0 setrgbcolor
newpath
31200.2 39540.7 moveto
31200.2 39860.7 lineto
stroke
0 0 0 setrgbcolor
newpath
31200.2 39860.7 moveto
31905.2 39860.7 lineto
stroke
0 0 0 setrgbcolor
newpath
31200.2 39540.7 moveto
31905.2 39540.7 lineto
stroke
0 0 0 setrgbcolor
newpath
31905.2 41925.7 moveto
31905.2 39285.7 lineto
stroke
0 0 0 setrgbcolor
newpath
31905.2 39285.7 moveto
33365.2 39285.7 lineto
stroke
0 0 0 setrgbcolor
newpath
33365.2 39285.7 moveto
33365.2 41925.7 lineto
stroke
0 0 0 setrgbcolor
newpath
33365.2 41925.7 moveto
31905.2 41925.7 lineto
stroke
0 0 0 setrgbcolor
newpath
28223.2 52573.1 moveto
28223.2 51473.1 lineto
stroke
0 0 0 setrgbcolor
newpath
27998.2 52573.1 moveto
29398.2 52573.1 lineto
stroke
0 0 0 setrgbcolor
newpath
29398.2 52573.1 moveto
29398.2 51473.1 lineto
stroke
0 0 0 setrgbcolor
newpath
29398.2 51473.1 moveto
27998.2 51473.1 lineto
stroke
0 0 0 setrgbcolor
newpath
27998.2 51473.1 moveto
27998.2 52573.1 lineto
stroke
0 0 0 setrgbcolor
newpath
28223.2 40368.3 moveto
28223.2 39268.3 lineto
stroke
0 0 0 setrgbcolor
newpath
27998.2 40368.3 moveto
29398.2 40368.3 lineto
stroke
0 0 0 setrgbcolor
newpath
29398.2 40368.3 moveto
29398.2 39268.3 lineto
stroke
0 0 0 setrgbcolor
newpath
29398.2 39268.3 moveto
27998.2 39268.3 lineto
stroke
0 0 0 setrgbcolor
newpath
27998.2 39268.3 moveto
27998.2 40368.3 lineto
stroke
0 0 0 setrgbcolor
newpath
28223.2 42336.8 moveto
28223.2 41236.8 lineto
stroke
0 0 0 setrgbcolor
newpath
27998.2 42336.8 moveto
29398.2 42336.8 lineto
stroke
0 0 0 setrgbcolor
newpath
29398.2 42336.8 moveto
29398.2 41236.8 lineto
stroke
0 0 0 setrgbcolor
newpath
29398.2 41236.8 moveto
27998.2 41236.8 lineto
stroke
0 0 0 setrgbcolor
newpath
27998.2 41236.8 moveto
27998.2 42336.8 lineto
stroke
0 0 0 setrgbcolor
newpath
28223.2 50604.6 moveto
28223.2 49504.6 lineto
stroke
0 0 0 setrgbcolor
newpath
27998.2 50604.6 moveto
29398.2 50604.6 lineto
stroke
0 0 0 setrgbcolor
newpath
29398.2 50604.6 moveto
29398.2 49504.6 lineto
stroke
0 0 0 setrgbcolor
newpath
29398.2 49504.6 moveto
27998.2 49504.6 lineto
stroke
0 0 0 setrgbcolor
newpath
27998.2 49504.6 moveto
27998.2 50604.6 lineto
stroke
0 0 0 setrgbcolor
newpath
22280.3 52829.2 moveto
22540.3 52829.2 lineto
stroke
0 0 0 setrgbcolor
newpath
22280.3 53579.2 moveto
22540.3 53579.2 lineto
stroke
0 0 0 setrgbcolor
newpath
21730.3 53204.2 moveto
21470.3 53204.2 lineto
stroke
0 0 0 setrgbcolor
newpath
21730.3 53794.2 moveto
21730.3 52614.2 lineto
stroke
0 0 0 setrgbcolor
newpath
21730.3 52614.2 moveto
22280.3 52614.2 lineto
stroke
0 0 0 setrgbcolor
newpath
22280.3 52614.2 moveto
22280.3 53794.2 lineto
stroke
0 0 0 setrgbcolor
newpath
22280.3 53794.2 moveto
21730.3 53794.2 lineto
stroke
0 0 0 setrgbcolor
newpath
49545.7 39699.6 moveto
49545.7 39959.6 lineto
stroke
0 0 0 setrgbcolor
newpath
48795.7 39699.6 moveto
48795.7 39959.6 lineto
stroke
0 0 0 setrgbcolor
newpath
49170.7 39149.6 moveto
49170.7 38889.6 lineto
stroke
0 0 0 setrgbcolor
newpath
48580.7 39149.6 moveto
49760.7 39149.6 lineto
stroke
0 0 0 setrgbcolor
newpath
49760.7 39149.6 moveto
49760.7 39699.6 lineto
stroke
0 0 0 setrgbcolor
newpath
49760.7 39699.6 moveto
48580.7 39699.6 lineto
stroke
0 0 0 setrgbcolor
newpath
48580.7 39699.6 moveto
48580.7 39149.6 lineto
stroke
0 0 0 setrgbcolor
newpath
74030.1 45650.2 moveto
74030.1 45010.2 lineto
stroke
0 0 0 setrgbcolor
newpath
73130.1 45010.2 moveto
73130.1 45650.2 lineto
stroke
0 0 0 setrgbcolor
newpath
72950.1 45010.2 moveto
72950.1 45650.2 lineto
stroke
0 0 0 setrgbcolor
newpath
72950.1 45650.2 moveto
74210.1 45650.2 lineto
stroke
0 0 0 setrgbcolor
newpath
74210.1 45650.2 moveto
74210.1 45010.2 lineto
stroke
0 0 0 setrgbcolor
newpath
74210.1 45010.2 moveto
72950.1 45010.2 lineto
stroke
0 0 0 setrgbcolor
newpath
75228.6 45780.2 moveto
75868.6 45780.2 lineto
stroke
0 0 0 setrgbcolor
newpath
75868.6 44880.2 moveto
75228.6 44880.2 lineto
stroke
0 0 0 setrgbcolor
newpath
75868.6 44700.2 moveto
75228.6 44700.2 lineto
stroke
0 0 0 setrgbcolor
newpath
75228.6 44700.2 moveto
75228.6 45960.2 lineto
stroke
0 0 0 setrgbcolor
newpath
75228.6 45960.2 moveto
75868.6 45960.2 lineto
stroke
0 0 0 setrgbcolor
newpath
75868.6 45960.2 moveto
75868.6 44700.2 lineto
stroke
0 0 0 setrgbcolor
newpath
73130.1 49734.6 moveto
73130.1 50374.6 lineto
stroke
0 0 0 setrgbcolor
newpath
74030.1 50374.6 moveto
74030.1 49734.6 lineto
stroke
0 0 0 setrgbcolor
newpath
74210.1 50374.6 moveto
74210.1 49734.6 lineto
stroke
0 0 0 setrgbcolor
newpath
74210.1 49734.6 moveto
72950.1 49734.6 lineto
stroke
0 0 0 setrgbcolor
newpath
72950.1 49734.6 moveto
72950.1 50374.6 lineto
stroke
0 0 0 setrgbcolor
newpath
72950.1 50374.6 moveto
74210.1 50374.6 lineto
stroke
0 0 0 setrgbcolor
59.0551 setlinewidth
0 0 0 setrgbcolor
0 0 0 setrgbcolor
newpath
71967.8 57825.5 moveto
71986.6 57769.2 lineto
71986.6 57675.5 lineto
71967.8 57638 lineto
71949.1 57619.2 lineto
71911.6 57600.5 lineto
71874.1 57600.5 lineto
71836.6 57619.2 lineto
71817.8 57638 lineto
71799.1 57675.5 lineto
71780.3 57750.5 lineto
71761.6 57788 lineto
71742.8 57806.7 lineto
71705.3 57825.5 lineto
71667.8 57825.5 lineto
71630.3 57806.7 lineto
71611.6 57788 lineto
71592.8 57750.5 lineto
71592.8 57656.7 lineto
71611.6 57600.5 lineto
stroke
newpath
71780.3 57431.8 moveto
71780.3 57300.5 lineto
stroke
newpath
71986.6 57244.3 moveto
71986.6 57431.8 lineto
71592.8 57431.8 lineto
71592.8 57244.3 lineto
stroke
newpath
71986.6 57075.6 moveto
71592.8 57075.6 lineto
71986.6 56850.6 lineto
71592.8 56850.6 lineto
stroke
newpath
71592.8 56700.6 moveto
71592.8 56456.9 lineto
71742.8 56588.1 lineto
71742.8 56531.9 lineto
71761.6 56494.4 lineto
71780.3 56475.6 lineto
71817.8 56456.9 lineto
71911.6 56456.9 lineto
71949.1 56475.6 lineto
71967.8 56494.4 lineto
71986.6 56531.9 lineto
71986.6 56644.4 lineto
71967.8 56681.9 lineto
71949.1 56700.6 lineto
stroke
0 0 0 setrgbcolor
0 0 0 setrgbcolor
0 0 0 setrgbcolor
newpath
71967.8 53101.1 moveto
71986.6 53044.8 lineto
71986.6 52951.1 lineto
71967.8 52913.6 lineto
71949.1 52894.8 lineto
71911.6 52876.1 lineto
71874.1 52876.1 lineto
71836.6 52894.8 lineto
71817.8 52913.6 lineto
71799.1 52951.1 lineto
71780.3 53026.1 lineto
71761.6 53063.6 lineto
71742.8 53082.3 lineto
71705.3 53101.1 lineto
71667.8 53101.1 lineto
71630.3 53082.3 lineto
71611.6 53063.6 lineto
71592.8 53026.1 lineto
71592.8 52932.3 lineto
71611.6 52876.1 lineto
stroke
newpath
71780.3 52707.4 moveto
71780.3 52576.1 lineto
stroke
newpath
71986.6 52519.9 moveto
71986.6 52707.4 lineto
71592.8 52707.4 lineto
71592.8 52519.9 lineto
stroke
newpath
71986.6 52351.2 moveto
71592.8 52351.2 lineto
71986.6 52126.2 lineto
71592.8 52126.2 lineto
stroke
newpath
71724.1 51770 moveto
71986.6 51770 lineto
stroke
newpath
71574.1 51863.7 moveto
71855.3 51957.5 lineto
71855.3 51713.7 lineto
stroke
0 0 0 setrgbcolor
0 0 0 setrgbcolor
0 0 0 setrgbcolor
newpath
71967.8 48376.7 moveto
71986.6 48320.4 lineto
71986.6 48226.7 lineto
71967.8 48189.2 lineto
71949.1 48170.4 lineto
71911.6 48151.7 lineto
71874.1 48151.7 lineto
71836.6 48170.4 lineto
71817.8 48189.2 lineto
71799.1 48226.7 lineto
71780.3 48301.7 lineto
71761.6 48339.2 lineto
71742.8 48357.9 lineto
71705.3 48376.7 lineto
71667.8 48376.7 lineto
71630.3 48357.9 lineto
71611.6 48339.2 lineto
71592.8 48301.7 lineto
71592.8 48207.9 lineto
71611.6 48151.7 lineto
stroke
newpath
71780.3 47983 moveto
71780.3 47851.7 lineto
stroke
newpath
71986.6 47795.5 moveto
71986.6 47983 lineto
71592.8 47983 lineto
71592.8 47795.5 lineto
stroke
newpath
71986.6 47626.7 moveto
71592.8 47626.7 lineto
71986.6 47401.8 lineto
71592.8 47401.8 lineto
stroke
newpath
71592.8 47026.8 moveto
71592.8 47214.3 lineto
71780.3 47233 lineto
71761.6 47214.3 lineto
71742.8 47176.8 lineto
71742.8 47083.1 lineto
71761.6 47045.6 lineto
71780.3 47026.8 lineto
71817.8 47008.1 lineto
71911.6 47008.1 lineto
71949.1 47026.8 lineto
71967.8 47045.6 lineto
71986.6 47083.1 lineto
71986.6 47176.8 lineto
71967.8 47214.3 lineto
71949.1 47233 lineto
stroke
0 0 0 setrgbcolor
0 0 0 setrgbcolor
0 0 0 setrgbcolor
newpath
71967.8 43652.2 moveto
71986.6 43596 lineto
71986.6 43502.3 lineto
71967.8 43464.8 lineto
71949.1 43446 lineto
71911.6 43427.3 lineto
71874.1 43427.3 lineto
71836.6 43446 lineto
71817.8 43464.8 lineto
71799.1 43502.3 lineto
71780.3 43577.3 lineto
71761.6 43614.7 lineto
71742.8 43633.5 lineto
71705.3 43652.2 lineto
71667.8 43652.2 lineto
71630.3 43633.5 lineto
71611.6 43614.7 lineto
71592.8 43577.3 lineto
71592.8 43483.5 lineto
71611.6 43427.3 lineto
stroke
newpath
71780.3 43258.5 moveto
71780.3 43127.3 lineto
stroke
newpath
71986.6 43071.1 moveto
71986.6 43258.5 lineto
71592.8 43258.5 lineto
71592.8 43071.1 lineto
stroke
newpath
71986.6 42902.3 moveto
71592.8 42902.3 lineto
71986.6 42677.4 lineto
71592.8 42677.4 lineto
stroke
newpath
71592.8 42321.2 moveto
71592.8 42396.1 lineto
71611.6 42433.6 lineto
71630.3 42452.4 lineto
71686.6 42489.9 lineto
71761.6 42508.6 lineto
71911.6 42508.6 lineto
71949.1 42489.9 lineto
71967.8 42471.1 lineto
71986.6 42433.6 lineto
71986.6 42358.7 lineto
71967.8 42321.2 lineto
71949.1 42302.4 lineto
71911.6 42283.7 lineto
71817.8 42283.7 lineto
71780.3 42302.4 lineto
71761.6 42321.2 lineto
71742.8 42358.7 lineto
71742.8 42433.6 lineto
71761.6 42471.1 lineto
71780.3 42489.9 lineto
71817.8 42508.6 lineto
stroke
0 0 0 setrgbcolor
0 0 0 setrgbcolor
0 0 0 setrgbcolor
newpath
71967.8 38927.8 moveto
71986.6 38871.6 lineto
71986.6 38777.9 lineto
71967.8 38740.4 lineto
71949.1 38721.6 lineto
71911.6 38702.9 lineto
71874.1 38702.9 lineto
71836.6 38721.6 lineto
71817.8 38740.4 lineto
71799.1 38777.9 lineto
71780.3 38852.8 lineto
71761.6 38890.3 lineto
71742.8 38909.1 lineto
71705.3 38927.8 lineto
71667.8 38927.8 lineto
71630.3 38909.1 lineto
71611.6 38890.3 lineto
71592.8 38852.8 lineto
71592.8 38759.1 lineto
71611.6 38702.9 lineto
stroke
newpath
71780.3 38534.1 moveto
71780.3 38402.9 lineto
stroke
newpath
71986.6 38346.7 moveto
71986.6 38534.1 lineto
71592.8 38534.1 lineto
71592.8 38346.7 lineto
stroke
newpath
71986.6 38177.9 moveto
71592.8 38177.9 lineto
71986.6 37953 lineto
71592.8 37953 lineto
stroke
newpath
71592.8 37803 moveto
71592.8 37540.5 lineto
71986.6 37709.2 lineto
stroke
0 0 0 setrgbcolor
0 0 0 setrgbcolor
0 0 0 setrgbcolor
newpath
43124.5 34522.1 moveto
43255.8 34709.6 lineto
stroke
newpath
43349.5 34522.1 moveto
43349.5 34915.8 lineto
43199.5 34915.8 lineto
43162 34897.1 lineto
43143.3 34878.3 lineto
43124.5 34840.8 lineto
43124.5 34784.6 lineto
43143.3 34747.1 lineto
43162 34728.4 lineto
43199.5 34709.6 lineto
43349.5 34709.6 lineto
stroke
newpath
42749.6 34522.1 moveto
42974.6 34522.1 lineto
stroke
newpath
42862.1 34522.1 moveto
42862.1 34915.8 lineto
42899.6 34859.6 lineto
42937.1 34822.1 lineto
42974.6 34803.3 lineto
stroke
newpath
42505.9 34915.8 moveto
42468.4 34915.8 lineto
42430.9 34897.1 lineto
42412.1 34878.3 lineto
42393.4 34840.8 lineto
42374.6 34765.9 lineto
42374.6 34672.1 lineto
42393.4 34597.1 lineto
42412.1 34559.6 lineto
42430.9 34540.9 lineto
42468.4 34522.1 lineto
42505.9 34522.1 lineto
42543.4 34540.9 lineto
42562.1 34559.6 lineto
42580.9 34597.1 lineto
42599.6 34672.1 lineto
42599.6 34765.9 lineto
42580.9 34840.8 lineto
42562.1 34878.3 lineto
42543.4 34897.1 lineto
42505.9 34915.8 lineto
stroke
0 0 0 setrgbcolor
0 0 0 setrgbcolor
0 0 0 setrgbcolor
newpath
72070.9 54600.9 moveto
72202.1 54788.3 lineto
stroke
newpath
72295.9 54600.9 moveto
72295.9 54994.6 lineto
72145.9 54994.6 lineto
72108.4 54975.8 lineto
72089.7 54957.1 lineto
72070.9 54919.6 lineto
72070.9 54863.3 lineto
72089.7 54825.8 lineto
72108.4 54807.1 lineto
72145.9 54788.3 lineto
72295.9 54788.3 lineto
stroke
newpath
71939.7 54994.6 moveto
71696 54994.6 lineto
71827.2 54844.6 lineto
71771 54844.6 lineto
71733.5 54825.8 lineto
71714.7 54807.1 lineto
71696 54769.6 lineto
71696 54675.9 lineto
71714.7 54638.4 lineto
71733.5 54619.6 lineto
71771 54600.9 lineto
71883.4 54600.9 lineto
71920.9 54619.6 lineto
71939.7 54638.4 lineto
stroke
0 0 0 setrgbcolor
0 0 0 setrgbcolor
0 0 0 setrgbcolor
newpath
72070.9 35703.2 moveto
72202.1 35890.7 lineto
stroke
newpath
72295.9 35703.2 moveto
72295.9 36096.9 lineto
72145.9 36096.9 lineto
72108.4 36078.2 lineto
72089.7 36059.4 lineto
72070.9 36021.9 lineto
72070.9 35965.7 lineto
72089.7 35928.2 lineto
72108.4 35909.5 lineto
72145.9 35890.7 lineto
72295.9 35890.7 lineto
stroke
newpath
71714.7 36096.9 moveto
71902.2 36096.9 lineto
71920.9 35909.5 lineto
71902.2 35928.2 lineto
71864.7 35947 lineto
71771 35947 lineto
71733.5 35928.2 lineto
71714.7 35909.5 lineto
71696 35872 lineto
71696 35778.2 lineto
71714.7 35740.7 lineto
71733.5 35722 lineto
71771 35703.2 lineto
71864.7 35703.2 lineto
71902.2 35722 lineto
71920.9 35740.7 lineto
stroke
0 0 0 setrgbcolor
0 0 0 setrgbcolor
0 0 0 setrgbcolor
newpath
45102.4 38459.1 moveto
45233.6 38646.6 lineto
stroke
newpath
45327.4 38459.1 moveto
45327.4 38852.8 lineto
45177.4 38852.8 lineto
45139.9 38834.1 lineto
45121.2 38815.3 lineto
45102.4 38777.9 lineto
45102.4 38721.6 lineto
45121.2 38684.1 lineto
45139.9 38665.4 lineto
45177.4 38646.6 lineto
45327.4 38646.6 lineto
stroke
newpath
44765 38852.8 moveto
44839.9 38852.8 lineto
44877.4 38834.1 lineto
44896.2 38815.3 lineto
44933.7 38759.1 lineto
44952.4 38684.1 lineto
44952.4 38534.1 lineto
44933.7 38496.6 lineto
44914.9 38477.9 lineto
44877.4 38459.1 lineto
44802.4 38459.1 lineto
44765 38477.9 lineto
44746.2 38496.6 lineto
44727.5 38534.1 lineto
44727.5 38627.9 lineto
44746.2 38665.4 lineto
44765 38684.1 lineto
44802.4 38702.9 lineto
44877.4 38702.9 lineto
44914.9 38684.1 lineto
44933.7 38665.4 lineto
44952.4 38627.9 lineto
stroke
0 0 0 setrgbcolor
0 0 0 setrgbcolor
0 0 0 setrgbcolor
newpath
45102.4 39640.2 moveto
45233.6 39827.7 lineto
stroke
newpath
45327.4 39640.2 moveto
45327.4 40033.9 lineto
45177.4 40033.9 lineto
45139.9 40015.2 lineto
45121.2 39996.4 lineto
45102.4 39959 lineto
45102.4 39902.7 lineto
45121.2 39865.2 lineto
45139.9 39846.5 lineto
45177.4 39827.7 lineto
45327.4 39827.7 lineto
stroke
newpath
44971.2 40033.9 moveto
44708.7 40033.9 lineto
44877.4 39640.2 lineto
stroke
0 0 0 setrgbcolor
0 0 0 setrgbcolor
0 0 0 setrgbcolor
newpath
45102.4 40821.3 moveto
45233.6 41008.8 lineto
stroke
newpath
45327.4 40821.3 moveto
45327.4 41215 lineto
45177.4 41215 lineto
45139.9 41196.3 lineto
45121.2 41177.6 lineto
45102.4 41140.1 lineto
45102.4 41083.8 lineto
45121.2 41046.3 lineto
45139.9 41027.6 lineto
45177.4 41008.8 lineto
45327.4 41008.8 lineto
stroke
newpath
44877.4 41046.3 moveto
44914.9 41065.1 lineto
44933.7 41083.8 lineto
44952.4 41121.3 lineto
44952.4 41140.1 lineto
44933.7 41177.6 lineto
44914.9 41196.3 lineto
44877.4 41215 lineto
44802.4 41215 lineto
44765 41196.3 lineto
44746.2 41177.6 lineto
44727.5 41140.1 lineto
44727.5 41121.3 lineto
44746.2 41083.8 lineto
44765 41065.1 lineto
44802.4 41046.3 lineto
44877.4 41046.3 lineto
44914.9 41027.6 lineto
44933.7 41008.8 lineto
44952.4 40971.3 lineto
44952.4 40896.3 lineto
44933.7 40858.8 lineto
44914.9 40840.1 lineto
44877.4 40821.3 lineto
44802.4 40821.3 lineto
44765 40840.1 lineto
44746.2 40858.8 lineto
44727.5 40896.3 lineto
44727.5 40971.3 lineto
44746.2 41008.8 lineto
44765 41027.6 lineto
44802.4 41046.3 lineto
stroke
0 0 0 setrgbcolor
0 0 0 setrgbcolor
0 0 0 setrgbcolor
newpath
45102.4 42002.4 moveto
45233.6 42189.9 lineto
stroke
newpath
45327.4 42002.4 moveto
45327.4 42396.1 lineto
45177.4 42396.1 lineto
45139.9 42377.4 lineto
45121.2 42358.7 lineto
45102.4 42321.2 lineto
45102.4 42264.9 lineto
45121.2 42227.4 lineto
45139.9 42208.7 lineto
45177.4 42189.9 lineto
45327.4 42189.9 lineto
stroke
newpath
44914.9 42002.4 moveto
44839.9 42002.4 lineto
44802.4 42021.2 lineto
44783.7 42039.9 lineto
44746.2 42096.2 lineto
44727.5 42171.2 lineto
44727.5 42321.2 lineto
44746.2 42358.7 lineto
44765 42377.4 lineto
44802.4 42396.1 lineto
44877.4 42396.1 lineto
44914.9 42377.4 lineto
44933.7 42358.7 lineto
44952.4 42321.2 lineto
44952.4 42227.4 lineto
44933.7 42189.9 lineto
44914.9 42171.2 lineto
44877.4 42152.4 lineto
44802.4 42152.4 lineto
44765 42171.2 lineto
44746.2 42189.9 lineto
44727.5 42227.4 lineto
stroke
0 0 0 setrgbcolor
0 0 0 setrgbcolor
0 0 0 setrgbcolor
newpath
45486.7 37278 moveto
45618 37465.5 lineto
stroke
newpath
45711.7 37278 moveto
45711.7 37671.7 lineto
45561.7 37671.7 lineto
45524.2 37653 lineto
45505.5 37634.2 lineto
45486.7 37596.7 lineto
45486.7 37540.5 lineto
45505.5 37503 lineto
45524.2 37484.3 lineto
45561.7 37465.5 lineto
45711.7 37465.5 lineto
stroke
newpath
45111.8 37278 moveto
45336.8 37278 lineto
stroke
newpath
45224.3 37278 moveto
45224.3 37671.7 lineto
45261.8 37615.5 lineto
45299.3 37578 lineto
45336.8 37559.3 lineto
stroke
newpath
44736.8 37278 moveto
44961.8 37278 lineto
stroke
newpath
44849.3 37278 moveto
44849.3 37671.7 lineto
44886.8 37615.5 lineto
44924.3 37578 lineto
44961.8 37559.3 lineto
stroke
0 0 0 setrgbcolor
0 0 0 setrgbcolor
0 0 0 setrgbcolor
newpath
45093 45152.1 moveto
45224.3 45339.5 lineto
stroke
newpath
45318 45152.1 moveto
45318 45545.8 lineto
45168 45545.8 lineto
45130.5 45527 lineto
45111.8 45508.3 lineto
45093 45470.8 lineto
45093 45414.5 lineto
45111.8 45377 lineto
45130.5 45358.3 lineto
45168 45339.5 lineto
45318 45339.5 lineto
stroke
newpath
44718.1 45152.1 moveto
44943.1 45152.1 lineto
stroke
newpath
44830.6 45152.1 moveto
44830.6 45545.8 lineto
44868.1 45489.5 lineto
44905.6 45452 lineto
44943.1 45433.3 lineto
stroke
newpath
44586.8 45545.8 moveto
44343.1 45545.8 lineto
44474.4 45395.8 lineto
44418.1 45395.8 lineto
44380.6 45377 lineto
44361.9 45358.3 lineto
44343.1 45320.8 lineto
44343.1 45227 lineto
44361.9 45189.5 lineto
44380.6 45170.8 lineto
44418.1 45152.1 lineto
44530.6 45152.1 lineto
44568.1 45170.8 lineto
44586.8 45189.5 lineto
stroke
0 0 0 setrgbcolor
0 0 0 setrgbcolor
0 0 0 setrgbcolor
newpath
45093 43971 moveto
45224.3 44158.4 lineto
stroke
newpath
45318 43971 moveto
45318 44364.7 lineto
45168 44364.7 lineto
45130.5 44345.9 lineto
45111.8 44327.2 lineto
45093 44289.7 lineto
45093 44233.4 lineto
45111.8 44195.9 lineto
45130.5 44177.2 lineto
45168 44158.4 lineto
45318 44158.4 lineto
stroke
newpath
44718.1 43971 moveto
44943.1 43971 lineto
stroke
newpath
44830.6 43971 moveto
44830.6 44364.7 lineto
44868.1 44308.4 lineto
44905.6 44270.9 lineto
44943.1 44252.2 lineto
stroke
newpath
44380.6 44233.4 moveto
44380.6 43971 lineto
stroke
newpath
44474.4 44383.4 moveto
44568.1 44102.2 lineto
44324.4 44102.2 lineto
stroke
0 0 0 setrgbcolor
0 0 0 setrgbcolor
0 0 0 setrgbcolor
newpath
41549.7 54600.9 moveto
41681 54788.3 lineto
stroke
newpath
41774.7 54600.9 moveto
41774.7 54994.6 lineto
41624.7 54994.6 lineto
41587.2 54975.8 lineto
41568.5 54957.1 lineto
41549.7 54919.6 lineto
41549.7 54863.3 lineto
41568.5 54825.8 lineto
41587.2 54807.1 lineto
41624.7 54788.3 lineto
41774.7 54788.3 lineto
stroke
newpath
41174.8 54600.9 moveto
41399.7 54600.9 lineto
stroke
newpath
41287.3 54600.9 moveto
41287.3 54994.6 lineto
41324.8 54938.3 lineto
41362.3 54900.8 lineto
41399.7 54882.1 lineto
stroke
newpath
41024.8 54957.1 moveto
41006 54975.8 lineto
40968.6 54994.6 lineto
40874.8 54994.6 lineto
40837.3 54975.8 lineto
40818.6 54957.1 lineto
40799.8 54919.6 lineto
40799.8 54882.1 lineto
40818.6 54825.8 lineto
41043.5 54600.9 lineto
40799.8 54600.9 lineto
stroke
0 0 0 setrgbcolor
0 0 0 setrgbcolor
0 0 0 setrgbcolor
newpath
71967.8 34203.4 moveto
71986.6 34147.2 lineto
71986.6 34053.4 lineto
71967.8 34015.9 lineto
71949.1 33997.2 lineto
71911.6 33978.5 lineto
71874.1 33978.5 lineto
71836.6 33997.2 lineto
71817.8 34015.9 lineto
71799.1 34053.4 lineto
71780.3 34128.4 lineto
71761.6 34165.9 lineto
71742.8 34184.7 lineto
71705.3 34203.4 lineto
71667.8 34203.4 lineto
71630.3 34184.7 lineto
71611.6 34165.9 lineto
71592.8 34128.4 lineto
71592.8 34034.7 lineto
71611.6 33978.5 lineto
stroke
newpath
71780.3 33809.7 moveto
71780.3 33678.5 lineto
stroke
newpath
71986.6 33622.2 moveto
71986.6 33809.7 lineto
71592.8 33809.7 lineto
71592.8 33622.2 lineto
stroke
newpath
71986.6 33453.5 moveto
71592.8 33453.5 lineto
71986.6 33228.5 lineto
71592.8 33228.5 lineto
stroke
newpath
71761.6 32984.8 moveto
71742.8 33022.3 lineto
71724.1 33041.1 lineto
71686.6 33059.8 lineto
71667.8 33059.8 lineto
71630.3 33041.1 lineto
71611.6 33022.3 lineto
71592.8 32984.8 lineto
71592.8 32909.8 lineto
71611.6 32872.3 lineto
71630.3 32853.6 lineto
71667.8 32834.8 lineto
71686.6 32834.8 lineto
71724.1 32853.6 lineto
71742.8 32872.3 lineto
71761.6 32909.8 lineto
71761.6 32984.8 lineto
71780.3 33022.3 lineto
71799.1 33041.1 lineto
71836.6 33059.8 lineto
71911.6 33059.8 lineto
71949.1 33041.1 lineto
71967.8 33022.3 lineto
71986.6 32984.8 lineto
71986.6 32909.8 lineto
71967.8 32872.3 lineto
71949.1 32853.6 lineto
71911.6 32834.8 lineto
71836.6 32834.8 lineto
71799.1 32853.6 lineto
71780.3 32872.3 lineto
71761.6 32909.8 lineto
stroke
0 0 0 setrgbcolor
0 0 0 setrgbcolor
0 0 0 setrgbcolor
newpath
50716.3 52750.8 moveto
50490.9 52525.5 lineto
50451.2 52512.2 lineto
50424.7 52512.2 lineto
50384.9 52525.5 lineto
50331.9 52578.5 lineto
50318.6 52618.3 lineto
50318.6 52644.8 lineto
50331.9 52684.5 lineto
50557.2 52909.9 lineto
stroke
newpath
50305.4 53161.8 moveto
50358.4 53108.7 lineto
50371.6 53069 lineto
50371.6 53042.5 lineto
50358.4 52976.2 lineto
50318.6 52909.9 lineto
50212.6 52803.8 lineto
50172.8 52790.6 lineto
50146.3 52790.6 lineto
50106.5 52803.8 lineto
50053.5 52856.9 lineto
50040.2 52896.6 lineto
50040.2 52923.2 lineto
50053.5 52962.9 lineto
50119.8 53029.2 lineto
50159.5 53042.5 lineto
50186 53042.5 lineto
50225.8 53029.2 lineto
50278.8 52976.2 lineto
50292.1 52936.4 lineto
50292.1 52909.9 lineto
50278.8 52870.1 lineto
stroke
0 0 0 setrgbcolor
0 0 0 setrgbcolor
0 0 0 setrgbcolor
newpath
30451.1 51141.9 moveto
30769.8 51141.9 lineto
30807.3 51123.2 lineto
30826.1 51104.4 lineto
30844.8 51066.9 lineto
30844.8 50991.9 lineto
30826.1 50954.5 lineto
30807.3 50935.7 lineto
30769.8 50917 lineto
30451.1 50917 lineto
stroke
newpath
30582.4 50560.8 moveto
30844.8 50560.8 lineto
stroke
newpath
30432.4 50654.5 moveto
30713.6 50748.2 lineto
30713.6 50504.5 lineto
stroke
0 0 0 setrgbcolor
0 0 0 setrgbcolor
0 0 0 setrgbcolor
newpath
30451.1 40905.7 moveto
30769.8 40905.7 lineto
30807.3 40887 lineto
30826.1 40868.2 lineto
30844.8 40830.7 lineto
30844.8 40755.7 lineto
30826.1 40718.2 lineto
30807.3 40699.5 lineto
30769.8 40680.7 lineto
30451.1 40680.7 lineto
stroke
newpath
30844.8 40287 moveto
30844.8 40512 lineto
stroke
newpath
30844.8 40399.5 moveto
30451.1 40399.5 lineto
30507.4 40437 lineto
30544.9 40474.5 lineto
30563.6 40512 lineto
stroke
0 0 0 setrgbcolor
0 0 0 setrgbcolor
0 0 0 setrgbcolor
newpath
28763.8 52866.7 moveto
28782.6 52848 lineto
28838.8 52829.2 lineto
28876.3 52829.2 lineto
28932.6 52848 lineto
28970.1 52885.5 lineto
28988.8 52923 lineto
29007.5 52997.9 lineto
29007.5 53054.2 lineto
28988.8 53129.2 lineto
28970.1 53166.7 lineto
28932.6 53204.2 lineto
28876.3 53222.9 lineto
28838.8 53222.9 lineto
28782.6 53204.2 lineto
28763.8 53185.4 lineto
stroke
newpath
28388.9 52829.2 moveto
28613.8 52829.2 lineto
stroke
newpath
28501.4 52829.2 moveto
28501.4 53222.9 lineto
28538.9 53166.7 lineto
28576.4 53129.2 lineto
28613.8 53110.4 lineto
stroke
0 0 0 setrgbcolor
0 0 0 setrgbcolor
0 0 0 setrgbcolor
newpath
28763.8 38693.5 moveto
28782.6 38674.7 lineto
28838.8 38656 lineto
28876.3 38656 lineto
28932.6 38674.7 lineto
28970.1 38712.2 lineto
28988.8 38749.7 lineto
29007.5 38824.7 lineto
29007.5 38881 lineto
28988.8 38956 lineto
28970.1 38993.4 lineto
28932.6 39030.9 lineto
28876.3 39049.7 lineto
28838.8 39049.7 lineto
28782.6 39030.9 lineto
28763.8 39012.2 lineto
stroke
newpath
28613.8 39012.2 moveto
28595.1 39030.9 lineto
28557.6 39049.7 lineto
28463.9 39049.7 lineto
28426.4 39030.9 lineto
28407.6 39012.2 lineto
28388.9 38974.7 lineto
28388.9 38937.2 lineto
28407.6 38881 lineto
28632.6 38656 lineto
28388.9 38656 lineto
stroke
0 0 0 setrgbcolor
0 0 0 setrgbcolor
0 0 0 setrgbcolor
newpath
28763.8 42630.5 moveto
28782.6 42611.7 lineto
28838.8 42593 lineto
28876.3 42593 lineto
28932.6 42611.7 lineto
28970.1 42649.2 lineto
28988.8 42686.7 lineto
29007.5 42761.7 lineto
29007.5 42818 lineto
28988.8 42893 lineto
28970.1 42930.5 lineto
28932.6 42968 lineto
28876.3 42986.7 lineto
28838.8 42986.7 lineto
28782.6 42968 lineto
28763.8 42949.2 lineto
stroke
newpath
28632.6 42986.7 moveto
28388.9 42986.7 lineto
28520.1 42836.7 lineto
28463.9 42836.7 lineto
28426.4 42818 lineto
28407.6 42799.2 lineto
28388.9 42761.7 lineto
28388.9 42668 lineto
28407.6 42630.5 lineto
28426.4 42611.7 lineto
28463.9 42593 lineto
28576.4 42593 lineto
28613.8 42611.7 lineto
28632.6 42630.5 lineto
stroke
0 0 0 setrgbcolor
0 0 0 setrgbcolor
0 0 0 setrgbcolor
newpath
28763.8 48929.7 moveto
28782.6 48911 lineto
28838.8 48892.2 lineto
28876.3 48892.2 lineto
28932.6 48911 lineto
28970.1 48948.5 lineto
28988.8 48985.9 lineto
29007.5 49060.9 lineto
29007.5 49117.2 lineto
28988.8 49192.2 lineto
28970.1 49229.7 lineto
28932.6 49267.2 lineto
28876.3 49285.9 lineto
28838.8 49285.9 lineto
28782.6 49267.2 lineto
28763.8 49248.4 lineto
stroke
newpath
28426.4 49154.7 moveto
28426.4 48892.2 lineto
stroke
newpath
28520.1 49304.7 moveto
28613.8 49023.4 lineto
28370.1 49023.4 lineto
stroke
0 0 0 setrgbcolor
0 0 0 setrgbcolor
0 0 0 setrgbcolor
newpath
23402 53241.7 moveto
23383.3 53279.2 lineto
23345.8 53316.7 lineto
23289.5 53372.9 lineto
23270.8 53410.4 lineto
23270.8 53447.9 lineto
stroke
newpath
23364.5 53429.1 moveto
23345.8 53466.6 lineto
23308.3 53504.1 lineto
23233.3 53522.9 lineto
23102 53522.9 lineto
23027 53504.1 lineto
22989.5 53466.6 lineto
22970.8 53429.1 lineto
22970.8 53354.2 lineto
22989.5 53316.7 lineto
23027 53279.2 lineto
23102 53260.4 lineto
23233.3 53260.4 lineto
23308.3 53279.2 lineto
23345.8 53316.7 lineto
23364.5 53354.2 lineto
23364.5 53429.1 lineto
stroke
newpath
23364.5 52885.5 moveto
23364.5 53110.4 lineto
stroke
newpath
23364.5 52997.9 moveto
22970.8 52997.9 lineto
23027 53035.4 lineto
23064.5 53072.9 lineto
23083.3 53110.4 lineto
stroke
0 0 0 setrgbcolor
0 0 0 setrgbcolor
0 0 0 setrgbcolor
newpath
49208.1 40390.1 moveto
49245.6 40408.9 lineto
49283.1 40446.4 lineto
49339.4 40502.6 lineto
49376.9 40521.4 lineto
49414.4 40521.4 lineto
stroke
newpath
49395.6 40427.6 moveto
49433.1 40446.4 lineto
49470.6 40483.9 lineto
49489.4 40558.9 lineto
49489.4 40690.1 lineto
49470.6 40765.1 lineto
49433.1 40802.6 lineto
49395.6 40821.3 lineto
49320.6 40821.3 lineto
49283.1 40802.6 lineto
49245.6 40765.1 lineto
49226.9 40690.1 lineto
49226.9 40558.9 lineto
49245.6 40483.9 lineto
49283.1 40446.4 lineto
49320.6 40427.6 lineto
49395.6 40427.6 lineto
stroke
newpath
49076.9 40783.9 moveto
49058.2 40802.6 lineto
49020.7 40821.3 lineto
48926.9 40821.3 lineto
48889.4 40802.6 lineto
48870.7 40783.9 lineto
48851.9 40746.4 lineto
48851.9 40708.9 lineto
48870.7 40652.6 lineto
49095.7 40427.6 lineto
48851.9 40427.6 lineto
stroke
0 0 0 setrgbcolor
0 0 0 setrgbcolor
0 0 0 setrgbcolor
newpath
72267.8 45152.1 moveto
72399 45339.5 lineto
stroke
newpath
72492.7 45152.1 moveto
72492.7 45545.8 lineto
72342.8 45545.8 lineto
72305.3 45527 lineto
72286.5 45508.3 lineto
72267.8 45470.8 lineto
72267.8 45414.5 lineto
72286.5 45377 lineto
72305.3 45358.3 lineto
72342.8 45339.5 lineto
72492.7 45339.5 lineto
stroke
newpath
71930.3 45414.5 moveto
71930.3 45152.1 lineto
stroke
newpath
72024 45564.5 moveto
72117.8 45283.3 lineto
71874.1 45283.3 lineto
stroke
0 0 0 setrgbcolor
0 0 0 setrgbcolor
0 0 0 setrgbcolor
newpath
75923.6 44017.8 moveto
75736.1 44149.1 lineto
stroke
newpath
75923.6 44242.8 moveto
75529.9 44242.8 lineto
75529.9 44092.8 lineto
75548.6 44055.3 lineto
75567.4 44036.6 lineto
75604.8 44017.8 lineto
75661.1 44017.8 lineto
75698.6 44036.6 lineto
75717.3 44055.3 lineto
75736.1 44092.8 lineto
75736.1 44242.8 lineto
stroke
newpath
75923.6 43642.9 moveto
75923.6 43867.8 lineto
stroke
newpath
75923.6 43755.4 moveto
75529.9 43755.4 lineto
75586.1 43792.8 lineto
75623.6 43830.3 lineto
75642.3 43867.8 lineto
stroke
0 0 0 setrgbcolor
0 0 0 setrgbcolor
0 0 0 setrgbcolor
newpath
72267.8 49876.5 moveto
72399 50063.9 lineto
stroke
newpath
72492.7 49876.5 moveto
72492.7 50270.2 lineto
72342.8 50270.2 lineto
72305.3 50251.4 lineto
72286.5 50232.7 lineto
72267.8 50195.2 lineto
72267.8 50138.9 lineto
72286.5 50101.4 lineto
72305.3 50082.7 lineto
72342.8 50063.9 lineto
72492.7 50063.9 lineto
stroke
newpath
72117.8 50232.7 moveto
72099 50251.4 lineto
72061.5 50270.2 lineto
71967.8 50270.2 lineto
71930.3 50251.4 lineto
71911.6 50232.7 lineto
71892.8 50195.2 lineto
71892.8 50157.7 lineto
71911.6 50101.4 lineto
72136.5 49876.5 lineto
71892.8 49876.5 lineto
stroke
showpage
grestore
%%EOF
