%!PS-Adobe-3.0
%%Creator: PCBNEW
%%CreationDate: Sun Jan 25 14:28:57 2015
%%Title: /home/ad/kicad/robot2015/ps/robot2015-F_Cu.ps
%%Pages: 1
%%PageOrder: Ascend
%%BoundingBox: 0 0 596 842
%%DocumentMedia: A4 595 842 0 () ()
%%Orientation: Landscape
%%EndComments
%%BeginProlog
/line { newpath moveto lineto stroke } bind def
/cir0 { newpath 0 360 arc stroke } bind def
/cir1 { newpath 0 360 arc gsave fill grestore stroke } bind def
/cir2 { newpath 0 360 arc gsave fill grestore stroke } bind def
/arc0 { newpath arc stroke } bind def
/arc1 { newpath 4 index 4 index moveto arc closepath gsave fill
    grestore stroke } bind def
/arc2 { newpath 4 index 4 index moveto arc closepath gsave fill
    grestore stroke } bind def
/poly0 { stroke } bind def
/poly1 { closepath gsave fill grestore stroke } bind def
/poly2 { closepath gsave fill grestore stroke } bind def
/rect0 { rectstroke } bind def
/rect1 { rectfill } bind def
/rect2 { rectfill } bind def
/linemode0 { 0 setlinecap 0 setlinejoin 0 setlinewidth } bind def
/linemode1 { 1 setlinecap 1 setlinejoin } bind def
/dashedline { [200] 100 setdash } bind def
/solidline { [] 0 setdash } bind def
/phantomshow { moveto
    /KicadFont findfont 0.000001 scalefont setfont
    show } bind def
/textshow { gsave
    findfont exch scalefont setfont concat 1 scale 0 0 moveto show
    } bind def
/reencodefont {
  findfont dup length dict begin
  { 1 index /FID ne
    { def }
    { pop pop } ifelse
  } forall
  /Encoding ISOLatin1Encoding def
  currentdict
  end } bind def
/KicadFont /Helvetica reencodefont definefont pop
/KicadFont-Bold /Helvetica-Bold reencodefont definefont pop
/KicadFont-Oblique /Helvetica-Oblique reencodefont definefont pop
/KicadFont-BoldOblique /Helvetica-BoldOblique reencodefont definefont pop
%%EndProlog
%%Page: 1 1
%%BeginPageSetup
gsave
0.0072 0.0072 scale
linemode1
82680 0 translate 90 rotate
39.3701 setlinewidth
%%EndPageSetup
0 0 0 setrgbcolor
0 0 0 setrgbcolor
39.3701 setlinewidth
newpath
70824.2 51235.7 moveto
70824.2 57928.6 lineto
stroke
0 0 0 setrgbcolor
newpath
20430.5 25645.1 moveto
34603.7 25645.1 lineto
stroke
0 0 0 setrgbcolor
newpath
18068.3 57141.2 moveto
18068.3 33519.1 lineto
stroke
0 0 0 setrgbcolor
newpath
34603.7 65015.2 moveto
20430.5 65015.2 lineto
stroke
0 0 0 setrgbcolor
newpath
35784.8 63834.1 moveto
34603.7 65015.2 lineto
stroke
0 0 0 setrgbcolor
newpath
35784.8 59897.1 moveto
35784.8 63834.1 lineto
stroke
0 0 0 setrgbcolor
newpath
36965.9 58716 moveto
35784.8 59897.1 lineto
stroke
0 0 0 setrgbcolor
newpath
45627.3 58716 moveto
36965.9 58716 lineto
stroke
0 0 0 setrgbcolor
newpath
56257.3 48086.1 moveto
45627.3 58716 lineto
stroke
0 0 0 setrgbcolor
newpath
67674.6 48086.1 moveto
56257.3 48086.1 lineto
stroke
0 0 0 setrgbcolor
newpath
70824.2 51235.7 moveto
67674.6 48086.1 lineto
stroke
0 0 0 setrgbcolor
newpath
72792.7 59897.1 moveto
70824.2 57928.6 lineto
stroke
0 0 0 setrgbcolor
newpath
75154.9 59897.1 moveto
72792.7 59897.1 lineto
stroke
0 0 0 setrgbcolor
newpath
77123.4 57928.6 moveto
75154.9 59897.1 lineto
stroke
0 0 0 setrgbcolor
newpath
77123.4 56747.5 moveto
77123.4 57928.6 lineto
stroke
0 0 0 setrgbcolor
newpath
76336 55960.1 moveto
77123.4 56747.5 lineto
stroke
0 0 0 setrgbcolor
newpath
76336 34700.2 moveto
76336 55960.1 lineto
stroke
0 0 0 setrgbcolor
newpath
77123.4 33912.8 moveto
76336 34700.2 lineto
stroke
0 0 0 setrgbcolor
newpath
77123.4 32731.7 moveto
77123.4 33912.8 lineto
stroke
0 0 0 setrgbcolor
newpath
75154.9 30763.2 moveto
77123.4 32731.7 lineto
stroke
0 0 0 setrgbcolor
newpath
72792.7 30763.2 moveto
75154.9 30763.2 lineto
stroke
0 0 0 setrgbcolor
newpath
70824.2 32731.7 moveto
72792.7 30763.2 lineto
stroke
0 0 0 setrgbcolor
newpath
70824.2 39424.6 moveto
70824.2 32731.7 lineto
stroke
0 0 0 setrgbcolor
newpath
67674.6 42574.3 moveto
70824.2 39424.6 lineto
stroke
0 0 0 setrgbcolor
newpath
56257.3 42574.3 moveto
67674.6 42574.3 lineto
stroke
0 0 0 setrgbcolor
newpath
45627.3 31944.3 moveto
56257.3 42574.3 lineto
stroke
0 0 0 setrgbcolor
newpath
36965.9 31944.3 moveto
45627.3 31944.3 lineto
stroke
0 0 0 setrgbcolor
newpath
35784.8 30763.2 moveto
36965.9 31944.3 lineto
stroke
0 0 0 setrgbcolor
newpath
35784.8 26826.2 moveto
35784.8 30763.2 lineto
stroke
0 0 0 setrgbcolor
newpath
34603.7 25645.1 moveto
35784.8 26826.2 lineto
stroke
0 0 0 setrgbcolor
newpath
19249.4 63834.1 moveto
20430.5 65015.2 lineto
stroke
0 0 0 setrgbcolor
newpath
19249.4 58322.3 moveto
19249.4 63834.1 lineto
stroke
0 0 0 setrgbcolor
newpath
18068.3 57141.2 moveto
19249.4 58322.3 lineto
stroke
0 0 0 setrgbcolor
newpath
19249.4 26826.2 moveto
20430.5 25645.1 lineto
stroke
0 0 0 setrgbcolor
newpath
19249.4 32338 moveto
19249.4 26826.2 lineto
stroke
0 0 0 setrgbcolor
newpath
18068.3 33519.1 moveto
19249.4 32338 lineto
stroke
0 0 0 setrgbcolor
393.701 setlinewidth
newpath
75450.2 42786.8 moveto
75647 42786.8 lineto
stroke
0 0 0 setrgbcolor
newpath
75450.2 42286.8 moveto
75647 42286.8 lineto
stroke
0 0 0 setrgbcolor
newpath
75450.2 40786.8 moveto
75647 40786.8 lineto
stroke
0 0 0 setrgbcolor
newpath
75450.2 41286.8 moveto
75647 41286.8 lineto
stroke
0 0 0 setrgbcolor
39.3701 setlinewidth
74328.1 57641.2 255.906 cir1
0 0 0 setrgbcolor
74328.1 56641.2 255.906 cir1
0 0 0 setrgbcolor
73225.8 57641.2 255.906 cir1
0 0 0 setrgbcolor
73225.8 56641.2 255.906 cir1
0 0 0 setrgbcolor
74328.1 52916.8 255.906 cir1
0 0 0 setrgbcolor
74328.1 51916.8 255.906 cir1
0 0 0 setrgbcolor
73225.8 52916.8 255.906 cir1
0 0 0 setrgbcolor
73225.8 51916.8 255.906 cir1
0 0 0 setrgbcolor
74328.1 48192.4 255.906 cir1
0 0 0 setrgbcolor
74328.1 47192.4 255.906 cir1
0 0 0 setrgbcolor
73225.8 48192.4 255.906 cir1
0 0 0 setrgbcolor
73225.8 47192.4 255.906 cir1
0 0 0 setrgbcolor
74328.1 43468 255.906 cir1
0 0 0 setrgbcolor
74328.1 42468 255.906 cir1
0 0 0 setrgbcolor
73225.8 43468 255.906 cir1
0 0 0 setrgbcolor
73225.8 42468 255.906 cir1
0 0 0 setrgbcolor
74328.1 38743.5 255.906 cir1
0 0 0 setrgbcolor
74328.1 37743.5 255.906 cir1
0 0 0 setrgbcolor
73225.8 38743.5 255.906 cir1
0 0 0 setrgbcolor
73225.8 37743.5 255.906 cir1
0 0 0 setrgbcolor
472.441 setlinewidth
newpath
19918.7 54385.3 moveto
20154.9 54385.3 lineto
stroke
0 0 0 setrgbcolor
newpath
19918.7 55527 moveto
20154.9 55527 lineto
stroke
0 0 0 setrgbcolor
newpath
19918.7 53243.5 moveto
20154.9 53243.5 lineto
stroke
0 0 0 setrgbcolor
748.031 setlinewidth
newpath
19780.9 56668.7 moveto
20292.7 56668.7 lineto
stroke
0 0 0 setrgbcolor
newpath
19780.9 52101.8 moveto
20292.7 52101.8 lineto
stroke
0 0 0 setrgbcolor
39.3701 setlinewidth
36572.2 34530.9 452.756 cir1
0 0 0 setrgbcolor
36572.2 56129.4 452.756 cir1
0 0 0 setrgbcolor
33780.9 34530.9 488.189 cir1
0 0 0 setrgbcolor
29879.3 56129.4 452.756 cir1
0 0 0 setrgbcolor
29879.3 34530.9 452.756 cir1
0 0 0 setrgbcolor
32670.7 56129.4 488.189 cir1
0 0 0 setrgbcolor
26329.3 63215.2 580.315 cir1
0 0 0 setrgbcolor
33429.3 63215.2 580.315 cir1
0 0 0 setrgbcolor
21211.2 63215.2 580.315 cir1
0 0 0 setrgbcolor
28311.2 63215.2 580.315 cir1
0 0 0 setrgbcolor
28311.2 27445.1 580.315 cir1
0 0 0 setrgbcolor
21211.2 27445.1 580.315 cir1
0 0 0 setrgbcolor
33429.3 27445.1 580.315 cir1
0 0 0 setrgbcolor
26329.3 27445.1 580.315 cir1
0 0 0 setrgbcolor
65706.1 45330.2 610.236 cir1
0 0 0 setrgbcolor
71006.1 45330.2 610.236 cir1
0 0 0 setrgbcolor
61769.1 46830.2 295.276 cir1
0 0 0 setrgbcolor
61769.1 45830.2 295.276 cir1
0 0 0 setrgbcolor
61769.1 44830.2 295.276 cir1
0 0 0 setrgbcolor
61769.1 43830.2 295.276 cir1
0 0 0 setrgbcolor
42158.8 57928.6 295.276 cir1
0 0 0 setrgbcolor
43158.8 57928.6 295.276 cir1
0 0 0 setrgbcolor
44158.8 57928.6 295.276 cir1
0 0 0 setrgbcolor
45158.8 57928.6 295.276 cir1
0 0 0 setrgbcolor
45158.8 32731.7 295.276 cir1
0 0 0 setrgbcolor
44158.8 32731.7 295.276 cir1
0 0 0 setrgbcolor
43158.8 32731.7 295.276 cir1
0 0 0 setrgbcolor
42158.8 32731.7 295.276 cir1
0 0 0 setrgbcolor
newpath
25147.8 57948.2 moveto
25147.8 57121.6 lineto
24587.2 57121.6 lineto
24587.2 57948.2 lineto
25147.8 57948.2 lineto
poly1
0 0 0 setrgbcolor
600 setlinewidth
newpath
23867.5 57401.9 moveto
23867.5 57667.9 lineto
stroke
0 0 0 setrgbcolor
39.3701 setlinewidth
newpath
23587.2 32712.1 moveto
23587.2 33538.7 lineto
24147.8 33538.7 lineto
24147.8 32712.1 lineto
23587.2 32712.1 lineto
poly1
0 0 0 setrgbcolor
600 setlinewidth
newpath
24867.5 33258.4 moveto
24867.5 32992.4 lineto
stroke
0 0 0 setrgbcolor
39.3701 setlinewidth
19150.8 37948.7 373.815 cir1
0 0 0 setrgbcolor
20922.8 35388.7 373.815 cir1
0 0 0 setrgbcolor
20922.8 37948.7 373.815 cir1
0 0 0 setrgbcolor
19150.8 35388.7 373.815 cir1
0 0 0 setrgbcolor
newpath
45803.3 52692.1 moveto
45803.3 52141.5 lineto
45252.6 52141.5 lineto
45252.6 52692.1 lineto
45803.3 52692.1 lineto
poly1
0 0 0 setrgbcolor
newpath
44427.3 52692.1 moveto
44427.3 52141.5 lineto
43876.6 52141.5 lineto
43876.6 52692.1 lineto
44427.3 52692.1 lineto
poly1
0 0 0 setrgbcolor
newpath
45094.6 50900.4 moveto
45094.6 51571 lineto
45685.3 51571 lineto
45685.3 50900.4 lineto
45094.6 50900.4 lineto
poly1
0 0 0 setrgbcolor
newpath
43994.6 50900.4 moveto
43994.6 51571 lineto
44585.3 51571 lineto
44585.3 50900.4 lineto
43994.6 50900.4 lineto
poly1
0 0 0 setrgbcolor
74328.1 34019.1 255.906 cir1
0 0 0 setrgbcolor
74328.1 33019.1 255.906 cir1
0 0 0 setrgbcolor
73225.8 34019.1 255.906 cir1
0 0 0 setrgbcolor
73225.8 33019.1 255.906 cir1
0 0 0 setrgbcolor
25399 41830.2 295.276 cir1
0 0 0 setrgbcolor
25399 42830.2 295.276 cir1
0 0 0 setrgbcolor
25399 43830.2 295.276 cir1
0 0 0 setrgbcolor
25399 44830.2 295.276 cir1
0 0 0 setrgbcolor
25399 45830.2 295.276 cir1
0 0 0 setrgbcolor
25399 46830.2 295.276 cir1
0 0 0 setrgbcolor
25399 47830.2 295.276 cir1
0 0 0 setrgbcolor
25399 48830.2 295.276 cir1
0 0 0 setrgbcolor
19399 48830.2 295.276 cir1
0 0 0 setrgbcolor
19399 47830.2 295.276 cir1
0 0 0 setrgbcolor
19399 46830.2 295.276 cir1
0 0 0 setrgbcolor
19399 45830.2 295.276 cir1
0 0 0 setrgbcolor
19399 44830.2 295.276 cir1
0 0 0 setrgbcolor
19399 43830.2 295.276 cir1
0 0 0 setrgbcolor
19399 42830.2 295.276 cir1
0 0 0 setrgbcolor
19399 41830.2 295.276 cir1
0 0 0 setrgbcolor
49032.9 48830.2 295.276 cir1
0 0 0 setrgbcolor
49032.9 47830.2 295.276 cir1
0 0 0 setrgbcolor
49032.9 46830.2 295.276 cir1
0 0 0 setrgbcolor
49032.9 45830.2 295.276 cir1
0 0 0 setrgbcolor
49032.9 44830.2 295.276 cir1
0 0 0 setrgbcolor
49032.9 43830.2 295.276 cir1
0 0 0 setrgbcolor
49032.9 42830.2 295.276 cir1
0 0 0 setrgbcolor
49032.9 41830.2 295.276 cir1
0 0 0 setrgbcolor
53532.9 48330.2 688.976 cir1
0 0 0 setrgbcolor
53532.9 42330.2 688.976 cir1
0 0 0 setrgbcolor
newpath
51158.8 50455.4 moveto
50332.1 50455.4 lineto
50332.1 51016 lineto
51158.8 51016 lineto
51158.8 50455.4 lineto
poly1
0 0 0 setrgbcolor
600 setlinewidth
newpath
50612.5 51735.7 moveto
50878.5 51735.7 lineto
stroke
0 0 0 setrgbcolor
393.701 setlinewidth
newpath
75450.2 49873.5 moveto
75647 49873.5 lineto
stroke
0 0 0 setrgbcolor
newpath
75450.2 49373.5 moveto
75647 49373.5 lineto
stroke
0 0 0 setrgbcolor
newpath
75450.2 47873.5 moveto
75647 47873.5 lineto
stroke
0 0 0 setrgbcolor
newpath
75450.2 48373.5 moveto
75647 48373.5 lineto
stroke
0 0 0 setrgbcolor
39.3701 setlinewidth
40658.8 45605.7 295.276 cir1
0 0 0 setrgbcolor
40658.8 44605.7 295.276 cir1
0 0 0 setrgbcolor
40658.8 43605.7 295.276 cir1
0 0 0 setrgbcolor
40658.8 42605.7 295.276 cir1
0 0 0 setrgbcolor
40658.8 41605.7 295.276 cir1
0 0 0 setrgbcolor
40658.8 40605.7 295.276 cir1
0 0 0 setrgbcolor
40658.8 39605.7 295.276 cir1
0 0 0 setrgbcolor
40658.8 38605.7 295.276 cir1
0 0 0 setrgbcolor
40658.8 37605.7 295.276 cir1
0 0 0 setrgbcolor
40658.8 36605.7 295.276 cir1
0 0 0 setrgbcolor
40658.8 35605.7 295.276 cir1
0 0 0 setrgbcolor
40658.8 34605.7 295.276 cir1
0 0 0 setrgbcolor
44658.8 34605.7 295.276 cir1
0 0 0 setrgbcolor
45658.8 34605.7 295.276 cir1
0 0 0 setrgbcolor
44658.8 35605.7 295.276 cir1
0 0 0 setrgbcolor
45658.8 35605.7 295.276 cir1
0 0 0 setrgbcolor
46658.8 34605.7 295.276 cir1
0 0 0 setrgbcolor
46658.8 35605.7 295.276 cir1
0 0 0 setrgbcolor
46658.8 36605.7 295.276 cir1
0 0 0 setrgbcolor
46658.8 37605.7 295.276 cir1
0 0 0 setrgbcolor
46658.8 38605.7 295.276 cir1
0 0 0 setrgbcolor
46658.8 39605.7 295.276 cir1
0 0 0 setrgbcolor
46658.8 40605.7 295.276 cir1
0 0 0 setrgbcolor
46658.8 41605.7 295.276 cir1
0 0 0 setrgbcolor
46658.8 42605.7 295.276 cir1
0 0 0 setrgbcolor
46658.8 43605.7 295.276 cir1
0 0 0 setrgbcolor
46658.8 44605.7 295.276 cir1
0 0 0 setrgbcolor
46658.8 45605.7 295.276 cir1
0 0 0 setrgbcolor
30819 50146.1 130.315 cir1
0 0 0 setrgbcolor
25013.4 36616.3 130.315 cir1
0 0 0 setrgbcolor
73757.1 41411.3 130.315 cir1
0 0 0 setrgbcolor
26738.8 42886.1 130.315 cir1
0 0 0 setrgbcolor
22421.3 52387.8 130.315 cir1
0 0 0 setrgbcolor
28034.1 49312.4 130.315 cir1
0 0 0 setrgbcolor
29104.5 51196.8 130.315 cir1
0 0 0 setrgbcolor
42264.8 34803.7 130.315 cir1
0 0 0 setrgbcolor
30750.8 42469.9 130.315 cir1
0 0 0 setrgbcolor
72940.1 51206.7 130.315 cir1
0 0 0 setrgbcolor
51147.1 43845.8 130.315 cir1
0 0 0 setrgbcolor
43837.5 56579.7 130.315 cir1
0 0 0 setrgbcolor
47284.8 44636 130.315 cir1
0 0 0 setrgbcolor
20738.2 42593.6 130.315 cir1
0 0 0 setrgbcolor
71891.1 40973.3 130.315 cir1
0 0 0 setrgbcolor
43536.2 42843.7 130.315 cir1
0 0 0 setrgbcolor
48032.7 49481.2 130.315 cir1
0 0 0 setrgbcolor
40101.7 47741.3 130.315 cir1
0 0 0 setrgbcolor
48666.3 36606.1 130.315 cir1
0 0 0 setrgbcolor
48847.5 40530.1 130.315 cir1
0 0 0 setrgbcolor
53520.7 40847.5 130.315 cir1
0 0 0 setrgbcolor
47921.9 44967.4 130.315 cir1
0 0 0 setrgbcolor
71685.8 43347.3 130.315 cir1
0 0 0 setrgbcolor
44696.6 38092.7 130.315 cir1
0 0 0 setrgbcolor
50118.2 37692.6 130.315 cir1
0 0 0 setrgbcolor
47413.6 37105.7 130.315 cir1
0 0 0 setrgbcolor
42031.3 54117.6 130.315 cir1
0 0 0 setrgbcolor
39919.8 44492.1 130.315 cir1
0 0 0 setrgbcolor
50256.3 50182.9 130.315 cir1
0 0 0 setrgbcolor
47317.1 35032.7 130.315 cir1
0 0 0 setrgbcolor
52419.7 45830.2 130.315 cir1
0 0 0 setrgbcolor
44397 45258 130.315 cir1
0 0 0 setrgbcolor
46333 47387.7 130.315 cir1
0 0 0 setrgbcolor
41192.5 50794.1 130.315 cir1
0 0 0 setrgbcolor
42822.7 47214.9 130.315 cir1
0 0 0 setrgbcolor
22533 42183.5 130.315 cir1
0 0 0 setrgbcolor
22856.2 39424.6 130.315 cir1
0 0 0 setrgbcolor
23214 38929.5 130.315 cir1
0 0 0 setrgbcolor
300 setlinewidth
newpath
49032.9 47830.2 moveto
50032.9 46830.2 lineto
stroke
0 0 0 setrgbcolor
newpath
50032.9 46830.2 moveto
61769.1 46830.2 lineto
stroke
0 0 0 setrgbcolor
newpath
74406.9 49373.5 moveto
75548.6 49373.5 lineto
stroke
0 0 0 setrgbcolor
newpath
73225.8 48192.4 moveto
74406.9 49373.5 lineto
stroke
0 0 0 setrgbcolor
newpath
73225.8 52916.8 moveto
73781 52361.5 lineto
stroke
0 0 0 setrgbcolor
newpath
73781 52361.5 moveto
73781 49999.3 lineto
stroke
0 0 0 setrgbcolor
newpath
73781 49999.3 moveto
74406.9 49373.5 lineto
stroke
0 0 0 setrgbcolor
newpath
61769.1 46830.2 moveto
71863.6 46830.2 lineto
stroke
0 0 0 setrgbcolor
newpath
71863.6 46830.2 moveto
73225.8 48192.4 lineto
stroke
0 0 0 setrgbcolor
newpath
36572.2 56129.4 moveto
36572.2 55899.3 lineto
stroke
0 0 0 setrgbcolor
newpath
36572.2 55899.3 moveto
30819 50146.1 lineto
stroke
0 0 0 setrgbcolor
newpath
73225.8 43468 moveto
73755.3 43997.5 lineto
stroke
0 0 0 setrgbcolor
newpath
73755.3 43997.5 moveto
73755.3 47662.8 lineto
stroke
0 0 0 setrgbcolor
newpath
73755.3 47662.8 moveto
73225.8 48192.4 lineto
stroke
0 0 0 setrgbcolor
newpath
73225.8 38743.5 moveto
73777 38192.4 lineto
stroke
0 0 0 setrgbcolor
newpath
73777 38192.4 moveto
73777 34570.3 lineto
stroke
0 0 0 setrgbcolor
newpath
73777 34570.3 moveto
73225.8 34019.1 lineto
stroke
0 0 0 setrgbcolor
newpath
44152 52416.8 moveto
44152 52961.9 lineto
stroke
0 0 0 setrgbcolor
newpath
44152 52961.9 moveto
42158.8 54955 lineto
stroke
0 0 0 setrgbcolor
newpath
42158.8 54955 moveto
42158.8 57928.6 lineto
stroke
0 0 0 setrgbcolor
newpath
25013.4 36616.3 moveto
22150.3 36616.3 lineto
stroke
0 0 0 setrgbcolor
newpath
22150.3 36616.3 moveto
20922.8 35388.7 lineto
stroke
0 0 0 setrgbcolor
newpath
75003.2 41286.8 moveto
74878.7 41411.3 lineto
stroke
0 0 0 setrgbcolor
newpath
74878.7 41411.3 moveto
73757.1 41411.3 lineto
stroke
0 0 0 setrgbcolor
newpath
75548.6 41286.8 moveto
75003.2 41286.8 lineto
stroke
0 0 0 setrgbcolor
newpath
19399 48830.2 moveto
25399 48830.2 lineto
stroke
0 0 0 setrgbcolor
newpath
26738.8 42886.1 moveto
25682.9 41830.2 lineto
stroke
0 0 0 setrgbcolor
newpath
25682.9 41830.2 moveto
25399 41830.2 lineto
stroke
0 0 0 setrgbcolor
newpath
28034.1 51196.8 moveto
26843.3 52387.7 lineto
stroke
0 0 0 setrgbcolor
newpath
26843.3 52387.7 moveto
22421.3 52387.7 lineto
stroke
0 0 0 setrgbcolor
newpath
22421.3 52387.7 moveto
22421.3 52387.8 lineto
stroke
0 0 0 setrgbcolor
newpath
28034.1 51196.8 moveto
29104.5 51196.8 lineto
stroke
0 0 0 setrgbcolor
newpath
28034.1 49312.4 moveto
28034.1 51196.8 lineto
stroke
0 0 0 setrgbcolor
newpath
49032.9 48830.2 moveto
49032.9 49046.8 lineto
stroke
0 0 0 setrgbcolor
newpath
49032.9 49046.8 moveto
47426.8 50652.9 lineto
stroke
0 0 0 setrgbcolor
newpath
47426.8 50652.9 moveto
47426.8 52990.4 lineto
stroke
0 0 0 setrgbcolor
newpath
47426.8 52990.4 moveto
43837.5 56579.7 lineto
stroke
0 0 0 setrgbcolor
newpath
42158.8 32731.7 moveto
42158.8 34697.8 lineto
stroke
0 0 0 setrgbcolor
newpath
42158.8 34697.8 moveto
42264.8 34803.7 lineto
stroke
0 0 0 setrgbcolor
newpath
30750.8 42469.9 moveto
29934.5 43286.2 lineto
stroke
0 0 0 setrgbcolor
newpath
29934.5 43286.2 moveto
25855 43286.2 lineto
stroke
0 0 0 setrgbcolor
newpath
25855 43286.2 moveto
25399 42830.2 lineto
stroke
0 0 0 setrgbcolor
newpath
72940.1 51206.7 moveto
72676.5 51470.4 lineto
stroke
0 0 0 setrgbcolor
newpath
72676.5 51470.4 moveto
72676.5 53704 lineto
stroke
0 0 0 setrgbcolor
newpath
72676.5 53704 moveto
73777 54804.4 lineto
stroke
0 0 0 setrgbcolor
newpath
73777 54804.4 moveto
73777 57090 lineto
stroke
0 0 0 setrgbcolor
newpath
73777 57090 moveto
74328.1 57641.2 lineto
stroke
0 0 0 setrgbcolor
newpath
51147.1 43845.8 moveto
61753.4 43845.8 lineto
stroke
0 0 0 setrgbcolor
newpath
61753.4 43845.8 moveto
61769.1 43830.2 lineto
stroke
0 0 0 setrgbcolor
newpath
47284.8 44636 moveto
47284.8 47082.1 lineto
stroke
0 0 0 setrgbcolor
newpath
47284.8 47082.1 moveto
49032.9 48830.2 lineto
stroke
0 0 0 setrgbcolor
newpath
25399 42830.2 moveto
20974.7 42830.2 lineto
stroke
0 0 0 setrgbcolor
newpath
20974.7 42830.2 moveto
20738.2 42593.6 lineto
stroke
0 0 0 setrgbcolor
newpath
74328.1 48192.4 moveto
74647 47873.5 lineto
stroke
0 0 0 setrgbcolor
newpath
74647 47873.5 moveto
75548.6 47873.5 lineto
stroke
0 0 0 setrgbcolor
newpath
71891.1 40973.3 moveto
72098.4 40973.3 lineto
stroke
0 0 0 setrgbcolor
newpath
72098.4 40973.3 moveto
74328.1 38743.5 lineto
stroke
0 0 0 setrgbcolor
newpath
19399 41830.2 moveto
18829.8 42399.4 lineto
stroke
0 0 0 setrgbcolor
newpath
18829.8 42399.4 moveto
18829.8 47260.9 lineto
stroke
0 0 0 setrgbcolor
newpath
18829.8 47260.9 moveto
19399 47830.2 lineto
stroke
0 0 0 setrgbcolor
newpath
43536.2 42843.7 moveto
46420.9 42843.7 lineto
stroke
0 0 0 setrgbcolor
newpath
46420.9 42843.7 moveto
46658.8 42605.7 lineto
stroke
0 0 0 setrgbcolor
newpath
40101.7 47741.3 moveto
41841.6 49481.2 lineto
stroke
0 0 0 setrgbcolor
newpath
41841.6 49481.2 moveto
48032.7 49481.2 lineto
stroke
0 0 0 setrgbcolor
100 setlinewidth
newpath
45527.9 52416.8 moveto
45527.9 51971.7 lineto
stroke
0 0 0 setrgbcolor
newpath
45527.9 51971.7 moveto
45389.9 51833.7 lineto
stroke
0 0 0 setrgbcolor
newpath
45389.9 51833.7 moveto
45389.9 51235.7 lineto
stroke
0 0 0 setrgbcolor
newpath
40658.8 36605.7 moveto
42132.4 35132.2 lineto
stroke
0 0 0 setrgbcolor
newpath
42132.4 35132.2 moveto
46923.3 35132.2 lineto
stroke
0 0 0 setrgbcolor
newpath
46923.3 35132.2 moveto
48397.2 36606.1 lineto
stroke
0 0 0 setrgbcolor
newpath
48397.2 36606.1 moveto
48666.3 36606.1 lineto
stroke
0 0 0 setrgbcolor
newpath
75103.2 42786.8 moveto
74990 42900 lineto
stroke
0 0 0 setrgbcolor
newpath
74990 42900 moveto
71708.6 42900 lineto
stroke
0 0 0 setrgbcolor
newpath
71708.6 42900 moveto
71554.2 43054.5 lineto
stroke
0 0 0 setrgbcolor
newpath
71554.2 43054.5 moveto
55514.7 43054.5 lineto
stroke
0 0 0 setrgbcolor
newpath
55514.7 43054.5 moveto
53607.9 41147.6 lineto
stroke
0 0 0 setrgbcolor
newpath
53607.9 41147.6 moveto
53396.4 41147.6 lineto
stroke
0 0 0 setrgbcolor
newpath
53396.4 41147.6 moveto
53332.1 41083.4 lineto
stroke
0 0 0 setrgbcolor
newpath
53332.1 41083.4 moveto
42136.5 41083.4 lineto
stroke
0 0 0 setrgbcolor
newpath
42136.5 41083.4 moveto
40658.8 39605.7 lineto
stroke
0 0 0 setrgbcolor
newpath
75548.6 42786.8 moveto
75103.2 42786.8 lineto
stroke
0 0 0 setrgbcolor
newpath
46658.8 38605.7 moveto
48583.2 40530.1 lineto
stroke
0 0 0 setrgbcolor
newpath
48583.2 40530.1 moveto
48847.5 40530.1 lineto
stroke
0 0 0 setrgbcolor
newpath
46658.8 39605.7 moveto
47900.6 40847.5 lineto
stroke
0 0 0 setrgbcolor
newpath
47900.6 40847.5 moveto
53520.7 40847.5 lineto
stroke
0 0 0 setrgbcolor
newpath
47921.9 44967.4 moveto
48284.7 45330.2 lineto
stroke
0 0 0 setrgbcolor
newpath
48284.7 45330.2 moveto
63764.5 45330.2 lineto
stroke
0 0 0 setrgbcolor
newpath
63764.5 45330.2 moveto
64557.7 46123.3 lineto
stroke
0 0 0 setrgbcolor
newpath
64557.7 46123.3 moveto
72156.7 46123.3 lineto
stroke
0 0 0 setrgbcolor
newpath
72156.7 46123.3 moveto
73225.8 47192.4 lineto
stroke
0 0 0 setrgbcolor
newpath
46658.8 41605.7 moveto
46899.5 41365 lineto
stroke
0 0 0 setrgbcolor
newpath
46899.5 41365 moveto
50636 41365 lineto
stroke
0 0 0 setrgbcolor
newpath
50636 41365 moveto
52618.3 43347.3 lineto
stroke
0 0 0 setrgbcolor
newpath
52618.3 43347.3 moveto
71685.8 43347.3 lineto
stroke
0 0 0 setrgbcolor
newpath
44696.6 38092.7 moveto
51190.2 38092.7 lineto
stroke
0 0 0 setrgbcolor
newpath
51190.2 38092.7 moveto
55951.9 42854.3 lineto
stroke
0 0 0 setrgbcolor
newpath
55951.9 42854.3 moveto
68115 42854.3 lineto
stroke
0 0 0 setrgbcolor
newpath
68115 42854.3 moveto
73225.8 37743.5 lineto
stroke
0 0 0 setrgbcolor
newpath
47413.6 37105.7 moveto
49531.4 37105.7 lineto
stroke
0 0 0 setrgbcolor
newpath
49531.4 37105.7 moveto
50118.2 37692.6 lineto
stroke
0 0 0 setrgbcolor
newpath
42031.3 54117.6 moveto
39801.6 51887.9 lineto
stroke
0 0 0 setrgbcolor
newpath
39801.6 51887.9 moveto
39801.6 44610.3 lineto
stroke
0 0 0 setrgbcolor
newpath
39801.6 44610.3 moveto
39919.8 44492.1 lineto
stroke
0 0 0 setrgbcolor
newpath
39919.8 44492.1 moveto
40282.5 44129.4 lineto
stroke
0 0 0 setrgbcolor
newpath
40282.5 44129.4 moveto
47419.2 44129.4 lineto
stroke
0 0 0 setrgbcolor
newpath
47419.2 44129.4 moveto
47619.9 44330.2 lineto
stroke
0 0 0 setrgbcolor
newpath
47619.9 44330.2 moveto
61269.1 44330.2 lineto
stroke
0 0 0 setrgbcolor
newpath
61269.1 44330.2 moveto
61769.1 44830.2 lineto
stroke
0 0 0 setrgbcolor
newpath
61769.1 45830.2 moveto
52419.7 45830.2 lineto
stroke
0 0 0 setrgbcolor
newpath
50256.3 50182.9 moveto
48647.9 51791.3 lineto
stroke
0 0 0 setrgbcolor
newpath
48647.9 51791.3 moveto
48647.9 52333.5 lineto
stroke
0 0 0 setrgbcolor
newpath
48647.9 52333.5 moveto
43158.8 57822.6 lineto
stroke
0 0 0 setrgbcolor
newpath
43158.8 57822.6 moveto
43158.8 57928.6 lineto
stroke
0 0 0 setrgbcolor
newpath
47317.1 35032.7 moveto
47317.1 34587.2 lineto
stroke
0 0 0 setrgbcolor
newpath
47317.1 34587.2 moveto
46291.8 33561.8 lineto
stroke
0 0 0 setrgbcolor
newpath
46291.8 33561.8 moveto
44988.9 33561.8 lineto
stroke
0 0 0 setrgbcolor
newpath
44988.9 33561.8 moveto
44158.8 32731.7 lineto
stroke
0 0 0 setrgbcolor
newpath
46333 47387.7 moveto
44397 45451.7 lineto
stroke
0 0 0 setrgbcolor
newpath
44397 45451.7 moveto
44397 45258 lineto
stroke
0 0 0 setrgbcolor
newpath
44289.9 51235.7 moveto
43824.8 51235.7 lineto
stroke
0 0 0 setrgbcolor
newpath
41192.5 50794.1 moveto
43383.3 50794.1 lineto
stroke
0 0 0 setrgbcolor
newpath
43383.3 50794.1 moveto
43824.8 51235.7 lineto
stroke
0 0 0 setrgbcolor
newpath
40658.8 43605.7 moveto
29597.7 43605.7 lineto
stroke
0 0 0 setrgbcolor
newpath
29597.7 43605.7 moveto
28873.3 44330.2 lineto
stroke
0 0 0 setrgbcolor
newpath
28873.3 44330.2 moveto
19899 44330.2 lineto
stroke
0 0 0 setrgbcolor
newpath
19899 44330.2 moveto
19399 44830.2 lineto
stroke
0 0 0 setrgbcolor
newpath
46658.8 43605.7 moveto
40658.8 43605.7 lineto
stroke
0 0 0 setrgbcolor
newpath
42822.7 47214.9 moveto
42822.7 46769.6 lineto
stroke
0 0 0 setrgbcolor
newpath
42822.7 46769.6 moveto
40658.8 44605.7 lineto
stroke
0 0 0 setrgbcolor
newpath
40658.8 41605.7 moveto
41124.4 42071.3 lineto
stroke
0 0 0 setrgbcolor
newpath
41124.4 42071.3 moveto
48791.7 42071.3 lineto
stroke
0 0 0 setrgbcolor
newpath
48791.7 42071.3 moveto
49032.9 41830.2 lineto
stroke
0 0 0 setrgbcolor
newpath
40658.8 40605.7 moveto
24110.8 40605.7 lineto
stroke
0 0 0 setrgbcolor
newpath
24110.8 40605.7 moveto
22533 42183.5 lineto
stroke
0 0 0 setrgbcolor
newpath
40658.8 38605.7 moveto
23962.2 38605.7 lineto
stroke
0 0 0 setrgbcolor
newpath
23962.2 38605.7 moveto
23143.4 39424.5 lineto
stroke
0 0 0 setrgbcolor
newpath
23143.4 39424.5 moveto
22856.2 39424.5 lineto
stroke
0 0 0 setrgbcolor
newpath
22856.2 39424.5 moveto
22856.2 39424.6 lineto
stroke
0 0 0 setrgbcolor
newpath
40658.8 37605.7 moveto
24537.7 37605.7 lineto
stroke
0 0 0 setrgbcolor
newpath
24537.7 37605.7 moveto
23214 38929.5 lineto
stroke
0 0 0 setrgbcolor
newpath
19399 43830.2 moveto
19399 43487.9 lineto
stroke
0 0 0 setrgbcolor
newpath
19399 43487.9 moveto
23781.2 39105.7 lineto
stroke
0 0 0 setrgbcolor
newpath
23781.2 39105.7 moveto
43158.8 39105.7 lineto
stroke
0 0 0 setrgbcolor
newpath
43158.8 39105.7 moveto
46658.8 35605.7 lineto
stroke
0 0 0 setrgbcolor
300 setlinewidth
newpath
29879.3 34530.9 moveto
30655.7 35307.4 lineto
stroke
0 0 0 setrgbcolor
newpath
30655.7 35307.4 moveto
35795.8 35307.4 lineto
stroke
0 0 0 setrgbcolor
newpath
35795.8 35307.4 moveto
36572.2 34530.9 lineto
stroke
0 0 0 setrgbcolor
newpath
29879.3 56129.4 moveto
28135.2 54385.3 lineto
stroke
0 0 0 setrgbcolor
newpath
28135.2 54385.3 moveto
20036.8 54385.3 lineto
stroke
0 0 0 setrgbcolor
100 setlinewidth
newpath
25475.3 43824.6 moveto
25404.6 43753.9 lineto
25399 43759.4 lineto
25073 43433.4 lineto
25102.1 43336.5 lineto
25125.1 43328.3 lineto
25079.4 43309.4 lineto
25000 43230.2 lineto
20974.7 43230.2 lineto
20821.7 43199.7 lineto
20691.9 43113 lineto
20455.7 42876.8 lineto
20445 42866.1 lineto
19839.5 43471.6 lineto
19877.7 43509.7 lineto
19963.9 43717.3 lineto
19964.1 43942 lineto
19927.6 44030.2 lineto
24870.5 44030.2 lineto
24829.3 43915.5 lineto
24840 43691 lineto
24905.4 43533.3 lineto
25002.2 43504.1 lineto
25328.3 43830.2 lineto
25322.7 43835.7 lineto
25393.4 43906.4 lineto
25399 43900.9 lineto
25404.6 43906.4 lineto
25475.3 43835.7 lineto
25469.7 43830.2 lineto
25475.3 43824.6 lineto
poly1
newpath
46222 43243.7 moveto
43536.6 43243.7 lineto
43457 43243.7 lineto
43309.9 43183 lineto
43197.3 43070.5 lineto
43136.3 42923.6 lineto
43136.1 42764.4 lineto
43166.7 42690.6 lineto
43196.9 42617.4 lineto
43309.3 42504.8 lineto
43383.1 42474.1 lineto
43456.3 42443.7 lineto
43536.2 42443.7 lineto
43615.4 42443.6 lineto
43615.6 42443.7 lineto
46114.5 42443.7 lineto
46144.4 42371.3 lineto
41174.9 42371.3 lineto
41228.5 42520.4 lineto
41217.8 42744.9 lineto
41152.5 42902.6 lineto
41055.6 42931.8 lineto
40729.6 42605.7 lineto
40735.1 42600.2 lineto
40664.4 42529.5 lineto
40658.8 42535 lineto
40588.1 42464.3 lineto
40588.1 42605.7 lineto
40262.1 42931.8 lineto
40165.2 42902.6 lineto
40089.2 42691.1 lineto
40099.9 42466.6 lineto
40165.2 42308.9 lineto
40262.1 42279.7 lineto
40588.1 42605.7 lineto
40588.1 42464.3 lineto
40332.8 42209 lineto
40362 42112.1 lineto
40384.9 42103.9 lineto
40339.2 42085 lineto
40180.2 41926.2 lineto
40094 41718.6 lineto
40093.8 41493.9 lineto
40179.6 41286.1 lineto
40338.4 41127.1 lineto
40389.6 41105.8 lineto
40339.2 41085 lineto
40180.2 40926.2 lineto
40171.7 40905.7 lineto
24235 40905.7 lineto
22933 42207.7 lineto
22933.1 42262.7 lineto
22872.3 42409.8 lineto
22852 42430.2 lineto
25000 42430.2 lineto
25078.6 42351.5 lineto
25129.8 42330.2 lineto
25079.4 42309.4 lineto
24920.3 42150.6 lineto
24834.1 41943 lineto
24833.9 41718.3 lineto
24919.8 41510.6 lineto
25078.6 41351.5 lineto
25286.1 41265.3 lineto
25510.9 41265.1 lineto
25718.6 41350.9 lineto
25826.6 41458.7 lineto
25836 41460.6 lineto
25836 41460.6 lineto
25965.8 41547.3 lineto
27021.5 42603.1 lineto
27021.7 42603.2 lineto
27077.7 42659.2 lineto
27108.4 42733 lineto
27138.8 42806.1 lineto
27138.8 42886.2 lineto
29768.9 42886.2 lineto
30467.9 42187.2 lineto
30468 42187 lineto
30524 42131 lineto
30670.9 42070 lineto
30830.1 42069.8 lineto
30903.9 42100.3 lineto
30977.1 42130.6 lineto
31033.7 42187 lineto
31089.8 42243 lineto
31120.4 42316.8 lineto
31150.8 42390 lineto
31150.9 42549.1 lineto
31120.4 42623 lineto
31090.1 42696.2 lineto
31033.7 42752.7 lineto
30977.7 42808.8 lineto
30977.6 42808.9 lineto
30480.7 43305.7 lineto
40171.5 43305.7 lineto
40179.6 43286.1 lineto
40338.4 43127.1 lineto
40383.6 43108.3 lineto
40362 43099.4 lineto
40332.8 43002.5 lineto
40658.8 42676.5 lineto
40984.9 43002.5 lineto
40955.7 43099.4 lineto
40932.8 43107.6 lineto
40978.4 43126.5 lineto
41137.5 43285.3 lineto
41146 43305.7 lineto
46171.5 43305.7 lineto
46179.6 43286.1 lineto
46222 43243.7 lineto
poly1
newpath
47632.8 49881.2 moveto
46077.8 49881.2 lineto
46077.8 52121.8 lineto
46077.8 52711.8 lineto
46059.3 52807.1 lineto
46004.3 52890.9 lineto
45921.2 52947 lineto
45822.9 52966.7 lineto
45232.9 52966.7 lineto
45137.6 52948.2 lineto
45053.8 52893.1 lineto
44997.8 52810.1 lineto
44978 52711.8 lineto
44978 52121.8 lineto
44996.5 52026.4 lineto
45051.6 51942.7 lineto
45104.5 51906.9 lineto
45104.5 51906.9 lineto
45092.3 51845.6 lineto
45074.9 51845.6 lineto
44979.6 51827.1 lineto
44895.8 51772 lineto
44839.8 51689 lineto
44839.7 51688.5 lineto
44786.3 51769.8 lineto
44703.2 51825.9 lineto
44696.9 51827.1 lineto
44696.9 52072 lineto
44696.9 52171.5 lineto
44696.9 52304.3 lineto
44696.9 52529.3 lineto
44696.9 52662 lineto
44696.9 52761.5 lineto
44658.9 52853.4 lineto
44588.6 52923.7 lineto
44496.7 52961.8 lineto
44264.4 52961.8 lineto
44201.9 52899.3 lineto
44201.9 52466.8 lineto
44634.4 52466.8 lineto
44696.9 52529.3 lineto
44696.9 52304.3 lineto
44634.4 52366.8 lineto
44201.9 52366.8 lineto
44201.9 51934.3 lineto
44264.4 51871.8 lineto
44496.7 51871.8 lineto
44588.6 51909.8 lineto
44658.9 51980.2 lineto
44696.9 52072 lineto
44696.9 51827.1 lineto
44604.9 51845.6 lineto
44101.9 51845.6 lineto
44101.9 51934.3 lineto
44101.9 52366.8 lineto
44101.9 52466.8 lineto
44101.9 52899.3 lineto
44039.4 52961.8 lineto
43807.2 52961.8 lineto
43715.3 52923.7 lineto
43645 52853.4 lineto
43606.9 52761.5 lineto
43606.9 52662 lineto
43606.9 52529.3 lineto
43669.4 52466.8 lineto
44101.9 52466.8 lineto
44101.9 52366.8 lineto
43669.4 52366.8 lineto
43606.9 52304.3 lineto
43606.9 52171.5 lineto
43606.9 52072 lineto
43645 51980.2 lineto
43715.3 51909.8 lineto
43807.2 51871.8 lineto
44039.4 51871.8 lineto
44101.9 51934.3 lineto
44101.9 51845.6 lineto
43974.9 51845.6 lineto
43879.6 51827.1 lineto
43795.8 51772 lineto
43739.8 51689 lineto
43720 51590.7 lineto
43720 51514.8 lineto
43710 51512.8 lineto
43612.7 51447.8 lineto
43259 51094.1 lineto
42484.9 51094.1 lineto
42484.9 57531.8 lineto
42158.8 57857.9 lineto
42088.1 57787.2 lineto
42088.1 57928.6 lineto
41762.1 58254.6 lineto
41665.2 58225.4 lineto
41589.2 58013.9 lineto
41599.9 57789.4 lineto
41665.2 57631.7 lineto
41762.1 57602.5 lineto
42088.1 57928.6 lineto
42088.1 57787.2 lineto
41832.8 57531.8 lineto
41862 57434.9 lineto
42073.5 57358.9 lineto
42298 57369.6 lineto
42455.7 57434.9 lineto
42484.9 57531.8 lineto
42484.9 51094.1 lineto
41458.3 51094.1 lineto
41419.4 51133 lineto
41272.5 51194.1 lineto
41113.3 51194.2 lineto
40966.3 51133.4 lineto
40853.6 51021 lineto
40792.6 50874 lineto
40792.5 50714.9 lineto
40853.2 50567.8 lineto
40965.7 50455.2 lineto
41112.6 50394.2 lineto
41271.8 50394.1 lineto
41418.8 50454.8 lineto
41458.2 50494.1 lineto
43383.3 50494.1 lineto
43383.3 50494.1 lineto
43498.1 50517 lineto
43498.1 50517 lineto
43595.4 50582 lineto
43762.4 50749 lineto
43793.6 50701.6 lineto
43876.7 50645.5 lineto
43974.9 50625.8 lineto
44604.9 50625.8 lineto
44700.3 50644.3 lineto
44784 50699.3 lineto
44840.1 50782.4 lineto
44840.2 50782.8 lineto
44893.6 50701.6 lineto
44976.7 50645.5 lineto
45074.9 50625.8 lineto
45704.9 50625.8 lineto
45800.3 50644.3 lineto
45884 50699.3 lineto
45940.1 50782.4 lineto
45959.8 50880.7 lineto
45959.8 51590.7 lineto
45941.3 51686 lineto
45886.3 51769.8 lineto
45803.2 51825.9 lineto
45786.6 51829.2 lineto
45805.1 51856.8 lineto
45805.1 51856.8 lineto
45807.1 51866.9 lineto
45822.9 51866.9 lineto
45918.3 51885.4 lineto
46002 51940.4 lineto
46058.1 52023.5 lineto
46077.8 52121.8 lineto
46077.8 49881.2 lineto
41841.6 49881.2 lineto
41713.9 49855.8 lineto
41688.5 49850.7 lineto
41558.8 49764 lineto
40101.6 48306.9 lineto
40101.6 51763.6 lineto
42055.6 53717.6 lineto
42110.5 53717.5 lineto
42257.6 53778.3 lineto
42370.2 53890.7 lineto
42431.3 54037.7 lineto
42431.4 54196.8 lineto
42370.6 54343.9 lineto
42258.2 54456.5 lineto
42111.2 54517.5 lineto
41952.1 54517.7 lineto
41805 54456.9 lineto
41692.4 54344.5 lineto
41631.4 54197.5 lineto
41631.3 54141.9 lineto
39589.5 52100 lineto
39524.4 52002.7 lineto
39501.6 51887.9 lineto
39501.6 44610.3 lineto
39519.8 44518.8 lineto
39519.7 44412.9 lineto
39580.5 44265.8 lineto
39692.9 44153.2 lineto
39839.9 44092.2 lineto
39895.5 44092.1 lineto
40070.3 43917.3 lineto
40087.6 43905.7 lineto
37298.5 43905.7 lineto
37298.5 56006.4 lineto
37290.3 56293.7 lineto
37196.2 56520.9 lineto
37082.9 56569.4 lineto
37012.2 56498.6 lineto
37012.2 56640.1 lineto
36963.7 56753.3 lineto
36695.2 56855.6 lineto
36407.9 56847.4 lineto
36180.7 56753.3 lineto
36132.2 56640.1 lineto
36572.2 56200.1 lineto
37012.2 56640.1 lineto
37012.2 56498.6 lineto
36642.9 56129.4 lineto
37082.9 55689.4 lineto
37196.2 55737.9 lineto
37298.5 56006.4 lineto
37298.5 43905.7 lineto
37012.2 43905.7 lineto
37012.2 55618.7 lineto
36572.2 56058.7 lineto
36501.5 55987.9 lineto
36501.5 56129.4 lineto
36061.5 56569.4 lineto
35948.3 56520.9 lineto
35846 56252.3 lineto
35854.2 55965 lineto
35948.3 55737.9 lineto
36061.5 55689.4 lineto
36501.5 56129.4 lineto
36501.5 55987.9 lineto
36132.2 55618.7 lineto
36180.7 55505.4 lineto
36449.3 55403.1 lineto
36736.6 55411.3 lineto
36963.7 55505.4 lineto
37012.2 55618.7 lineto
37012.2 43905.7 lineto
34279.5 43905.7 lineto
34279.5 63383.5 lineto
34150.3 63696.1 lineto
33911.4 63935.4 lineto
33599.1 64065 lineto
33261 64065.3 lineto
32948.5 63936.2 lineto
32709.1 63697.3 lineto
32579.5 63385 lineto
32579.2 63046.9 lineto
32708.3 62734.3 lineto
32947.2 62495 lineto
33259.5 62365.3 lineto
33597.6 62365 lineto
33910.2 62494.2 lineto
34149.5 62733.1 lineto
34279.2 63045.4 lineto
34279.5 63383.5 lineto
34279.5 43905.7 lineto
33428.7 43905.7 lineto
33428.7 56279.5 lineto
33313.5 56558.1 lineto
33100.5 56771.5 lineto
32822.1 56887.1 lineto
32520.6 56887.4 lineto
32241.9 56772.2 lineto
32028.5 56559.2 lineto
31912.9 56280.8 lineto
31912.6 55979.3 lineto
32027.8 55700.6 lineto
32240.8 55487.2 lineto
32519.2 55371.6 lineto
32820.7 55371.4 lineto
33099.4 55486.5 lineto
33312.8 55699.5 lineto
33428.4 55978 lineto
33428.7 56279.5 lineto
33428.7 43905.7 lineto
30601.9 43905.7 lineto
30601.9 56272.4 lineto
30492.1 56538.1 lineto
30289.1 56741.5 lineto
30023.6 56851.7 lineto
29736.2 56851.9 lineto
29470.6 56742.2 lineto
29267.2 56539.1 lineto
29161.4 56284.2 lineto
29161.4 63383.5 lineto
29032.2 63696.1 lineto
28793.3 63935.4 lineto
28481 64065 lineto
28142.9 64065.3 lineto
27830.3 63936.2 lineto
27591 63697.3 lineto
27461.4 63385 lineto
27461.1 63046.9 lineto
27590.2 62734.3 lineto
27829.1 62495 lineto
28141.4 62365.3 lineto
28479.5 62365 lineto
28792.1 62494.2 lineto
29031.4 62733.1 lineto
29161.1 63045.4 lineto
29161.4 63383.5 lineto
29161.4 56284.2 lineto
29157 56273.7 lineto
29156.7 55986.3 lineto
29160.8 55976.5 lineto
27969.5 54785.3 lineto
27179.5 54785.3 lineto
27179.5 63383.5 lineto
27050.3 63696.1 lineto
26811.4 63935.4 lineto
26499.1 64065 lineto
26161 64065.3 lineto
25848.5 63936.2 lineto
25609.1 63697.3 lineto
25479.5 63385 lineto
25479.2 63046.9 lineto
25608.3 62734.3 lineto
25847.2 62495 lineto
26159.5 62365.3 lineto
26497.6 62365 lineto
26810.2 62494.2 lineto
27049.5 62733.1 lineto
27179.2 63045.4 lineto
27179.5 63383.5 lineto
27179.5 54785.3 lineto
25422.4 54785.3 lineto
25422.4 57101.9 lineto
25422.4 57967.9 lineto
25403.9 58063.2 lineto
25348.9 58147 lineto
25265.8 58203.1 lineto
25167.5 58222.8 lineto
24567.5 58222.8 lineto
24472.2 58204.3 lineto
24388.4 58149.2 lineto
24332.3 58066.2 lineto
24315.4 57981.9 lineto
24256.4 58070.2 lineto
24078 58189.4 lineto
23867.5 58231.3 lineto
23657 58189.4 lineto
23478.6 58070.2 lineto
23359.4 57891.7 lineto
23317.5 57681.3 lineto
23317.5 57388.5 lineto
23359.4 57178 lineto
23478.6 56999.6 lineto
23657 56880.4 lineto
23867.5 56838.5 lineto
24078 56880.4 lineto
24256.4 56999.6 lineto
24315.3 57087.8 lineto
24331.1 57006.6 lineto
24386.1 56922.8 lineto
24469.2 56866.7 lineto
24567.5 56847 lineto
25167.5 56847 lineto
25262.8 56865.5 lineto
25346.6 56920.5 lineto
25402.7 57003.6 lineto
25422.4 57101.9 lineto
25422.4 54785.3 lineto
22061.4 54785.3 lineto
22061.4 63383.5 lineto
21932.2 63696.1 lineto
21693.3 63935.4 lineto
21381 64065 lineto
21042.9 64065.3 lineto
20730.3 63936.2 lineto
20491 63697.3 lineto
20361.4 63385 lineto
20361.1 63046.9 lineto
20490.2 62734.3 lineto
20729.1 62495 lineto
21041.4 62365.3 lineto
21379.5 62365 lineto
21692.1 62494.2 lineto
21931.4 62733.1 lineto
22061.1 63045.4 lineto
22061.4 63383.5 lineto
22061.4 54785.3 lineto
20934 54785.3 lineto
20934 56668.7 lineto
20886.5 56907.5 lineto
20751.2 57110 lineto
20548.7 57245.3 lineto
20309.9 57292.8 lineto
19763.6 57292.8 lineto
19524.8 57245.3 lineto
19322.4 57110 lineto
19187.1 56907.5 lineto
19139.6 56668.7 lineto
19187.1 56429.9 lineto
19322.4 56227.5 lineto
19524.8 56092.2 lineto
19763.6 56044.7 lineto
20309.9 56044.7 lineto
20548.7 56092.2 lineto
20751.2 56227.5 lineto
20886.5 56429.9 lineto
20934 56668.7 lineto
20934 54785.3 lineto
20653 54785.3 lineto
20653 55527 lineto
20616 55713.1 lineto
20510.6 55870.8 lineto
20352.8 55976.2 lineto
20166.7 56013.2 lineto
19906.8 56013.2 lineto
19720.8 55976.2 lineto
19563 55870.8 lineto
19457.6 55713.1 lineto
19420.6 55527 lineto
19457.6 55340.9 lineto
19563 55183.2 lineto
19720.8 55077.8 lineto
19906.8 55040.8 lineto
20166.7 55040.8 lineto
20352.8 55077.8 lineto
20510.6 55183.2 lineto
20616 55340.9 lineto
20653 55527 lineto
20653 54785.3 lineto
20426.5 54785.3 lineto
20352.8 54834.5 lineto
20166.7 54871.5 lineto
19906.8 54871.5 lineto
19720.8 54834.5 lineto
19563 54729.1 lineto
19457.6 54571.3 lineto
19420.6 54385.3 lineto
19457.6 54199.2 lineto
19563 54041.5 lineto
19720.8 53936.1 lineto
19906.8 53899.1 lineto
20166.7 53899.1 lineto
20352.8 53936.1 lineto
20426.5 53985.3 lineto
28135.2 53985.3 lineto
28135.2 53985.3 lineto
28262.9 54010.7 lineto
28288.3 54015.7 lineto
28288.3 54015.7 lineto
28418.1 54102.4 lineto
29726.3 55410.7 lineto
29735 55407.1 lineto
30022.4 55406.8 lineto
30288 55516.6 lineto
30491.4 55719.6 lineto
30601.6 55985 lineto
30601.9 56272.4 lineto
30601.9 43905.7 lineto
29721.9 43905.7 lineto
29504.5 44123.1 lineto
29504.5 51276.1 lineto
29474 51349.9 lineto
29443.8 51423.1 lineto
29331.3 51535.8 lineto
29184.4 51596.8 lineto
29025.3 51596.9 lineto
29025.1 51596.8 lineto
28199.8 51596.8 lineto
27126.1 52670.6 lineto
26996.3 52757.3 lineto
26970.9 52762.3 lineto
26843.3 52787.7 lineto
22466.8 52787.7 lineto
22342.1 52787.8 lineto
22195 52727.1 lineto
22082.4 52614.6 lineto
22021.4 52467.7 lineto
22021.2 52308.5 lineto
22051.7 52234.7 lineto
22051.7 52234.6 lineto
22051.8 52234.6 lineto
22082 52161.5 lineto
22138.4 52105 lineto
22138.4 52104.9 lineto
22138.6 52104.8 lineto
22194.4 52048.8 lineto
22268.1 52018.3 lineto
22268.2 52018.2 lineto
22268.4 52018.1 lineto
22341.4 51987.8 lineto
22421.1 51987.8 lineto
22421.3 51987.7 lineto
22466.1 51987.7 lineto
22500.5 51987.7 lineto
22500.6 51987.7 lineto
26677.6 51987.7 lineto
27634.1 51031.2 lineto
27634.1 49312.8 lineto
27634 49233.2 lineto
27664.6 49159.4 lineto
27694.8 49086.2 lineto
27807.2 48973.5 lineto
27881 48942.9 lineto
27954.2 48912.5 lineto
28034.1 48912.4 lineto
28113.3 48912.4 lineto
28187.2 48942.9 lineto
28260.4 48973.1 lineto
28317 49029.6 lineto
28373 49085.6 lineto
28403.7 49159.4 lineto
28434 49232.5 lineto
28434.1 49312.4 lineto
28434.2 49391.7 lineto
28434.1 49391.8 lineto
28434.1 50796.8 lineto
29104.1 50796.8 lineto
29104.5 50796.8 lineto
29183.7 50796.8 lineto
29257.5 50827.3 lineto
29330.8 50857.5 lineto
29387.3 50914 lineto
29443.4 50970 lineto
29474 51043.8 lineto
29504.4 51116.9 lineto
29504.5 51196.8 lineto
29504.5 51276.1 lineto
29504.5 44123.1 lineto
29085.4 44542.3 lineto
28988.1 44607.3 lineto
28873.3 44630.2 lineto
25968.7 44630.2 lineto
25968.7 48744.8 lineto
25958 48969.3 lineto
25892.6 49127 lineto
25795.7 49156.2 lineto
25725 49085.5 lineto
25725 49226.9 lineto
25695.9 49323.8 lineto
25484.3 49399.8 lineto
25259.8 49389.1 lineto
25102.1 49323.8 lineto
25073 49226.9 lineto
25399 48900.9 lineto
25725 49226.9 lineto
25725 49085.5 lineto
25469.7 48830.2 lineto
25795.7 48504.1 lineto
25892.6 48533.3 lineto
25968.7 48744.8 lineto
25968.7 44630.2 lineto
25927.7 44630.2 lineto
25963.9 44717.3 lineto
25964.1 44942 lineto
25878.2 45149.8 lineto
25719.4 45308.8 lineto
25668.2 45330.1 lineto
25718.6 45350.9 lineto
25877.7 45509.7 lineto
25963.9 45717.3 lineto
25964.1 45942 lineto
25878.2 46149.8 lineto
25719.4 46308.8 lineto
25668.2 46330.1 lineto
25718.6 46350.9 lineto
25877.7 46509.7 lineto
25963.9 46717.3 lineto
25964.1 46942 lineto
25878.2 47149.8 lineto
25719.4 47308.8 lineto
25668.2 47330.1 lineto
25718.6 47350.9 lineto
25877.7 47509.7 lineto
25963.9 47717.3 lineto
25964.1 47942 lineto
25878.2 48149.8 lineto
25719.4 48308.8 lineto
25674.3 48327.6 lineto
25695.9 48336.5 lineto
25725 48433.4 lineto
25399 48759.4 lineto
25328.3 48688.7 lineto
25328.3 48830.2 lineto
25002.2 49156.2 lineto
24905.4 49127 lineto
24829.3 48915.5 lineto
24840 48691 lineto
24905.4 48533.3 lineto
25002.2 48504.1 lineto
25328.3 48830.2 lineto
25328.3 48688.7 lineto
25073 48433.4 lineto
25102.1 48336.5 lineto
25125.1 48328.3 lineto
25079.4 48309.4 lineto
24920.3 48150.6 lineto
24834.1 47943 lineto
24833.9 47718.3 lineto
24919.8 47510.6 lineto
25078.6 47351.5 lineto
25129.8 47330.2 lineto
25079.4 47309.4 lineto
24920.3 47150.6 lineto
24834.1 46943 lineto
24833.9 46718.3 lineto
24919.8 46510.6 lineto
25078.6 46351.5 lineto
25129.8 46330.2 lineto
25079.4 46309.4 lineto
24920.3 46150.6 lineto
24834.1 45943 lineto
24833.9 45718.3 lineto
24919.8 45510.6 lineto
25078.6 45351.5 lineto
25129.8 45330.2 lineto
25079.4 45309.4 lineto
24920.3 45150.6 lineto
24834.1 44943 lineto
24833.9 44718.3 lineto
24870.3 44630.2 lineto
20934 44630.2 lineto
20934 52101.8 lineto
20886.5 52340.6 lineto
20751.2 52543.1 lineto
20653 52608.7 lineto
20653 53243.5 lineto
20616 53429.6 lineto
20510.6 53587.4 lineto
20352.8 53692.8 lineto
20166.7 53729.8 lineto
19906.8 53729.8 lineto
19720.8 53692.8 lineto
19563 53587.4 lineto
19457.6 53429.6 lineto
19420.6 53243.5 lineto
19457.6 53057.5 lineto
19563 52899.7 lineto
19720.8 52794.3 lineto
19906.8 52757.3 lineto
20166.7 52757.3 lineto
20352.8 52794.3 lineto
20510.6 52899.7 lineto
20616 53057.5 lineto
20653 53243.5 lineto
20653 52608.7 lineto
20548.7 52678.3 lineto
20309.9 52725.8 lineto
19763.6 52725.8 lineto
19524.8 52678.3 lineto
19322.4 52543.1 lineto
19187.1 52340.6 lineto
19139.6 52101.8 lineto
19187.1 51863 lineto
19322.4 51660.6 lineto
19524.8 51525.3 lineto
19763.6 51477.8 lineto
20309.9 51477.8 lineto
20548.7 51525.3 lineto
20751.2 51660.6 lineto
20886.5 51863 lineto
20934 52101.8 lineto
20934 44630.2 lineto
20023.3 44630.2 lineto
19968.7 44684.8 lineto
19968.7 48744.8 lineto
19958 48969.3 lineto
19892.6 49127 lineto
19795.7 49156.2 lineto
19725 49085.5 lineto
19725 49226.9 lineto
19695.9 49323.8 lineto
19484.3 49399.8 lineto
19259.8 49389.1 lineto
19102.1 49323.8 lineto
19073 49226.9 lineto
19399 48900.9 lineto
19725 49226.9 lineto
19725 49085.5 lineto
19469.7 48830.2 lineto
19795.7 48504.1 lineto
19892.6 48533.3 lineto
19968.7 48744.8 lineto
19968.7 44684.8 lineto
19955.7 44697.7 lineto
19963.9 44717.3 lineto
19964.1 44942 lineto
19878.2 45149.8 lineto
19719.4 45308.8 lineto
19668.2 45330.1 lineto
19718.6 45350.9 lineto
19877.7 45509.7 lineto
19963.9 45717.3 lineto
19964.1 45942 lineto
19878.2 46149.8 lineto
19719.4 46308.8 lineto
19668.2 46330.1 lineto
19718.6 46350.9 lineto
19877.7 46509.7 lineto
19963.9 46717.3 lineto
19964.1 46942 lineto
19878.2 47149.8 lineto
19719.4 47308.8 lineto
19668.2 47330.1 lineto
19718.6 47350.9 lineto
19877.7 47509.7 lineto
19963.9 47717.3 lineto
19964.1 47942 lineto
19878.2 48149.8 lineto
19719.4 48308.8 lineto
19674.3 48327.6 lineto
19695.9 48336.5 lineto
19725 48433.4 lineto
19399 48759.4 lineto
19328.3 48688.7 lineto
19328.3 48830.2 lineto
19002.2 49156.2 lineto
18905.4 49127 lineto
18829.3 48915.5 lineto
18840 48691 lineto
18905.4 48533.3 lineto
19002.2 48504.1 lineto
19328.3 48830.2 lineto
19328.3 48688.7 lineto
19073 48433.4 lineto
19102.1 48336.5 lineto
19125.1 48328.3 lineto
19079.4 48309.4 lineto
18920.3 48150.6 lineto
18834.1 47943 lineto
18834 47830.9 lineto
18546.9 47543.8 lineto
18460.2 47414 lineto
18455.2 47388.6 lineto
18429.8 47260.9 lineto
18429.8 42399.4 lineto
18455.2 42271.7 lineto
18460.2 42246.3 lineto
18546.9 42116.5 lineto
18834 41829.4 lineto
18833.9 41718.3 lineto
18919.8 41510.6 lineto
19078.6 41351.5 lineto
19286.1 41265.3 lineto
19510.9 41265.1 lineto
19718.6 41350.9 lineto
19877.7 41509.7 lineto
19963.9 41717.3 lineto
19964.1 41942 lineto
19878.2 42149.8 lineto
19719.4 42308.8 lineto
19668.2 42330.1 lineto
19718.6 42350.9 lineto
19877.7 42509.7 lineto
19899.8 42562.9 lineto
22678.6 39784 lineto
22629.9 39763.9 lineto
22517.3 39651.4 lineto
22456.3 39504.5 lineto
22456.1 39345.4 lineto
22516.9 39198.3 lineto
22629.3 39085.7 lineto
22776.3 39024.6 lineto
22820.3 39024.6 lineto
22814 39009.4 lineto
22813.9 38850.3 lineto
22874.7 38703.2 lineto
22987.1 38590.6 lineto
23134 38529.6 lineto
23189.7 38529.5 lineto
24325.6 37393.6 lineto
24383.9 37354.6 lineto
24422.9 37328.6 lineto
24422.9 37328.6 lineto
24537.7 37305.7 lineto
40171.5 37305.7 lineto
40179.6 37286.1 lineto
40338.4 37127.1 lineto
40389.6 37105.8 lineto
40339.2 37085 lineto
40180.2 36926.2 lineto
40094 36718.6 lineto
40093.8 36493.9 lineto
40179.6 36286.1 lineto
40338.4 36127.1 lineto
40389.6 36105.8 lineto
40339.2 36085 lineto
40180.2 35926.2 lineto
40094 35718.6 lineto
40093.8 35493.9 lineto
40179.6 35286.1 lineto
40338.4 35127.1 lineto
40389.6 35105.8 lineto
40339.2 35085 lineto
40180.2 34926.2 lineto
40094 34718.6 lineto
40093.8 34493.9 lineto
40179.6 34286.1 lineto
40338.4 34127.1 lineto
40546 34040.9 lineto
40770.7 34040.7 lineto
40978.4 34126.5 lineto
41137.5 34285.3 lineto
41223.7 34492.9 lineto
41223.9 34717.6 lineto
41138.1 34925.4 lineto
40979.3 35084.4 lineto
40928 35105.7 lineto
40978.4 35126.5 lineto
41137.5 35285.3 lineto
41223.7 35492.9 lineto
41223.8 35616.5 lineto
41869.5 34970.8 lineto
41789.3 34850.8 lineto
41784.2 34825.4 lineto
41758.8 34697.8 lineto
41758.8 33130.7 lineto
41680.2 33052.2 lineto
41594 32844.6 lineto
41593.8 32619.8 lineto
41679.6 32412.1 lineto
41838.4 32253.1 lineto
41932.4 32214 lineto
37294.8 32214 lineto
37294.8 34674 lineto
37185 34939.6 lineto
36982 35143 lineto
36716.6 35253.3 lineto
36429.2 35253.5 lineto
36419.4 35249.5 lineto
36078.7 35590.2 lineto
35948.9 35676.9 lineto
35923.5 35682 lineto
35795.8 35707.4 lineto
30655.7 35707.4 lineto
30502.7 35676.9 lineto
30372.9 35590.2 lineto
30032.3 35249.7 lineto
30023.6 35253.3 lineto
29736.2 35253.5 lineto
29470.6 35143.8 lineto
29267.2 34940.7 lineto
29157 34675.3 lineto
29156.7 34387.9 lineto
29266.5 34122.2 lineto
29469.5 33918.8 lineto
29735 33808.6 lineto
30022.4 33808.4 lineto
30288 33918.1 lineto
30491.4 34121.2 lineto
30601.6 34386.6 lineto
30601.9 34674 lineto
30597.8 34683.8 lineto
30821.4 34907.4 lineto
33116.6 34907.4 lineto
33023.1 34682.4 lineto
33022.9 34380.9 lineto
33138 34102.2 lineto
33351 33888.8 lineto
33629.5 33773.2 lineto
33931 33772.9 lineto
34209.6 33888.1 lineto
34423 34101.1 lineto
34538.6 34379.5 lineto
34538.9 34681 lineto
34445.4 34907.4 lineto
35630.1 34907.4 lineto
35853.5 34684 lineto
35849.9 34675.3 lineto
35849.7 34387.9 lineto
35959.4 34122.2 lineto
36162.5 33918.8 lineto
36427.9 33808.6 lineto
36715.3 33808.4 lineto
36980.9 33918.1 lineto
37184.3 34121.2 lineto
37294.5 34386.6 lineto
37294.8 34674 lineto
37294.8 32214 lineto
36965.9 32214 lineto
36862.7 32193.5 lineto
36775.2 32135 lineto
35594.1 30953.9 lineto
35535.7 30866.4 lineto
35515.1 30763.2 lineto
35515.1 26937.9 lineto
34492 25914.8 lineto
34279.5 25914.8 lineto
34279.5 27613.5 lineto
34150.3 27926 lineto
33911.4 28165.3 lineto
33599.1 28295 lineto
33261 28295.3 lineto
32948.5 28166.1 lineto
32709.1 27927.2 lineto
32579.5 27614.9 lineto
32579.2 27276.8 lineto
32708.3 26964.3 lineto
32947.2 26724.9 lineto
33259.5 26595.3 lineto
33597.6 26595 lineto
33910.2 26724.1 lineto
34149.5 26963 lineto
34279.2 27275.3 lineto
34279.5 27613.5 lineto
34279.5 25914.8 lineto
29161.4 25914.8 lineto
29161.4 27613.5 lineto
29032.2 27926 lineto
28793.3 28165.3 lineto
28481 28295 lineto
28142.9 28295.3 lineto
27830.3 28166.1 lineto
27591 27927.2 lineto
27461.4 27614.9 lineto
27461.1 27276.8 lineto
27590.2 26964.3 lineto
27829.1 26724.9 lineto
28141.4 26595.3 lineto
28479.5 26595 lineto
28792.1 26724.1 lineto
29031.4 26963 lineto
29161.1 27275.3 lineto
29161.4 27613.5 lineto
29161.4 25914.8 lineto
27179.5 25914.8 lineto
27179.5 27613.5 lineto
27050.3 27926 lineto
26811.4 28165.3 lineto
26499.1 28295 lineto
26161 28295.3 lineto
25848.5 28166.1 lineto
25609.1 27927.2 lineto
25479.5 27614.9 lineto
25479.2 27276.8 lineto
25608.3 26964.3 lineto
25847.2 26724.9 lineto
26159.5 26595.3 lineto
26497.6 26595 lineto
26810.2 26724.1 lineto
27049.5 26963 lineto
27179.2 27275.3 lineto
27179.5 27613.5 lineto
27179.5 25914.8 lineto
25417.5 25914.8 lineto
25417.5 32979.1 lineto
25417.5 33271.8 lineto
25375.6 33482.3 lineto
25256.4 33660.7 lineto
25078 33779.9 lineto
24867.5 33821.8 lineto
24657 33779.9 lineto
24478.6 33660.7 lineto
24419.7 33572.5 lineto
24403.9 33653.8 lineto
24348.9 33737.5 lineto
24265.8 33793.6 lineto
24167.5 33813.3 lineto
23567.5 33813.3 lineto
23472.2 33794.8 lineto
23388.4 33739.8 lineto
23332.3 33656.7 lineto
23312.6 33558.4 lineto
23312.6 32692.4 lineto
23331.1 32597.1 lineto
23386.1 32513.3 lineto
23469.2 32457.2 lineto
23567.5 32437.5 lineto
24167.5 32437.5 lineto
24262.8 32456 lineto
24346.6 32511.1 lineto
24402.7 32594.1 lineto
24419.6 32678.4 lineto
24478.6 32590.1 lineto
24657 32470.9 lineto
24867.5 32429.1 lineto
25078 32470.9 lineto
25256.4 32590.1 lineto
25375.6 32768.6 lineto
25417.5 32979.1 lineto
25417.5 25914.8 lineto
22061.4 25914.8 lineto
22061.4 27613.5 lineto
21932.2 27926 lineto
21693.3 28165.3 lineto
21570.6 28216.3 lineto
21570.6 35284.6 lineto
21566.4 35397.6 lineto
21566.4 38076.2 lineto
21468.6 38312.8 lineto
21287.8 38494 lineto
21051.4 38592.1 lineto
20795.4 38592.4 lineto
20558.8 38494.6 lineto
20377.6 38313.7 lineto
20279.4 38077.3 lineto
20279.2 37821.3 lineto
20376.9 37584.7 lineto
20557.8 37403.5 lineto
20794.2 37305.4 lineto
21050.2 37305.1 lineto
21286.8 37402.9 lineto
21468 37583.8 lineto
21566.2 37820.2 lineto
21566.4 38076.2 lineto
21566.4 35397.6 lineto
21561.1 35540.5 lineto
21481.4 35732.8 lineto
21376.4 35771.6 lineto
21305.7 35700.9 lineto
21305.7 35842.3 lineto
21266.9 35947.4 lineto
21026.9 36036.5 lineto
20771.1 36027.1 lineto
20578.7 35947.4 lineto
20539.9 35842.3 lineto
20922.8 35459.5 lineto
21305.7 35842.3 lineto
21305.7 35700.9 lineto
20993.5 35388.7 lineto
21376.4 35005.8 lineto
21481.4 35044.7 lineto
21570.6 35284.6 lineto
21570.6 28216.3 lineto
21381 28295 lineto
21305.7 28295 lineto
21305.7 34935.1 lineto
20922.8 35318 lineto
20852.1 35247.3 lineto
20852.1 35388.7 lineto
20469.2 35771.6 lineto
20364.1 35732.8 lineto
20275 35492.8 lineto
20284.5 35237 lineto
20364.1 35044.7 lineto
20469.2 35005.8 lineto
20852.1 35388.7 lineto
20852.1 35247.3 lineto
20539.9 34935.1 lineto
20578.7 34830.1 lineto
20818.7 34740.9 lineto
21074.5 34750.4 lineto
21266.9 34830.1 lineto
21305.7 34935.1 lineto
21305.7 28295 lineto
21042.9 28295.3 lineto
20730.3 28166.1 lineto
20491 27927.2 lineto
20361.4 27614.9 lineto
20361.1 27276.8 lineto
20490.2 26964.3 lineto
20729.1 26724.9 lineto
21041.4 26595.3 lineto
21379.5 26595 lineto
21692.1 26724.1 lineto
21931.4 26963 lineto
22061.1 27275.3 lineto
22061.4 27613.5 lineto
22061.4 25914.8 lineto
20542.2 25914.8 lineto
19794.4 26662.6 lineto
19794.4 35516.2 lineto
19794.4 38076.2 lineto
19696.6 38312.8 lineto
19515.8 38494 lineto
19279.4 38592.1 lineto
19023.4 38592.4 lineto
18786.8 38494.6 lineto
18605.6 38313.7 lineto
18507.4 38077.3 lineto
18507.2 37821.3 lineto
18604.9 37584.7 lineto
18785.8 37403.5 lineto
19022.2 37305.4 lineto
19278.2 37305.1 lineto
19514.8 37402.9 lineto
19696 37583.8 lineto
19794.2 37820.2 lineto
19794.4 38076.2 lineto
19794.4 35516.2 lineto
19696.6 35752.8 lineto
19515.8 35934 lineto
19279.4 36032.1 lineto
19023.4 36032.4 lineto
18786.8 35934.6 lineto
18605.6 35753.7 lineto
18507.4 35517.3 lineto
18507.2 35261.3 lineto
18604.9 35024.7 lineto
18785.8 34843.5 lineto
19022.2 34745.4 lineto
19278.2 34745.1 lineto
19514.8 34842.9 lineto
19696 35023.8 lineto
19794.2 35260.2 lineto
19794.4 35516.2 lineto
19794.4 26662.6 lineto
19519.1 26937.9 lineto
19519.1 32338 lineto
19498.5 32441.2 lineto
19440.1 32528.7 lineto
18338 33630.8 lineto
18338 57029.5 lineto
19440.1 58131.6 lineto
19498.5 58219.1 lineto
19519.1 58322.3 lineto
19519.1 63722.4 lineto
20542.2 64745.5 lineto
34492 64745.5 lineto
35515.1 63722.4 lineto
35515.1 59897.1 lineto
35535.7 59793.9 lineto
35594.1 59706.4 lineto
36775.2 58525.3 lineto
36862.7 58466.8 lineto
36965.9 58446.3 lineto
41920.1 58446.3 lineto
41862 58422.2 lineto
41832.8 58325.3 lineto
42158.8 57999.3 lineto
42484.9 58325.3 lineto
42455.7 58422.2 lineto
42388.7 58446.3 lineto
42932.4 58446.3 lineto
42839.2 58407.8 lineto
42680.2 58249 lineto
42661.4 58203.9 lineto
42652.5 58225.4 lineto
42555.6 58254.6 lineto
42229.6 57928.6 lineto
42555.6 57602.5 lineto
42652.5 57631.7 lineto
42660.7 57654.7 lineto
42679.6 57609 lineto
42838.4 57449.9 lineto
43046 57363.7 lineto
43193.5 57363.6 lineto
43630.3 56926.9 lineto
43611.2 56919 lineto
43498.6 56806.6 lineto
43437.6 56659.6 lineto
43437.4 56500.5 lineto
43467.9 56426.6 lineto
43468 56426.6 lineto
43468 56426.6 lineto
43498.2 56353.4 lineto
43610.6 56240.8 lineto
43610.8 56240.7 lineto
47026.8 52824.7 lineto
47026.8 50652.9 lineto
47052.2 50525.2 lineto
47057.2 50499.8 lineto
47143.9 50370.1 lineto
47632.8 49881.2 lineto
poly1
newpath
48498.2 49015.8 moveto
48468 48943 lineto
48467.9 48830.9 lineto
47002 47365 lineto
46915.3 47235.2 lineto
46910.2 47209.8 lineto
46884.8 47082.1 lineto
46884.8 46123.6 lineto
46771.7 46170.6 lineto
46733.1 46170.6 lineto
46733.1 47466.9 lineto
46672.3 47614 lineto
46559.9 47726.6 lineto
46412.9 47787.6 lineto
46253.8 47787.8 lineto
46106.7 47727 lineto
45994.1 47614.6 lineto
45933.1 47467.6 lineto
45933 47412 lineto
44184.9 45663.8 lineto
44119.8 45566.5 lineto
44114.9 45541.5 lineto
44058.1 45484.8 lineto
43997.1 45337.9 lineto
43996.9 45178.7 lineto
44057.7 45031.7 lineto
44170.1 44919 lineto
44317.1 44858 lineto
44476.2 44857.9 lineto
44623.3 44918.7 lineto
44735.9 45031.1 lineto
44796.9 45178 lineto
44797.1 45337.2 lineto
44770.6 45401.1 lineto
46357.3 46987.7 lineto
46412.2 46987.6 lineto
46559.3 47048.4 lineto
46671.9 47160.8 lineto
46732.9 47307.8 lineto
46733.1 47466.9 lineto
46733.1 46170.6 lineto
46547 46170.8 lineto
46339.2 46085 lineto
46180.2 45926.2 lineto
46094 45718.6 lineto
46093.8 45493.9 lineto
46179.6 45286.1 lineto
46338.4 45127.1 lineto
46383.6 45108.3 lineto
46362 45099.4 lineto
46332.8 45002.5 lineto
46658.8 44676.5 lineto
46664.4 44682 lineto
46735.1 44611.3 lineto
46729.6 44605.7 lineto
46735.1 44600.2 lineto
46664.4 44529.5 lineto
46658.8 44535 lineto
46653.3 44529.5 lineto
46582.6 44600.2 lineto
46588.1 44605.7 lineto
46262.1 44931.8 lineto
46165.2 44902.6 lineto
46089.2 44691.1 lineto
46099.9 44466.6 lineto
46115.3 44429.4 lineto
41197.4 44429.4 lineto
41223.7 44492.9 lineto
41223.9 44717.6 lineto
41215.4 44738.1 lineto
43034.8 46557.5 lineto
43034.8 46557.5 lineto
43099.9 46654.8 lineto
43099.9 46654.8 lineto
43122.7 46769.6 lineto
43122.7 46949.2 lineto
43161.6 46988 lineto
43222.6 47135 lineto
43222.8 47294.1 lineto
43162 47441.2 lineto
43049.6 47553.8 lineto
42902.6 47614.8 lineto
42743.5 47615 lineto
42596.4 47554.2 lineto
42483.8 47441.8 lineto
42422.8 47294.8 lineto
42422.6 47135.7 lineto
42483.4 46988.6 lineto
42522.7 46949.2 lineto
42522.7 46893.9 lineto
41223.8 45595 lineto
41223.9 45717.6 lineto
41138.1 45925.4 lineto
40979.3 46084.4 lineto
40771.7 46170.6 lineto
40547 46170.8 lineto
40339.2 46085 lineto
40180.2 45926.2 lineto
40101.6 45737 lineto
40101.6 47341.3 lineto
40180.9 47341.2 lineto
40254.8 47371.7 lineto
40254.8 47371.7 lineto
40254.8 47371.7 lineto
40328 47402 lineto
40384.6 47458.5 lineto
40440.6 47514.4 lineto
40440.7 47514.6 lineto
42007.3 49081.2 lineto
48032.3 49081.2 lineto
48032.7 49081.2 lineto
48111.9 49081.1 lineto
48185.7 49111.6 lineto
48258.9 49141.9 lineto
48315.5 49198.3 lineto
48315.6 49198.4 lineto
48498.2 49015.8 lineto
poly1
newpath
51094.3 37792.7 moveto
45728.5 32426.9 lineto
45728.5 32646.4 lineto
45717.8 32870.9 lineto
45652.5 33028.6 lineto
45555.6 33057.8 lineto
45229.6 32731.7 lineto
45555.6 32405.7 lineto
45652.5 32434.9 lineto
45728.5 32646.4 lineto
45728.5 32426.9 lineto
45515.6 32214 lineto
45397.6 32214 lineto
45455.7 32238.1 lineto
45484.9 32335 lineto
45158.8 32661 lineto
44832.8 32335 lineto
44862 32238.1 lineto
44929 32214 lineto
44385.3 32214 lineto
44478.4 32252.5 lineto
44637.5 32411.3 lineto
44656.3 32456.4 lineto
44665.2 32434.9 lineto
44762.1 32405.7 lineto
45088.1 32731.7 lineto
45082.6 32737.3 lineto
45153.3 32808 lineto
45158.8 32802.4 lineto
45484.9 33128.5 lineto
45455.7 33225.4 lineto
45354.3 33261.8 lineto
46291.8 33261.8 lineto
46291.8 33261.8 lineto
46406.6 33284.6 lineto
46406.6 33284.6 lineto
46503.9 33349.7 lineto
47529.3 34375 lineto
47529.3 34375 lineto
47568.3 34433.4 lineto
47594.3 34472.4 lineto
47594.3 34472.4 lineto
47617.1 34587.2 lineto
47617.1 34767 lineto
47656.1 34805.8 lineto
47717.1 34952.8 lineto
47717.2 35111.9 lineto
47656.4 35259 lineto
47565.5 35350.1 lineto
48469.9 36254.6 lineto
48586.4 36206.2 lineto
48745.5 36206.1 lineto
48892.6 36266.8 lineto
49005.2 36379.3 lineto
49066.3 36526.2 lineto
49066.4 36685.4 lineto
49016.6 36805.7 lineto
49531.4 36805.7 lineto
49531.4 36805.7 lineto
49646.2 36828.6 lineto
49646.2 36828.6 lineto
49743.5 36893.6 lineto
50142.5 37292.5 lineto
50197.4 37292.5 lineto
50344.5 37353.3 lineto
50457.1 37465.7 lineto
50518.1 37612.6 lineto
50518.3 37771.8 lineto
50509.6 37792.7 lineto
51094.3 37792.7 lineto
poly1
newpath
76853.7 56859.2 moveto
76145.3 56150.8 lineto
76086.9 56063.3 lineto
76066.3 55960.1 lineto
76066.3 50050.8 lineto
75973.7 50189.4 lineto
75828.7 50286.3 lineto
75657.7 50320.3 lineto
75439.5 50320.3 lineto
75268.5 50286.3 lineto
75123.5 50189.4 lineto
75026.7 50044.5 lineto
74992.6 49873.5 lineto
75026.7 49702.5 lineto
75081.3 49620.7 lineto
75024.4 49525.5 lineto
75019.4 49492.3 lineto
75069.1 49423.5 lineto
75498.6 49423.5 lineto
75498.6 49426.6 lineto
75598.6 49426.6 lineto
75598.6 49423.5 lineto
75606.5 49423.5 lineto
75606.5 49323.5 lineto
75598.6 49323.5 lineto
75598.6 48986.4 lineto
75669.5 48921.9 lineto
75840.6 48964.9 lineto
75982.3 49070.1 lineto
76066.3 49210.5 lineto
76066.3 48550.8 lineto
75973.7 48689.4 lineto
75828.7 48786.3 lineto
75657.7 48820.3 lineto
75498.6 48820.3 lineto
75498.6 48986.4 lineto
75498.6 49323.5 lineto
75069.1 49323.5 lineto
75019.4 49254.6 lineto
75024.4 49221.4 lineto
75115 49070.1 lineto
75256.6 48964.9 lineto
75427.7 48921.9 lineto
75498.6 48986.4 lineto
75498.6 48820.3 lineto
75439.5 48820.3 lineto
75268.5 48786.3 lineto
75123.5 48689.4 lineto
75026.7 48544.5 lineto
74992.6 48373.5 lineto
75012.5 48273.5 lineto
74853.8 48273.5 lineto
74853.8 48296.4 lineto
74853.8 52020.9 lineto
74774 52214.1 lineto
74626.2 52362.1 lineto
74494.5 52416.8 lineto
74625.5 52470.9 lineto
74773.4 52618.7 lineto
74853.6 52811.8 lineto
74853.8 53020.9 lineto
74853.8 56745.3 lineto
74774 56938.5 lineto
74626.2 57086.5 lineto
74494.5 57141.2 lineto
74625.5 57195.3 lineto
74773.4 57343.1 lineto
74853.6 57536.2 lineto
74853.8 57745.3 lineto
74774 57938.5 lineto
74626.2 58086.5 lineto
74433.1 58166.7 lineto
74224 58166.9 lineto
74030.8 58087 lineto
73882.8 57939.3 lineto
73802.6 57746.2 lineto
73802.6 57681.3 lineto
73752.7 57631.4 lineto
73744.9 57774 lineto
73686.8 57914.3 lineto
73594 57938.7 lineto
73523.3 57868 lineto
73523.3 58009.4 lineto
73498.9 58102.2 lineto
73301.7 58171.7 lineto
73092.9 58160.3 lineto
72952.6 58102.2 lineto
72928.3 58009.4 lineto
73225.8 57711.9 lineto
73523.3 58009.4 lineto
73523.3 57868 lineto
73296.5 57641.2 lineto
73302 57635.6 lineto
73231.3 57564.9 lineto
73225.8 57570.5 lineto
73155.1 57499.8 lineto
73155.1 57641.2 lineto
72857.6 57938.7 lineto
72764.7 57914.3 lineto
72695.3 57717.1 lineto
72706.6 57508.3 lineto
72764.7 57368 lineto
72857.6 57343.7 lineto
73155.1 57641.2 lineto
73155.1 57499.8 lineto
72928.3 57273 lineto
72952.6 57180.1 lineto
73061.2 57141.9 lineto
72928.4 57087 lineto
72780.5 56939.3 lineto
72700.3 56746.2 lineto
72700.1 56537.1 lineto
72779.9 56343.8 lineto
72927.7 56195.9 lineto
73120.8 56115.7 lineto
73329.9 56115.5 lineto
73377 56135 lineto
73377 54970.1 lineto
72393.7 53986.8 lineto
72307 53857 lineto
72301.9 53831.7 lineto
72276.5 53704 lineto
72276.5 51470.4 lineto
72301.9 51342.7 lineto
72307 51317.3 lineto
72393.7 51187.5 lineto
72657.2 50924 lineto
72657.3 50923.9 lineto
72713.3 50867.8 lineto
72860.2 50806.8 lineto
73019.4 50806.7 lineto
73093.2 50837.2 lineto
73166.4 50867.4 lineto
73223 50923.9 lineto
73279 50979.9 lineto
73309.7 51053.7 lineto
73340.1 51126.8 lineto
73340.2 51285.9 lineto
73309.7 51359.8 lineto
73296.8 51391.1 lineto
73329.9 51391.1 lineto
73523.1 51470.9 lineto
73671.1 51618.7 lineto
73751.3 51811.8 lineto
73751.5 52020.9 lineto
73671.6 52214.1 lineto
73523.9 52362.1 lineto
73398.5 52414.1 lineto
73498.9 52455.7 lineto
73523.3 52548.6 lineto
73225.8 52846.1 lineto
73220.2 52840.5 lineto
73149.5 52911.2 lineto
73155.1 52916.8 lineto
73149.5 52922.3 lineto
73220.2 52993 lineto
73225.8 52987.5 lineto
73523.3 53285 lineto
73498.9 53377.8 lineto
73301.7 53447.3 lineto
73092.9 53435.9 lineto
73076.5 53429.1 lineto
73076.5 53538.3 lineto
74059.8 54521.6 lineto
74059.8 54521.6 lineto
74117.7 54608.3 lineto
74146.5 54651.3 lineto
74146.5 54651.3 lineto
74177 54804.4 lineto
74177 54804.4 lineto
74177 56134.9 lineto
74223.1 56115.7 lineto
74432.2 56115.5 lineto
74625.5 56195.3 lineto
74773.4 56343.1 lineto
74853.6 56536.2 lineto
74853.8 56745.3 lineto
74853.8 53020.9 lineto
74774 53214.1 lineto
74626.2 53362.1 lineto
74433.1 53442.3 lineto
74224 53442.5 lineto
74030.8 53362.6 lineto
73882.8 53214.9 lineto
73802.6 53021.8 lineto
73802.5 52812.7 lineto
73882.3 52619.4 lineto
74030 52471.5 lineto
74161.8 52416.7 lineto
74030.8 52362.6 lineto
73882.8 52214.9 lineto
73802.6 52021.8 lineto
73802.5 51812.7 lineto
73882.3 51619.4 lineto
74030 51471.5 lineto
74223.1 51391.3 lineto
74432.2 51391.1 lineto
74625.5 51470.9 lineto
74773.4 51618.7 lineto
74853.6 51811.8 lineto
74853.8 52020.9 lineto
74853.8 48296.4 lineto
74774 48489.7 lineto
74626.2 48637.7 lineto
74433.1 48717.9 lineto
74224 48718 lineto
74030.8 48638.2 lineto
73882.8 48490.5 lineto
73802.6 48297.4 lineto
73802.5 48088.3 lineto
73882.3 47895 lineto
74030 47747 lineto
74161.8 47692.3 lineto
74030.8 47638.2 lineto
73882.8 47490.5 lineto
73802.6 47297.4 lineto
73802.5 47088.3 lineto
73882.3 46895 lineto
74030 46747 lineto
74223.1 46666.9 lineto
74432.2 46666.7 lineto
74625.5 46746.5 lineto
74773.4 46894.2 lineto
74853.6 47087.4 lineto
74853.8 47296.4 lineto
74780.7 47473.5 lineto
75249.3 47473.5 lineto
75268.5 47460.6 lineto
75439.5 47426.6 lineto
75657.7 47426.6 lineto
75828.7 47460.6 lineto
75973.7 47557.5 lineto
76066.3 47696.1 lineto
76066.3 42964.2 lineto
75973.7 43102.8 lineto
75828.7 43199.7 lineto
75657.7 43233.7 lineto
75439.5 43233.7 lineto
75268.5 43199.7 lineto
75169.8 43133.8 lineto
75169.8 43133.8 lineto
75104.8 43177.2 lineto
74990 43200 lineto
74786 43200 lineto
74853.6 43362.9 lineto
74853.8 43572 lineto
74774 43765.3 lineto
74626.2 43913.3 lineto
74433.1 43993.5 lineto
74224 43993.6 lineto
74030.8 43913.8 lineto
73882.8 43766.1 lineto
73802.6 43573 lineto
73802.5 43363.9 lineto
73870.1 43200 lineto
73688.7 43200 lineto
73756.2 43392 lineto
73756.2 48116.4 lineto
73756.2 52840.8 lineto
73744.9 53049.6 lineto
73686.8 53189.9 lineto
73594 53214.3 lineto
73296.5 52916.8 lineto
73594 52619.3 lineto
73686.8 52643.6 lineto
73756.2 52840.8 lineto
73756.2 48116.4 lineto
73744.9 48325.2 lineto
73686.8 48465.5 lineto
73594 48489.9 lineto
73523.3 48419.2 lineto
73523.3 48560.6 lineto
73498.9 48653.4 lineto
73301.7 48722.8 lineto
73092.9 48711.5 lineto
72952.6 48653.4 lineto
72928.3 48560.6 lineto
73225.8 48263.1 lineto
73523.3 48560.6 lineto
73523.3 48419.2 lineto
73296.5 48192.4 lineto
73594 47894.9 lineto
73686.8 47919.2 lineto
73756.2 48116.4 lineto
73756.2 43392 lineto
73744.9 43600.8 lineto
73686.8 43741.1 lineto
73594 43765.5 lineto
73523.3 43694.7 lineto
73523.3 43836.2 lineto
73498.9 43929 lineto
73301.7 43998.4 lineto
73092.9 43987.1 lineto
72952.6 43929 lineto
72928.3 43836.2 lineto
73225.8 43538.7 lineto
73523.3 43836.2 lineto
73523.3 43694.7 lineto
73296.5 43468 lineto
73302 43462.4 lineto
73231.3 43391.7 lineto
73225.8 43397.2 lineto
73220.2 43391.7 lineto
73149.5 43462.4 lineto
73155.1 43468 lineto
72857.6 43765.5 lineto
72764.7 43741.1 lineto
72695.3 43543.9 lineto
72706.6 43335.1 lineto
72762.6 43200 lineto
72057.7 43200 lineto
72085.7 43267.4 lineto
72085.8 43426.5 lineto
72025.1 43573.6 lineto
71912.6 43686.2 lineto
71765.7 43747.2 lineto
71606.6 43747.4 lineto
71459.5 43686.6 lineto
71420.1 43647.3 lineto
62304.9 43647.3 lineto
62333.9 43717.3 lineto
62334.1 43942 lineto
62248.3 44149.8 lineto
62089.5 44308.8 lineto
62038.3 44330.1 lineto
62088.7 44350.9 lineto
62247.7 44509.7 lineto
62333.9 44717.3 lineto
62334.1 44942 lineto
62297.7 45030.2 lineto
63764.5 45030.2 lineto
63764.5 45030.2 lineto
63879.4 45053 lineto
63879.4 45053 lineto
63976.7 45118 lineto
64681.9 45823.3 lineto
64958.1 45823.3 lineto
64826.3 45506 lineto
64826 45155.9 lineto
64959.7 44832.4 lineto
65207 44584.6 lineto
65530.3 44450.4 lineto
65880.3 44450.1 lineto
66203.9 44583.8 lineto
66451.6 44831.1 lineto
66585.9 45154.4 lineto
66586.2 45504.4 lineto
66454.4 45823.3 lineto
70258.1 45823.3 lineto
70126.3 45506 lineto
70126 45155.9 lineto
70259.7 44832.4 lineto
70507 44584.6 lineto
70830.3 44450.4 lineto
71180.3 44450.1 lineto
71503.9 44583.8 lineto
71751.6 44831.1 lineto
71885.9 45154.4 lineto
71886.2 45504.4 lineto
71754.4 45823.3 lineto
72156.7 45823.3 lineto
72156.7 45823.3 lineto
72271.5 45846.1 lineto
72271.5 45846.1 lineto
72368.8 45911.1 lineto
73124.5 46666.9 lineto
73329.9 46666.7 lineto
73523.1 46746.5 lineto
73671.1 46894.2 lineto
73751.3 47087.4 lineto
73751.5 47296.4 lineto
73671.6 47489.7 lineto
73523.9 47637.7 lineto
73398.5 47689.7 lineto
73498.9 47731.3 lineto
73523.3 47824.1 lineto
73225.8 48121.7 lineto
73155.1 48050.9 lineto
73155.1 48192.4 lineto
72857.6 48489.9 lineto
72764.7 48465.5 lineto
72695.3 48268.3 lineto
72706.6 48059.5 lineto
72764.7 47919.2 lineto
72857.6 47894.9 lineto
73155.1 48192.4 lineto
73155.1 48050.9 lineto
72928.3 47824.1 lineto
72952.6 47731.3 lineto
73061.2 47693.1 lineto
72928.4 47638.2 lineto
72780.5 47490.5 lineto
72700.3 47297.4 lineto
72700.1 47090.9 lineto
72032.4 46423.3 lineto
64557.7 46423.3 lineto
64442.9 46400.4 lineto
64345.5 46335.4 lineto
63640.3 45630.2 lineto
62338.7 45630.2 lineto
62338.7 46744.8 lineto
62328 46969.3 lineto
62262.7 47127 lineto
62165.8 47156.2 lineto
62095.1 47085.5 lineto
62095.1 47226.9 lineto
62065.9 47323.8 lineto
61854.4 47399.8 lineto
61629.9 47389.1 lineto
61472.2 47323.8 lineto
61443 47226.9 lineto
61769.1 46900.9 lineto
62095.1 47226.9 lineto
62095.1 47085.5 lineto
61839.8 46830.2 lineto
62165.8 46504.1 lineto
62262.7 46533.3 lineto
62338.7 46744.8 lineto
62338.7 45630.2 lineto
62297.8 45630.2 lineto
62333.9 45717.3 lineto
62334.1 45942 lineto
62248.3 46149.8 lineto
62089.5 46308.8 lineto
62044.4 46327.6 lineto
62065.9 46336.5 lineto
62095.1 46433.4 lineto
61769.1 46759.4 lineto
61698.4 46688.7 lineto
61698.4 46830.2 lineto
61372.3 47156.2 lineto
61275.4 47127 lineto
61199.4 46915.5 lineto
61210.1 46691 lineto
61275.4 46533.3 lineto
61372.3 46504.1 lineto
61698.4 46830.2 lineto
61698.4 46688.7 lineto
61443 46433.4 lineto
61472.2 46336.5 lineto
61495.2 46328.3 lineto
61449.5 46309.4 lineto
61290.4 46150.6 lineto
61281.9 46130.2 lineto
54491.7 46130.2 lineto
54491.7 48520 lineto
54346 48872.5 lineto
54076.6 49142.4 lineto
53724.4 49288.7 lineto
53343 49289 lineto
52990.5 49143.3 lineto
52720.6 48873.9 lineto
52574.4 48521.7 lineto
52574 48140.3 lineto
52719.7 47787.8 lineto
52989.1 47517.9 lineto
53341.3 47371.7 lineto
53722.7 47371.3 lineto
54075.2 47517 lineto
54345.1 47786.4 lineto
54491.4 48138.6 lineto
54491.7 48520 lineto
54491.7 46130.2 lineto
52685.4 46130.2 lineto
52646.5 46169.1 lineto
52499.6 46230.1 lineto
52340.5 46230.2 lineto
52193.4 46169.5 lineto
52080.8 46057 lineto
52019.7 45910.1 lineto
52019.6 45750.9 lineto
52069.5 45630.2 lineto
49602.5 45630.2 lineto
49602.5 47744.8 lineto
49591.8 47969.3 lineto
49526.5 48127 lineto
49429.6 48156.2 lineto
49103.6 47830.2 lineto
49429.6 47504.1 lineto
49526.5 47533.3 lineto
49602.5 47744.8 lineto
49602.5 45630.2 lineto
49561.5 45630.2 lineto
49597.7 45717.3 lineto
49597.9 45942 lineto
49512.1 46149.8 lineto
49353.3 46308.8 lineto
49302.1 46330.1 lineto
49352.5 46350.9 lineto
49511.5 46509.7 lineto
49597.7 46717.3 lineto
49597.9 46942 lineto
49512.1 47149.8 lineto
49353.3 47308.8 lineto
49308.1 47327.6 lineto
49329.7 47336.5 lineto
49358.9 47433.4 lineto
49032.9 47759.4 lineto
48706.8 47433.4 lineto
48736 47336.5 lineto
48758.9 47328.3 lineto
48713.3 47309.4 lineto
48554.2 47150.6 lineto
48468 46943 lineto
48467.8 46718.3 lineto
48553.6 46510.6 lineto
48712.4 46351.5 lineto
48763.7 46330.2 lineto
48713.3 46309.4 lineto
48554.2 46150.6 lineto
48468 45943 lineto
48467.8 45718.3 lineto
48504.2 45630.2 lineto
48284.7 45630.2 lineto
48169.9 45607.3 lineto
48130.9 45581.3 lineto
48072.5 45542.3 lineto
47897.6 45367.4 lineto
47842.7 45367.4 lineto
47695.6 45306.7 lineto
47684.8 45295.9 lineto
47684.8 46916.4 lineto
48473.2 47704.8 lineto
48473.9 47691 lineto
48539.2 47533.3 lineto
48636.1 47504.1 lineto
48962.1 47830.2 lineto
48956.6 47835.7 lineto
49027.3 47906.4 lineto
49032.9 47900.9 lineto
49358.9 48226.9 lineto
49329.7 48323.8 lineto
49306.8 48332 lineto
49352.5 48350.9 lineto
49511.5 48509.7 lineto
49597.7 48717.3 lineto
49597.9 48942 lineto
49512.1 49149.8 lineto
49353.3 49308.8 lineto
49320.5 49322.4 lineto
49320.5 49322.4 lineto
49315.7 49329.7 lineto
49315.7 49329.7 lineto
47826.8 50818.6 lineto
47826.8 52730.4 lineto
48347.9 52209.2 lineto
48347.9 51791.3 lineto
48370.8 51676.5 lineto
48435.8 51579.1 lineto
49856.3 50158.7 lineto
49856.2 50103.7 lineto
49917 49956.6 lineto
50029.4 49844 lineto
50176.4 49783 lineto
50335.5 49782.8 lineto
50482.6 49843.6 lineto
50595.2 49956 lineto
50656.2 50103 lineto
50656.3 50180.8 lineto
51178.5 50180.8 lineto
51273.8 50199.3 lineto
51357.6 50254.3 lineto
51413.6 50337.4 lineto
51433.4 50435.7 lineto
51433.4 51035.7 lineto
51414.9 51131 lineto
51359.8 51214.8 lineto
51276.7 51270.9 lineto
51192.4 51287.8 lineto
51280.7 51346.8 lineto
51400 51525.2 lineto
51441.8 51735.7 lineto
51400 51946.1 lineto
51280.7 52124.6 lineto
51102.3 52243.8 lineto
50891.8 52285.7 lineto
50599.1 52285.7 lineto
50388.6 52243.8 lineto
50210.2 52124.6 lineto
50090.9 51946.1 lineto
50049.1 51735.7 lineto
50090.9 51525.2 lineto
50210.2 51346.8 lineto
50298.4 51287.8 lineto
50217.1 51272.1 lineto
50133.3 51217 lineto
50077.3 51134 lineto
50057.6 51035.7 lineto
50057.6 50805.9 lineto
48947.9 51915.5 lineto
48947.9 52175.1 lineto
48973.8 52149.2 lineto
50393.3 53568.7 lineto
56066.6 47895.4 lineto
56154.1 47836.9 lineto
56257.3 47816.4 lineto
67674.6 47816.4 lineto
67777.8 47836.9 lineto
67865.3 47895.4 lineto
71014.9 51045 lineto
71073.4 51132.5 lineto
71093.9 51235.7 lineto
71093.9 51235.7 lineto
71093.9 57816.9 lineto
72904.4 59627.4 lineto
75043.2 59627.4 lineto
76853.7 57816.9 lineto
76853.7 56859.2 lineto
poly1
newpath
76853.7 32843.4 moveto
75043.2 31032.9 lineto
74853.8 31032.9 lineto
74853.8 33123.2 lineto
74774 33316.5 lineto
74626.2 33464.4 lineto
74494.5 33519.2 lineto
74625.5 33573.3 lineto
74773.4 33721 lineto
74853.6 33914.1 lineto
74853.8 34123.2 lineto
74853.8 37847.6 lineto
74774 38040.9 lineto
74626.2 38188.9 lineto
74494.5 38243.6 lineto
74625.5 38297.7 lineto
74773.4 38445.4 lineto
74853.6 38638.5 lineto
74853.8 38847.6 lineto
74774 39040.9 lineto
74626.2 39188.9 lineto
74433.1 39269 lineto
74368.3 39269.1 lineto
72381.3 41256.1 lineto
72251.5 41342.8 lineto
72226.1 41347.9 lineto
72098.4 41373.3 lineto
71891.5 41373.3 lineto
71811.9 41373.3 lineto
71664.8 41312.6 lineto
71552.2 41200.1 lineto
71491.2 41053.2 lineto
71491.1 40894.1 lineto
71521.6 40820.2 lineto
71551.8 40747 lineto
71664.2 40634.4 lineto
71738.1 40603.7 lineto
71811.2 40573.3 lineto
71891.1 40573.3 lineto
71932.8 40573.2 lineto
73235.6 39270.4 lineto
73092.9 39262.7 lineto
72952.6 39204.6 lineto
72928.3 39111.8 lineto
73225.8 38814.3 lineto
73231.3 38819.8 lineto
73302 38749.1 lineto
73296.5 38743.5 lineto
73594 38446 lineto
73686.8 38470.4 lineto
73756.2 38667.6 lineto
73751.5 38754.4 lineto
73802.5 38703.5 lineto
73802.5 38639.5 lineto
73882.3 38446.2 lineto
74030 38298.2 lineto
74161.8 38243.5 lineto
74030.8 38189.4 lineto
73882.8 38041.7 lineto
73802.6 37848.5 lineto
73802.5 37639.5 lineto
73882.3 37446.2 lineto
74030 37298.2 lineto
74223.1 37218 lineto
74432.2 37217.9 lineto
74625.5 37297.7 lineto
74773.4 37445.4 lineto
74853.6 37638.5 lineto
74853.8 37847.6 lineto
74853.8 34123.2 lineto
74774 34316.5 lineto
74626.2 34464.4 lineto
74433.1 34544.6 lineto
74224 34544.8 lineto
74030.8 34465 lineto
73882.8 34317.2 lineto
73802.6 34124.1 lineto
73802.5 33915 lineto
73882.3 33721.8 lineto
74030 33573.8 lineto
74161.8 33519.1 lineto
74030.8 33465 lineto
73882.8 33317.2 lineto
73802.6 33124.1 lineto
73802.5 32915 lineto
73882.3 32721.8 lineto
74030 32573.8 lineto
74223.1 32493.6 lineto
74432.2 32493.5 lineto
74625.5 32573.3 lineto
74773.4 32721 lineto
74853.6 32914.1 lineto
74853.8 33123.2 lineto
74853.8 31032.9 lineto
73756.2 31032.9 lineto
73756.2 33943.2 lineto
73744.9 34152 lineto
73686.8 34292.3 lineto
73594 34316.6 lineto
73523.3 34245.9 lineto
73523.3 34387.4 lineto
73498.9 34480.2 lineto
73301.7 34549.6 lineto
73092.9 34538.3 lineto
72952.6 34480.2 lineto
72928.3 34387.4 lineto
73225.8 34089.8 lineto
73523.3 34387.4 lineto
73523.3 34245.9 lineto
73296.5 34019.1 lineto
73594 33721.6 lineto
73686.8 33746 lineto
73756.2 33943.2 lineto
73756.2 31032.9 lineto
73751.5 31032.9 lineto
73751.5 33123.2 lineto
73671.6 33316.5 lineto
73523.9 33464.4 lineto
73398.5 33516.5 lineto
73498.9 33558.1 lineto
73523.3 33650.9 lineto
73225.8 33948.4 lineto
73155.1 33877.7 lineto
73155.1 34019.1 lineto
72857.6 34316.6 lineto
72764.7 34292.3 lineto
72695.3 34095.1 lineto
72706.6 33886.3 lineto
72764.7 33746 lineto
72857.6 33721.6 lineto
73155.1 34019.1 lineto
73155.1 33877.7 lineto
72928.3 33650.9 lineto
72952.6 33558.1 lineto
73061.2 33519.8 lineto
72928.4 33465 lineto
72780.5 33317.2 lineto
72700.3 33124.1 lineto
72700.1 32915 lineto
72779.9 32721.8 lineto
72927.7 32573.8 lineto
73120.8 32493.6 lineto
73329.9 32493.5 lineto
73523.1 32573.3 lineto
73671.1 32721 lineto
73751.3 32914.1 lineto
73751.5 33123.2 lineto
73751.5 31032.9 lineto
72904.4 31032.9 lineto
71093.9 32843.4 lineto
71093.9 39424.6 lineto
71087.3 39457.8 lineto
72700.3 37844.8 lineto
72700.1 37639.5 lineto
72779.9 37446.2 lineto
72927.7 37298.2 lineto
73120.8 37218 lineto
73329.9 37217.9 lineto
73523.1 37297.7 lineto
73671.1 37445.4 lineto
73751.3 37638.5 lineto
73751.5 37847.6 lineto
73671.6 38040.9 lineto
73523.9 38188.9 lineto
73398.5 38240.9 lineto
73498.9 38282.5 lineto
73523.3 38375.3 lineto
73225.8 38672.8 lineto
73220.2 38667.3 lineto
73149.5 38738 lineto
73155.1 38743.5 lineto
72857.6 39041.1 lineto
72764.7 39016.7 lineto
72695.3 38819.5 lineto
72702.2 38691.3 lineto
68639.1 42754.5 lineto
71429.9 42754.5 lineto
71496.5 42687.9 lineto
71593.8 42622.9 lineto
71593.8 42622.9 lineto
71708.6 42600 lineto
72711.5 42600 lineto
72700.3 42573 lineto
72700.1 42363.9 lineto
72779.9 42170.6 lineto
72927.7 42022.6 lineto
73120.8 41942.5 lineto
73329.9 41942.3 lineto
73523.1 42022.1 lineto
73671.1 42169.8 lineto
73751.3 42362.9 lineto
73751.5 42572 lineto
73739.9 42600 lineto
73813.9 42600 lineto
73802.6 42573 lineto
73802.5 42363.9 lineto
73882.3 42170.6 lineto
74030 42022.6 lineto
74223.1 41942.5 lineto
74432.2 41942.3 lineto
74625.5 42022.1 lineto
74773.4 42169.8 lineto
74853.6 42362.9 lineto
74853.8 42572 lineto
74842.2 42600 lineto
74865.8 42600 lineto
74891.1 42574.7 lineto
74891.1 42574.7 lineto
74988.4 42509.7 lineto
75058.4 42495.8 lineto
75024.4 42438.9 lineto
75019.4 42405.7 lineto
75069.1 42336.8 lineto
75498.6 42336.8 lineto
75498.6 42340 lineto
75598.6 42340 lineto
75598.6 42336.8 lineto
75606.5 42336.8 lineto
75606.5 42236.8 lineto
75598.6 42236.8 lineto
75598.6 41899.8 lineto
75669.5 41835.3 lineto
75840.6 41878.2 lineto
75982.3 41983.4 lineto
76066.3 42123.9 lineto
76066.3 41449.8 lineto
75982.3 41590.3 lineto
75840.6 41695.5 lineto
75669.5 41738.4 lineto
75598.6 41673.9 lineto
75598.6 41336.8 lineto
75606.5 41336.8 lineto
75606.5 41236.8 lineto
75598.6 41236.8 lineto
75598.6 41233.7 lineto
75498.6 41233.7 lineto
75498.6 41236.8 lineto
75498.6 41336.8 lineto
75498.6 41673.9 lineto
75498.6 41899.8 lineto
75498.6 42236.8 lineto
75069.1 42236.8 lineto
75019.4 42168 lineto
75024.4 42134.8 lineto
75115 41983.4 lineto
75256.6 41878.2 lineto
75427.7 41835.3 lineto
75498.6 41899.8 lineto
75498.6 41673.9 lineto
75427.7 41738.4 lineto
75256.6 41695.5 lineto
75115 41590.3 lineto
75024.4 41438.9 lineto
75019.4 41405.7 lineto
75069.1 41336.8 lineto
75498.6 41336.8 lineto
75498.6 41236.8 lineto
75069.1 41236.8 lineto
75019.4 41168 lineto
75024.4 41134.8 lineto
75081.3 41039.6 lineto
75026.7 40957.9 lineto
74992.6 40786.8 lineto
75026.7 40615.8 lineto
75123.5 40470.9 lineto
75268.5 40374 lineto
75439.5 40340 lineto
75657.7 40340 lineto
75828.7 40374 lineto
75973.7 40470.9 lineto
76066.3 40609.5 lineto
76066.3 34700.2 lineto
76086.9 34597 lineto
76145.3 34509.5 lineto
76853.7 33801.1 lineto
76853.7 32843.4 lineto
poly1
1 1 1 setrgbcolor
39.3701 setlinewidth
30819 50146.1 40.315 cir1
25013.4 36616.3 40.315 cir1
73757.1 41411.3 40.315 cir1
26738.8 42886.1 40.315 cir1
22421.3 52387.8 40.315 cir1
28034.1 49312.4 40.315 cir1
29104.5 51196.8 40.315 cir1
42264.8 34803.7 40.315 cir1
30750.8 42469.9 40.315 cir1
72940.1 51206.7 40.315 cir1
51147.1 43845.8 40.315 cir1
43837.5 56579.7 40.315 cir1
47284.8 44636 40.315 cir1
20738.2 42593.6 40.315 cir1
71891.1 40973.3 40.315 cir1
43536.2 42843.7 40.315 cir1
48032.7 49481.2 40.315 cir1
40101.7 47741.3 40.315 cir1
48666.3 36606.1 40.315 cir1
48847.5 40530.1 40.315 cir1
53520.7 40847.5 40.315 cir1
47921.9 44967.4 40.315 cir1
71685.8 43347.3 40.315 cir1
44696.6 38092.7 40.315 cir1
50118.2 37692.6 40.315 cir1
47413.6 37105.7 40.315 cir1
42031.3 54117.6 40.315 cir1
39919.8 44492.1 40.315 cir1
50256.3 50182.9 40.315 cir1
47317.1 35032.7 40.315 cir1
52419.7 45830.2 40.315 cir1
44397 45258 40.315 cir1
46333 47387.7 40.315 cir1
41192.5 50794.1 40.315 cir1
42822.7 47214.9 40.315 cir1
22533 42183.5 40.315 cir1
22856.2 39424.6 40.315 cir1
23214 38929.5 40.315 cir1
75548.6 42786.8 118.11 cir1
75548.6 42286.8 118.11 cir1
75548.6 40786.8 118.11 cir1
75548.6 41286.8 118.11 cir1
74328.1 57641.2 98.4252 cir1
74328.1 56641.2 98.4252 cir1
73225.8 57641.2 98.4252 cir1
73225.8 56641.2 98.4252 cir1
74328.1 52916.8 98.4252 cir1
74328.1 51916.8 98.4252 cir1
73225.8 52916.8 98.4252 cir1
73225.8 51916.8 98.4252 cir1
74328.1 48192.4 98.4252 cir1
74328.1 47192.4 98.4252 cir1
73225.8 48192.4 98.4252 cir1
73225.8 47192.4 98.4252 cir1
74328.1 43468 98.4252 cir1
74328.1 42468 98.4252 cir1
73225.8 43468 98.4252 cir1
73225.8 42468 98.4252 cir1
74328.1 38743.5 98.4252 cir1
74328.1 37743.5 98.4252 cir1
73225.8 38743.5 98.4252 cir1
73225.8 37743.5 98.4252 cir1
20036.8 54385.3 137.795 cir1
20036.8 55527 137.795 cir1
20036.8 53243.5 137.795 cir1
20036.8 56668.7 236.22 cir1
20036.8 52101.8 236.22 cir1
36572.2 34530.9 216.535 cir1
36572.2 56129.4 216.535 cir1
33780.9 34530.9 448.819 cir1
29879.3 56129.4 216.535 cir1
29879.3 34530.9 216.535 cir1
32670.7 56129.4 448.819 cir1
26329.3 63215.2 445.315 cir1
33429.3 63215.2 445.315 cir1
21211.2 63215.2 445.315 cir1
28311.2 63215.2 445.315 cir1
28311.2 27445.1 445.315 cir1
21211.2 27445.1 445.315 cir1
33429.3 27445.1 445.315 cir1
26329.3 27445.1 445.315 cir1
65706.1 45330.2 531.496 cir1
71006.1 45330.2 531.496 cir1
61769.1 46830.2 137.795 cir1
61769.1 45830.2 137.795 cir1
61769.1 44830.2 137.795 cir1
61769.1 43830.2 137.795 cir1
42158.8 57928.6 137.795 cir1
43158.8 57928.6 137.795 cir1
44158.8 57928.6 137.795 cir1
45158.8 57928.6 137.795 cir1
45158.8 32731.7 137.795 cir1
44158.8 32731.7 137.795 cir1
43158.8 32731.7 137.795 cir1
42158.8 32731.7 137.795 cir1
24867.5 57534.9 177.315 cir1
23867.5 57534.9 177.315 cir1
23867.5 33125.4 177.315 cir1
24867.5 33125.4 177.315 cir1
19150.8 37948.7 177.315 cir1
20922.8 35388.7 177.315 cir1
20922.8 37948.7 177.315 cir1
19150.8 35388.7 177.315 cir1
74328.1 34019.1 98.4252 cir1
74328.1 33019.1 98.4252 cir1
73225.8 34019.1 98.4252 cir1
73225.8 33019.1 98.4252 cir1
25399 41830.2 137.795 cir1
25399 42830.2 137.795 cir1
25399 43830.2 137.795 cir1
25399 44830.2 137.795 cir1
25399 45830.2 137.795 cir1
25399 46830.2 137.795 cir1
25399 47830.2 137.795 cir1
25399 48830.2 137.795 cir1
19399 48830.2 137.795 cir1
19399 47830.2 137.795 cir1
19399 46830.2 137.795 cir1
19399 45830.2 137.795 cir1
19399 44830.2 137.795 cir1
19399 43830.2 137.795 cir1
19399 42830.2 137.795 cir1
19399 41830.2 137.795 cir1
49032.9 48830.2 137.795 cir1
49032.9 47830.2 137.795 cir1
49032.9 46830.2 137.795 cir1
49032.9 45830.2 137.795 cir1
49032.9 44830.2 137.795 cir1
49032.9 43830.2 137.795 cir1
49032.9 42830.2 137.795 cir1
49032.9 41830.2 137.795 cir1
53532.9 48330.2 610.236 cir1
53532.9 42330.2 610.236 cir1
50745.5 50735.7 177.315 cir1
50745.5 51735.7 177.315 cir1
75548.6 49873.5 118.11 cir1
75548.6 49373.5 118.11 cir1
75548.6 47873.5 118.11 cir1
75548.6 48373.5 118.11 cir1
40658.8 45605.7 137.795 cir1
40658.8 44605.7 137.795 cir1
40658.8 43605.7 137.795 cir1
40658.8 42605.7 137.795 cir1
40658.8 41605.7 137.795 cir1
40658.8 40605.7 137.795 cir1
40658.8 39605.7 137.795 cir1
40658.8 38605.7 137.795 cir1
40658.8 37605.7 137.795 cir1
40658.8 36605.7 137.795 cir1
40658.8 35605.7 137.795 cir1
40658.8 34605.7 137.795 cir1
44658.8 34605.7 137.795 cir1
45658.8 34605.7 137.795 cir1
44658.8 35605.7 137.795 cir1
45658.8 35605.7 137.795 cir1
46658.8 34605.7 137.795 cir1
46658.8 35605.7 137.795 cir1
46658.8 36605.7 137.795 cir1
46658.8 37605.7 137.795 cir1
46658.8 38605.7 137.795 cir1
46658.8 39605.7 137.795 cir1
46658.8 40605.7 137.795 cir1
46658.8 41605.7 137.795 cir1
46658.8 42605.7 137.795 cir1
46658.8 43605.7 137.795 cir1
46658.8 44605.7 137.795 cir1
46658.8 45605.7 137.795 cir1
0 0 0 setrgbcolor
showpage
grestore
%%EOF
