%!PS-Adobe-3.0
%%Creator: PCBNEW
%%CreationDate: Sun Jan 25 14:28:57 2015
%%Title: /home/ad/kicad/robot2015/ps/robot2015-B_Mask.ps
%%Pages: 1
%%PageOrder: Ascend
%%BoundingBox: 0 0 596 842
%%DocumentMedia: A4 595 842 0 () ()
%%Orientation: Landscape
%%EndComments
%%BeginProlog
/line { newpath moveto lineto stroke } bind def
/cir0 { newpath 0 360 arc stroke } bind def
/cir1 { newpath 0 360 arc gsave fill grestore stroke } bind def
/cir2 { newpath 0 360 arc gsave fill grestore stroke } bind def
/arc0 { newpath arc stroke } bind def
/arc1 { newpath 4 index 4 index moveto arc closepath gsave fill
    grestore stroke } bind def
/arc2 { newpath 4 index 4 index moveto arc closepath gsave fill
    grestore stroke } bind def
/poly0 { stroke } bind def
/poly1 { closepath gsave fill grestore stroke } bind def
/poly2 { closepath gsave fill grestore stroke } bind def
/rect0 { rectstroke } bind def
/rect1 { rectfill } bind def
/rect2 { rectfill } bind def
/linemode0 { 0 setlinecap 0 setlinejoin 0 setlinewidth } bind def
/linemode1 { 1 setlinecap 1 setlinejoin } bind def
/dashedline { [200] 100 setdash } bind def
/solidline { [] 0 setdash } bind def
/phantomshow { moveto
    /KicadFont findfont 0.000001 scalefont setfont
    show } bind def
/textshow { gsave
    findfont exch scalefont setfont concat 1 scale 0 0 moveto show
    } bind def
/reencodefont {
  findfont dup length dict begin
  { 1 index /FID ne
    { def }
    { pop pop } ifelse
  } forall
  /Encoding ISOLatin1Encoding def
  currentdict
  end } bind def
/KicadFont /Helvetica reencodefont definefont pop
/KicadFont-Bold /Helvetica-Bold reencodefont definefont pop
/KicadFont-Oblique /Helvetica-Oblique reencodefont definefont pop
/KicadFont-BoldOblique /Helvetica-BoldOblique reencodefont definefont pop
%%EndProlog
%%Page: 1 1
%%BeginPageSetup
gsave
0.0072 0.0072 scale
linemode1
82680 0 translate 90 rotate
39.3701 setlinewidth
%%EndPageSetup
0 0 0 setrgbcolor
0 0 0 setrgbcolor
39.3701 setlinewidth
newpath
70824.2 51235.7 moveto
70824.2 57928.6 lineto
stroke
0 0 0 setrgbcolor
newpath
20430.5 25645.1 moveto
34603.7 25645.1 lineto
stroke
0 0 0 setrgbcolor
newpath
18068.3 57141.2 moveto
18068.3 33519.1 lineto
stroke
0 0 0 setrgbcolor
newpath
34603.7 65015.2 moveto
20430.5 65015.2 lineto
stroke
0 0 0 setrgbcolor
newpath
35784.8 63834.1 moveto
34603.7 65015.2 lineto
stroke
0 0 0 setrgbcolor
newpath
35784.8 59897.1 moveto
35784.8 63834.1 lineto
stroke
0 0 0 setrgbcolor
newpath
36965.9 58716 moveto
35784.8 59897.1 lineto
stroke
0 0 0 setrgbcolor
newpath
45627.3 58716 moveto
36965.9 58716 lineto
stroke
0 0 0 setrgbcolor
newpath
56257.3 48086.1 moveto
45627.3 58716 lineto
stroke
0 0 0 setrgbcolor
newpath
67674.6 48086.1 moveto
56257.3 48086.1 lineto
stroke
0 0 0 setrgbcolor
newpath
70824.2 51235.7 moveto
67674.6 48086.1 lineto
stroke
0 0 0 setrgbcolor
newpath
72792.7 59897.1 moveto
70824.2 57928.6 lineto
stroke
0 0 0 setrgbcolor
newpath
75154.9 59897.1 moveto
72792.7 59897.1 lineto
stroke
0 0 0 setrgbcolor
newpath
77123.4 57928.6 moveto
75154.9 59897.1 lineto
stroke
0 0 0 setrgbcolor
newpath
77123.4 56747.5 moveto
77123.4 57928.6 lineto
stroke
0 0 0 setrgbcolor
newpath
76336 55960.1 moveto
77123.4 56747.5 lineto
stroke
0 0 0 setrgbcolor
newpath
76336 34700.2 moveto
76336 55960.1 lineto
stroke
0 0 0 setrgbcolor
newpath
77123.4 33912.8 moveto
76336 34700.2 lineto
stroke
0 0 0 setrgbcolor
newpath
77123.4 32731.7 moveto
77123.4 33912.8 lineto
stroke
0 0 0 setrgbcolor
newpath
75154.9 30763.2 moveto
77123.4 32731.7 lineto
stroke
0 0 0 setrgbcolor
newpath
72792.7 30763.2 moveto
75154.9 30763.2 lineto
stroke
0 0 0 setrgbcolor
newpath
70824.2 32731.7 moveto
72792.7 30763.2 lineto
stroke
0 0 0 setrgbcolor
newpath
70824.2 39424.6 moveto
70824.2 32731.7 lineto
stroke
0 0 0 setrgbcolor
newpath
67674.6 42574.3 moveto
70824.2 39424.6 lineto
stroke
0 0 0 setrgbcolor
newpath
56257.3 42574.3 moveto
67674.6 42574.3 lineto
stroke
0 0 0 setrgbcolor
newpath
45627.3 31944.3 moveto
56257.3 42574.3 lineto
stroke
0 0 0 setrgbcolor
newpath
36965.9 31944.3 moveto
45627.3 31944.3 lineto
stroke
0 0 0 setrgbcolor
newpath
35784.8 30763.2 moveto
36965.9 31944.3 lineto
stroke
0 0 0 setrgbcolor
newpath
35784.8 26826.2 moveto
35784.8 30763.2 lineto
stroke
0 0 0 setrgbcolor
newpath
34603.7 25645.1 moveto
35784.8 26826.2 lineto
stroke
0 0 0 setrgbcolor
newpath
19249.4 63834.1 moveto
20430.5 65015.2 lineto
stroke
0 0 0 setrgbcolor
newpath
19249.4 58322.3 moveto
19249.4 63834.1 lineto
stroke
0 0 0 setrgbcolor
newpath
18068.3 57141.2 moveto
19249.4 58322.3 lineto
stroke
0 0 0 setrgbcolor
newpath
19249.4 26826.2 moveto
20430.5 25645.1 lineto
stroke
0 0 0 setrgbcolor
newpath
19249.4 32338 moveto
19249.4 26826.2 lineto
stroke
0 0 0 setrgbcolor
newpath
18068.3 33519.1 moveto
19249.4 32338 lineto
stroke
0 0 0 setrgbcolor
472.441 setlinewidth
newpath
75450.2 42786.8 moveto
75647 42786.8 lineto
stroke
0 0 0 setrgbcolor
newpath
75450.2 42286.8 moveto
75647 42286.8 lineto
stroke
0 0 0 setrgbcolor
newpath
75450.2 40786.8 moveto
75647 40786.8 lineto
stroke
0 0 0 setrgbcolor
newpath
75450.2 41286.8 moveto
75647 41286.8 lineto
stroke
0 0 0 setrgbcolor
39.3701 setlinewidth
74328.1 57641.2 295.276 cir1
0 0 0 setrgbcolor
74328.1 56641.2 295.276 cir1
0 0 0 setrgbcolor
73225.8 57641.2 295.276 cir1
0 0 0 setrgbcolor
73225.8 56641.2 295.276 cir1
0 0 0 setrgbcolor
74328.1 52916.8 295.276 cir1
0 0 0 setrgbcolor
74328.1 51916.8 295.276 cir1
0 0 0 setrgbcolor
73225.8 52916.8 295.276 cir1
0 0 0 setrgbcolor
73225.8 51916.8 295.276 cir1
0 0 0 setrgbcolor
74328.1 48192.4 295.276 cir1
0 0 0 setrgbcolor
74328.1 47192.4 295.276 cir1
0 0 0 setrgbcolor
73225.8 48192.4 295.276 cir1
0 0 0 setrgbcolor
73225.8 47192.4 295.276 cir1
0 0 0 setrgbcolor
74328.1 43468 295.276 cir1
0 0 0 setrgbcolor
74328.1 42468 295.276 cir1
0 0 0 setrgbcolor
73225.8 43468 295.276 cir1
0 0 0 setrgbcolor
73225.8 42468 295.276 cir1
0 0 0 setrgbcolor
74328.1 38743.5 295.276 cir1
0 0 0 setrgbcolor
74328.1 37743.5 295.276 cir1
0 0 0 setrgbcolor
73225.8 38743.5 295.276 cir1
0 0 0 setrgbcolor
73225.8 37743.5 295.276 cir1
0 0 0 setrgbcolor
551.181 setlinewidth
newpath
19918.7 54385.3 moveto
20154.9 54385.3 lineto
stroke
0 0 0 setrgbcolor
newpath
19918.7 55527 moveto
20154.9 55527 lineto
stroke
0 0 0 setrgbcolor
newpath
19918.7 53243.5 moveto
20154.9 53243.5 lineto
stroke
0 0 0 setrgbcolor
826.772 setlinewidth
newpath
19780.9 56668.7 moveto
20292.7 56668.7 lineto
stroke
0 0 0 setrgbcolor
newpath
19780.9 52101.8 moveto
20292.7 52101.8 lineto
stroke
0 0 0 setrgbcolor
39.3701 setlinewidth
36572.2 34530.9 492.126 cir1
0 0 0 setrgbcolor
36572.2 56129.4 492.126 cir1
0 0 0 setrgbcolor
33780.9 34530.9 527.559 cir1
0 0 0 setrgbcolor
29879.3 56129.4 492.126 cir1
0 0 0 setrgbcolor
29879.3 34530.9 492.126 cir1
0 0 0 setrgbcolor
32670.7 56129.4 527.559 cir1
0 0 0 setrgbcolor
26329.3 63215.2 619.685 cir1
0 0 0 setrgbcolor
33429.3 63215.2 619.685 cir1
0 0 0 setrgbcolor
21211.2 63215.2 619.685 cir1
0 0 0 setrgbcolor
28311.2 63215.2 619.685 cir1
0 0 0 setrgbcolor
28311.2 27445.1 619.685 cir1
0 0 0 setrgbcolor
21211.2 27445.1 619.685 cir1
0 0 0 setrgbcolor
33429.3 27445.1 619.685 cir1
0 0 0 setrgbcolor
26329.3 27445.1 619.685 cir1
0 0 0 setrgbcolor
65706.1 45330.2 649.606 cir1
0 0 0 setrgbcolor
71006.1 45330.2 649.606 cir1
0 0 0 setrgbcolor
61769.1 46830.2 334.646 cir1
0 0 0 setrgbcolor
61769.1 45830.2 334.646 cir1
0 0 0 setrgbcolor
61769.1 44830.2 334.646 cir1
0 0 0 setrgbcolor
61769.1 43830.2 334.646 cir1
0 0 0 setrgbcolor
42158.8 57928.6 334.646 cir1
0 0 0 setrgbcolor
43158.8 57928.6 334.646 cir1
0 0 0 setrgbcolor
44158.8 57928.6 334.646 cir1
0 0 0 setrgbcolor
45158.8 57928.6 334.646 cir1
0 0 0 setrgbcolor
45158.8 32731.7 334.646 cir1
0 0 0 setrgbcolor
44158.8 32731.7 334.646 cir1
0 0 0 setrgbcolor
43158.8 32731.7 334.646 cir1
0 0 0 setrgbcolor
42158.8 32731.7 334.646 cir1
0 0 0 setrgbcolor
newpath
25187.2 57987.6 moveto
25187.2 57082.2 lineto
24547.8 57082.2 lineto
24547.8 57987.6 lineto
25187.2 57987.6 lineto
poly1
0 0 0 setrgbcolor
678.74 setlinewidth
newpath
23867.5 57401.9 moveto
23867.5 57667.9 lineto
stroke
0 0 0 setrgbcolor
39.3701 setlinewidth
newpath
23547.8 32672.7 moveto
23547.8 33578.1 lineto
24187.2 33578.1 lineto
24187.2 32672.7 lineto
23547.8 32672.7 lineto
poly1
0 0 0 setrgbcolor
678.74 setlinewidth
newpath
24867.5 33258.4 moveto
24867.5 32992.4 lineto
stroke
0 0 0 setrgbcolor
39.3701 setlinewidth
newpath
42656.1 35862.3 moveto
42656.1 35113 lineto
41986.8 35113 lineto
41986.8 35862.3 lineto
42656.1 35862.3 lineto
poly1
0 0 0 setrgbcolor
newpath
43756.1 35862.3 moveto
43756.1 35113 lineto
43086.8 35113 lineto
43086.8 35862.3 lineto
43756.1 35862.3 lineto
poly1
0 0 0 setrgbcolor
newpath
73795.4 54404.3 moveto
73795.4 55153.7 lineto
74464.8 55153.7 lineto
74464.8 54404.3 lineto
73795.4 54404.3 lineto
poly1
0 0 0 setrgbcolor
newpath
72695.4 54404.3 moveto
72695.4 55153.7 lineto
73364.8 55153.7 lineto
73364.8 54404.3 lineto
72695.4 54404.3 lineto
poly1
0 0 0 setrgbcolor
newpath
73795.4 35506.7 moveto
73795.4 36256 lineto
74464.8 36256 lineto
74464.8 35506.7 lineto
73795.4 35506.7 lineto
poly1
0 0 0 setrgbcolor
newpath
72695.4 35506.7 moveto
72695.4 36256 lineto
73364.8 36256 lineto
73364.8 35506.7 lineto
72695.4 35506.7 lineto
poly1
0 0 0 setrgbcolor
newpath
43443.5 39011.9 moveto
43443.5 38262.6 lineto
42774.2 38262.6 lineto
42774.2 39011.9 lineto
43443.5 39011.9 lineto
poly1
0 0 0 setrgbcolor
newpath
44543.5 39011.9 moveto
44543.5 38262.6 lineto
43874.2 38262.6 lineto
43874.2 39011.9 lineto
44543.5 39011.9 lineto
poly1
0 0 0 setrgbcolor
newpath
43443.5 40193 moveto
43443.5 39443.7 lineto
42774.2 39443.7 lineto
42774.2 40193 lineto
43443.5 40193 lineto
poly1
0 0 0 setrgbcolor
newpath
44543.5 40193 moveto
44543.5 39443.7 lineto
43874.2 39443.7 lineto
43874.2 40193 lineto
44543.5 40193 lineto
poly1
0 0 0 setrgbcolor
newpath
43443.5 41374.1 moveto
43443.5 40624.8 lineto
42774.2 40624.8 lineto
42774.2 41374.1 lineto
43443.5 41374.1 lineto
poly1
0 0 0 setrgbcolor
newpath
44543.5 41374.1 moveto
44543.5 40624.8 lineto
43874.2 40624.8 lineto
43874.2 41374.1 lineto
44543.5 41374.1 lineto
poly1
0 0 0 setrgbcolor
newpath
43443.5 42555.2 moveto
43443.5 41805.9 lineto
42774.2 41805.9 lineto
42774.2 42555.2 lineto
43443.5 42555.2 lineto
poly1
0 0 0 setrgbcolor
newpath
44543.5 42555.2 moveto
44543.5 41805.9 lineto
43874.2 41805.9 lineto
43874.2 42555.2 lineto
44543.5 42555.2 lineto
poly1
0 0 0 setrgbcolor
newpath
43443.5 37830.8 moveto
43443.5 37081.5 lineto
42774.2 37081.5 lineto
42774.2 37830.8 lineto
43443.5 37830.8 lineto
poly1
0 0 0 setrgbcolor
newpath
44543.5 37830.8 moveto
44543.5 37081.5 lineto
43874.2 37081.5 lineto
43874.2 37830.8 lineto
44543.5 37830.8 lineto
poly1
0 0 0 setrgbcolor
newpath
43049.8 45704.8 moveto
43049.8 44955.5 lineto
42380.5 44955.5 lineto
42380.5 45704.8 lineto
43049.8 45704.8 lineto
poly1
0 0 0 setrgbcolor
newpath
44149.8 45704.8 moveto
44149.8 44955.5 lineto
43480.5 44955.5 lineto
43480.5 45704.8 lineto
44149.8 45704.8 lineto
poly1
0 0 0 setrgbcolor
newpath
43480.5 43774.4 moveto
43480.5 44523.7 lineto
44149.8 44523.7 lineto
44149.8 43774.4 lineto
43480.5 43774.4 lineto
poly1
0 0 0 setrgbcolor
newpath
42380.5 43774.4 moveto
42380.5 44523.7 lineto
43049.8 44523.7 lineto
43049.8 43774.4 lineto
42380.5 43774.4 lineto
poly1
0 0 0 setrgbcolor
newpath
41512 55191.7 moveto
41512 55941.1 lineto
42181.3 55941.1 lineto
42181.3 55191.7 lineto
41512 55191.7 lineto
poly1
0 0 0 setrgbcolor
newpath
40412 55191.7 moveto
40412 55941.1 lineto
41081.3 55941.1 lineto
41081.3 55191.7 lineto
40412 55191.7 lineto
poly1
0 0 0 setrgbcolor
19150.8 37948.7 413.185 cir1
0 0 0 setrgbcolor
20922.8 35388.7 413.185 cir1
0 0 0 setrgbcolor
20922.8 37948.7 413.185 cir1
0 0 0 setrgbcolor
19150.8 35388.7 413.185 cir1
0 0 0 setrgbcolor
74328.1 34019.1 295.276 cir1
0 0 0 setrgbcolor
74328.1 33019.1 295.276 cir1
0 0 0 setrgbcolor
73225.8 34019.1 295.276 cir1
0 0 0 setrgbcolor
73225.8 33019.1 295.276 cir1
0 0 0 setrgbcolor
25399 41830.2 334.646 cir1
0 0 0 setrgbcolor
25399 42830.2 334.646 cir1
0 0 0 setrgbcolor
25399 43830.2 334.646 cir1
0 0 0 setrgbcolor
25399 44830.2 334.646 cir1
0 0 0 setrgbcolor
25399 45830.2 334.646 cir1
0 0 0 setrgbcolor
25399 46830.2 334.646 cir1
0 0 0 setrgbcolor
25399 47830.2 334.646 cir1
0 0 0 setrgbcolor
25399 48830.2 334.646 cir1
0 0 0 setrgbcolor
19399 48830.2 334.646 cir1
0 0 0 setrgbcolor
19399 47830.2 334.646 cir1
0 0 0 setrgbcolor
19399 46830.2 334.646 cir1
0 0 0 setrgbcolor
19399 45830.2 334.646 cir1
0 0 0 setrgbcolor
19399 44830.2 334.646 cir1
0 0 0 setrgbcolor
19399 43830.2 334.646 cir1
0 0 0 setrgbcolor
19399 42830.2 334.646 cir1
0 0 0 setrgbcolor
19399 41830.2 334.646 cir1
0 0 0 setrgbcolor
49032.9 48830.2 334.646 cir1
0 0 0 setrgbcolor
49032.9 47830.2 334.646 cir1
0 0 0 setrgbcolor
49032.9 46830.2 334.646 cir1
0 0 0 setrgbcolor
49032.9 45830.2 334.646 cir1
0 0 0 setrgbcolor
49032.9 44830.2 334.646 cir1
0 0 0 setrgbcolor
49032.9 43830.2 334.646 cir1
0 0 0 setrgbcolor
49032.9 42830.2 334.646 cir1
0 0 0 setrgbcolor
49032.9 41830.2 334.646 cir1
0 0 0 setrgbcolor
53532.9 48330.2 728.346 cir1
0 0 0 setrgbcolor
53532.9 42330.2 728.346 cir1
0 0 0 setrgbcolor
newpath
44575.4 47638.7 moveto
44213.8 47277.1 lineto
43712.9 47778 lineto
44074.5 48139.5 lineto
44575.4 47638.7 lineto
poly1
0 0 0 setrgbcolor
newpath
44157.5 47220.8 moveto
43795.9 46859.2 lineto
43295 47360.1 lineto
43656.6 47721.6 lineto
44157.5 47220.8 lineto
poly1
0 0 0 setrgbcolor
newpath
43740.3 46803.6 moveto
43378.7 46442 lineto
42877.8 46942.9 lineto
43239.4 47304.5 lineto
43740.3 46803.6 lineto
poly1
0 0 0 setrgbcolor
newpath
44992.6 48055.8 moveto
44631 47694.3 lineto
44130.1 48195.1 lineto
44491.7 48556.7 lineto
44992.6 48055.8 lineto
poly1
0 0 0 setrgbcolor
newpath
45410.5 48473.7 moveto
45048.9 48112.2 lineto
44548 48613 lineto
44909.6 48974.6 lineto
45410.5 48473.7 lineto
poly1
0 0 0 setrgbcolor
newpath
45827.7 48890.9 moveto
45466.1 48529.3 lineto
44965.2 49030.2 lineto
45326.8 49391.8 lineto
45827.7 48890.9 lineto
poly1
0 0 0 setrgbcolor
newpath
46245.6 49308.8 moveto
45884 48947.2 lineto
45383.1 49448.1 lineto
45744.7 49809.7 lineto
46245.6 49308.8 lineto
poly1
0 0 0 setrgbcolor
newpath
46662.8 49726 moveto
46301.2 49364.4 lineto
45800.3 49865.3 lineto
46161.9 50226.9 lineto
46662.8 49726 lineto
poly1
0 0 0 setrgbcolor
newpath
47080.7 50143.9 moveto
46719.1 49782.3 lineto
46218.2 50283.2 lineto
46579.8 50644.8 lineto
47080.7 50143.9 lineto
poly1
0 0 0 setrgbcolor
newpath
47498.6 50561.8 moveto
47137 50200.2 lineto
46636.1 50701.1 lineto
46997.7 51062.7 lineto
47498.6 50561.8 lineto
poly1
0 0 0 setrgbcolor
newpath
47915.8 50979 moveto
47554.2 50617.4 lineto
47053.3 51118.3 lineto
47414.9 51479.9 lineto
47915.8 50979 lineto
poly1
0 0 0 setrgbcolor
newpath
48333.7 51396.9 moveto
47972.1 51035.3 lineto
47471.2 51536.2 lineto
47832.8 51897.8 lineto
48333.7 51396.9 lineto
poly1
0 0 0 setrgbcolor
newpath
48750.9 51814.1 moveto
48389.3 51452.5 lineto
47888.4 51953.4 lineto
48250 52315 lineto
48750.9 51814.1 lineto
poly1
0 0 0 setrgbcolor
newpath
42905.9 46804.3 moveto
42433.3 46331.7 lineto
42071.7 46693.3 lineto
42544.3 47165.9 lineto
42905.9 46804.3 lineto
poly1
0 0 0 setrgbcolor
newpath
42514.2 47249.7 moveto
42013.3 46748.9 lineto
41651.7 47110.4 lineto
42152.6 47611.3 lineto
42514.2 47249.7 lineto
poly1
0 0 0 setrgbcolor
newpath
42097 47666.9 moveto
41596.1 47166 lineto
41234.5 47527.6 lineto
41735.4 48028.5 lineto
42097 47666.9 lineto
poly1
0 0 0 setrgbcolor
newpath
41679.8 48084.1 moveto
41178.9 47583.2 lineto
40817.3 47944.8 lineto
41318.2 48445.7 lineto
41679.8 48084.1 lineto
poly1
0 0 0 setrgbcolor
newpath
41262.6 48501.3 moveto
40761.7 48000.4 lineto
40400.1 48362 lineto
40901 48862.9 lineto
41262.6 48501.3 lineto
poly1
0 0 0 setrgbcolor
newpath
40845.4 48918.5 moveto
40344.5 48417.6 lineto
39982.9 48779.2 lineto
40483.8 49280.1 lineto
40845.4 48918.5 lineto
poly1
0 0 0 setrgbcolor
newpath
40428.2 49335.7 moveto
39927.3 48834.8 lineto
39565.7 49196.4 lineto
40066.6 49697.3 lineto
40428.2 49335.7 lineto
poly1
0 0 0 setrgbcolor
newpath
39983.4 49725.3 moveto
39510.8 49252.7 lineto
39149.2 49614.3 lineto
39621.8 50086.9 lineto
39983.4 49725.3 lineto
poly1
0 0 0 setrgbcolor
newpath
40121.3 50422.5 moveto
39759.7 50060.9 lineto
39258.8 50561.8 lineto
39620.4 50923.4 lineto
40121.3 50422.5 lineto
poly1
0 0 0 setrgbcolor
newpath
40538.5 50839.7 moveto
40176.9 50478.1 lineto
39676 50979 lineto
40037.6 51340.6 lineto
40538.5 50839.7 lineto
poly1
0 0 0 setrgbcolor
newpath
40957.1 51258.3 moveto
40595.5 50896.7 lineto
40094.6 51397.6 lineto
40456.2 51759.2 lineto
40957.1 51258.3 lineto
poly1
0 0 0 setrgbcolor
newpath
41373.6 51674.8 moveto
41012 51313.2 lineto
40511.1 51814.1 lineto
40872.7 52175.7 lineto
41373.6 51674.8 lineto
poly1
0 0 0 setrgbcolor
newpath
41791.5 52092.7 moveto
41429.9 51731.1 lineto
40929 52232 lineto
41290.6 52593.6 lineto
41791.5 52092.7 lineto
poly1
0 0 0 setrgbcolor
newpath
42208.7 52509.9 moveto
41847.1 52148.3 lineto
41346.2 52649.2 lineto
41707.8 53010.8 lineto
42208.7 52509.9 lineto
poly1
0 0 0 setrgbcolor
newpath
42626.6 52927.8 moveto
42265 52566.2 lineto
41764.1 53067.1 lineto
42125.7 53428.7 lineto
42626.6 52927.8 lineto
poly1
0 0 0 setrgbcolor
newpath
43043.8 53345 moveto
42682.2 52983.4 lineto
42181.3 53484.3 lineto
42542.9 53845.9 lineto
43043.8 53345 lineto
poly1
0 0 0 setrgbcolor
newpath
43461.7 53762.9 moveto
43100.1 53401.3 lineto
42599.2 53902.2 lineto
42960.8 54263.8 lineto
43461.7 53762.9 lineto
poly1
0 0 0 setrgbcolor
newpath
43879.6 54180.8 moveto
43518 53819.2 lineto
43017.1 54320.1 lineto
43378.7 54681.7 lineto
43879.6 54180.8 lineto
poly1
0 0 0 setrgbcolor
newpath
44296.8 54598 moveto
43935.2 54236.4 lineto
43434.3 54737.3 lineto
43795.9 55098.9 lineto
44296.8 54598 lineto
poly1
0 0 0 setrgbcolor
newpath
44714.7 55015.9 moveto
44353.1 54654.3 lineto
43852.2 55155.2 lineto
44213.8 55516.8 lineto
44714.7 55015.9 lineto
poly1
0 0 0 setrgbcolor
newpath
45131.9 55433.1 moveto
44770.3 55071.5 lineto
44269.4 55572.4 lineto
44631 55934 lineto
45131.9 55433.1 lineto
poly1
0 0 0 setrgbcolor
newpath
31828.4 49660.3 moveto
31080 49660.3 lineto
31080 50211.7 lineto
31828.4 50211.7 lineto
31828.4 49660.3 lineto
poly1
0 0 0 setrgbcolor
newpath
31828.4 50566.3 moveto
31080 50566.3 lineto
31080 51117.7 lineto
31828.4 51117.7 lineto
31828.4 50566.3 lineto
poly1
0 0 0 setrgbcolor
newpath
31828.4 51472.3 moveto
31080 51472.3 lineto
31080 52023.7 lineto
31828.4 52023.7 lineto
31828.4 51472.3 lineto
poly1
0 0 0 setrgbcolor
newpath
34190.4 50074.3 moveto
33442 50074.3 lineto
33442 51609.7 lineto
34190.4 51609.7 lineto
34190.4 50074.3 lineto
poly1
0 0 0 setrgbcolor
newpath
31828.4 39424.1 moveto
31080 39424.1 lineto
31080 39975.4 lineto
31828.4 39975.4 lineto
31828.4 39424.1 lineto
poly1
0 0 0 setrgbcolor
newpath
31828.4 40330.1 moveto
31080 40330.1 lineto
31080 40881.4 lineto
31828.4 40881.4 lineto
31828.4 40330.1 lineto
poly1
0 0 0 setrgbcolor
newpath
31828.4 41236.1 moveto
31080 41236.1 lineto
31080 41787.4 lineto
31828.4 41787.4 lineto
31828.4 41236.1 lineto
poly1
0 0 0 setrgbcolor
newpath
34190.4 39838.1 moveto
33442 39838.1 lineto
33442 41373.4 lineto
34190.4 41373.4 lineto
34190.4 39838.1 lineto
poly1
0 0 0 setrgbcolor
newpath
28501.9 52534.8 moveto
28501.9 51511.4 lineto
27694.5 51511.4 lineto
27694.5 52534.8 lineto
28501.9 52534.8 lineto
poly1
0 0 0 setrgbcolor
newpath
29701.9 52534.8 moveto
29701.9 51511.4 lineto
28894.5 51511.4 lineto
28894.5 52534.8 lineto
29701.9 52534.8 lineto
poly1
0 0 0 setrgbcolor
newpath
28501.9 40330 moveto
28501.9 39306.7 lineto
27694.5 39306.7 lineto
27694.5 40330 lineto
28501.9 40330 lineto
poly1
0 0 0 setrgbcolor
newpath
29701.9 40330 moveto
29701.9 39306.7 lineto
28894.5 39306.7 lineto
28894.5 40330 lineto
29701.9 40330 lineto
poly1
0 0 0 setrgbcolor
newpath
28501.9 42298.5 moveto
28501.9 41275.2 lineto
27694.5 41275.2 lineto
27694.5 42298.5 lineto
28501.9 42298.5 lineto
poly1
0 0 0 setrgbcolor
newpath
29701.9 42298.5 moveto
29701.9 41275.2 lineto
28894.5 41275.2 lineto
28894.5 42298.5 lineto
29701.9 42298.5 lineto
poly1
0 0 0 setrgbcolor
newpath
28501.9 50566.3 moveto
28501.9 49542.9 lineto
27694.5 49542.9 lineto
27694.5 50566.3 lineto
28501.9 50566.3 lineto
poly1
0 0 0 setrgbcolor
newpath
29701.9 50566.3 moveto
29701.9 49542.9 lineto
28894.5 49542.9 lineto
28894.5 50566.3 lineto
29701.9 50566.3 lineto
poly1
0 0 0 setrgbcolor
newpath
51198.1 50416 moveto
50292.8 50416 lineto
50292.8 51055.4 lineto
51198.1 51055.4 lineto
51198.1 50416 lineto
poly1
0 0 0 setrgbcolor
678.74 setlinewidth
newpath
50612.5 51735.7 moveto
50878.5 51735.7 lineto
stroke
0 0 0 setrgbcolor
39.3701 setlinewidth
newpath
22204.6 53716.9 moveto
22638 53716.9 lineto
22638 53441.5 lineto
22204.6 53441.5 lineto
22204.6 53716.9 lineto
poly1
0 0 0 setrgbcolor
newpath
21372.6 53341.9 moveto
21806 53341.9 lineto
21806 53066.5 lineto
21372.6 53066.5 lineto
21372.6 53341.9 lineto
poly1
0 0 0 setrgbcolor
newpath
22204.6 52966.9 moveto
22638 52966.9 lineto
22638 52691.5 lineto
22204.6 52691.5 lineto
22204.6 52966.9 lineto
poly1
0 0 0 setrgbcolor
newpath
48658 39624 moveto
48658 40057.3 lineto
48933.3 40057.3 lineto
48933.3 39624 lineto
48658 39624 lineto
poly1
0 0 0 setrgbcolor
newpath
49033 38792 moveto
49033 39225.3 lineto
49308.3 39225.3 lineto
49308.3 38792 lineto
49033 38792 lineto
poly1
0 0 0 setrgbcolor
newpath
49408 39624 moveto
49408 40057.3 lineto
49683.3 40057.3 lineto
49683.3 39624 lineto
49408 39624 lineto
poly1
0 0 0 setrgbcolor
newpath
73795.4 44955.5 moveto
73795.4 45704.8 lineto
74464.8 45704.8 lineto
74464.8 44955.5 lineto
73795.4 44955.5 lineto
poly1
0 0 0 setrgbcolor
newpath
72695.4 44955.5 moveto
72695.4 45704.8 lineto
73364.8 45704.8 lineto
73364.8 44955.5 lineto
72695.4 44955.5 lineto
poly1
0 0 0 setrgbcolor
newpath
75923.3 45545.5 moveto
75173.9 45545.5 lineto
75173.9 46214.8 lineto
75923.3 46214.8 lineto
75923.3 45545.5 lineto
poly1
0 0 0 setrgbcolor
newpath
75923.3 44445.5 moveto
75173.9 44445.5 lineto
75173.9 45114.8 lineto
75923.3 45114.8 lineto
75923.3 44445.5 lineto
poly1
0 0 0 setrgbcolor
newpath
73364.8 50429.3 moveto
73364.8 49679.9 lineto
72695.4 49679.9 lineto
72695.4 50429.3 lineto
73364.8 50429.3 lineto
poly1
0 0 0 setrgbcolor
newpath
74464.8 50429.3 moveto
74464.8 49679.9 lineto
73795.4 49679.9 lineto
73795.4 50429.3 lineto
74464.8 50429.3 lineto
poly1
0 0 0 setrgbcolor
472.441 setlinewidth
newpath
75450.2 49873.5 moveto
75647 49873.5 lineto
stroke
0 0 0 setrgbcolor
newpath
75450.2 49373.5 moveto
75647 49373.5 lineto
stroke
0 0 0 setrgbcolor
newpath
75450.2 47873.5 moveto
75647 47873.5 lineto
stroke
0 0 0 setrgbcolor
newpath
75450.2 48373.5 moveto
75647 48373.5 lineto
stroke
0 0 0 setrgbcolor
39.3701 setlinewidth
40658.8 45605.7 334.646 cir1
0 0 0 setrgbcolor
40658.8 44605.7 334.646 cir1
0 0 0 setrgbcolor
40658.8 43605.7 334.646 cir1
0 0 0 setrgbcolor
40658.8 42605.7 334.646 cir1
0 0 0 setrgbcolor
40658.8 41605.7 334.646 cir1
0 0 0 setrgbcolor
40658.8 40605.7 334.646 cir1
0 0 0 setrgbcolor
40658.8 39605.7 334.646 cir1
0 0 0 setrgbcolor
40658.8 38605.7 334.646 cir1
0 0 0 setrgbcolor
40658.8 37605.7 334.646 cir1
0 0 0 setrgbcolor
40658.8 36605.7 334.646 cir1
0 0 0 setrgbcolor
40658.8 35605.7 334.646 cir1
0 0 0 setrgbcolor
40658.8 34605.7 334.646 cir1
0 0 0 setrgbcolor
44658.8 34605.7 334.646 cir1
0 0 0 setrgbcolor
45658.8 34605.7 334.646 cir1
0 0 0 setrgbcolor
44658.8 35605.7 334.646 cir1
0 0 0 setrgbcolor
45658.8 35605.7 334.646 cir1
0 0 0 setrgbcolor
46658.8 34605.7 334.646 cir1
0 0 0 setrgbcolor
46658.8 35605.7 334.646 cir1
0 0 0 setrgbcolor
46658.8 36605.7 334.646 cir1
0 0 0 setrgbcolor
46658.8 37605.7 334.646 cir1
0 0 0 setrgbcolor
46658.8 38605.7 334.646 cir1
0 0 0 setrgbcolor
46658.8 39605.7 334.646 cir1
0 0 0 setrgbcolor
46658.8 40605.7 334.646 cir1
0 0 0 setrgbcolor
46658.8 41605.7 334.646 cir1
0 0 0 setrgbcolor
46658.8 42605.7 334.646 cir1
0 0 0 setrgbcolor
46658.8 43605.7 334.646 cir1
0 0 0 setrgbcolor
46658.8 44605.7 334.646 cir1
0 0 0 setrgbcolor
46658.8 45605.7 334.646 cir1
0 0 0 setrgbcolor
100 setlinewidth
newpath
37803.3 46855 moveto
29041.9 46855 lineto
29041.9 49317.2 lineto
32191.5 49317.2 lineto
32191.5 52366.8 lineto
30616.7 52366.8 lineto
30616.7 54829 lineto
37803.3 54829 lineto
37803.3 46855 lineto
poly1
0 0 0 setrgbcolor
newpath
38984.4 35437.6 moveto
29041.9 35437.6 lineto
29041.9 39080.9 lineto
32191.5 39080.9 lineto
32191.5 42130.6 lineto
30616.7 42130.6 lineto
30616.7 45773.9 lineto
38984.4 45773.9 lineto
38984.4 35437.6 lineto
poly1
showpage
grestore
%%EOF
