%!PS-Adobe-3.0
%%Creator: PCBNEW
%%CreationDate: Sun Jan 25 14:28:57 2015
%%Title: /home/ad/kicad/robot2015/ps/robot2015-F_SilkS.ps
%%Pages: 1
%%PageOrder: Ascend
%%BoundingBox: 0 0 596 842
%%DocumentMedia: A4 595 842 0 () ()
%%Orientation: Landscape
%%EndComments
%%BeginProlog
/line { newpath moveto lineto stroke } bind def
/cir0 { newpath 0 360 arc stroke } bind def
/cir1 { newpath 0 360 arc gsave fill grestore stroke } bind def
/cir2 { newpath 0 360 arc gsave fill grestore stroke } bind def
/arc0 { newpath arc stroke } bind def
/arc1 { newpath 4 index 4 index moveto arc closepath gsave fill
    grestore stroke } bind def
/arc2 { newpath 4 index 4 index moveto arc closepath gsave fill
    grestore stroke } bind def
/poly0 { stroke } bind def
/poly1 { closepath gsave fill grestore stroke } bind def
/poly2 { closepath gsave fill grestore stroke } bind def
/rect0 { rectstroke } bind def
/rect1 { rectfill } bind def
/rect2 { rectfill } bind def
/linemode0 { 0 setlinecap 0 setlinejoin 0 setlinewidth } bind def
/linemode1 { 1 setlinecap 1 setlinejoin } bind def
/dashedline { [200] 100 setdash } bind def
/solidline { [] 0 setdash } bind def
/phantomshow { moveto
    /KicadFont findfont 0.000001 scalefont setfont
    show } bind def
/textshow { gsave
    findfont exch scalefont setfont concat 1 scale 0 0 moveto show
    } bind def
/reencodefont {
  findfont dup length dict begin
  { 1 index /FID ne
    { def }
    { pop pop } ifelse
  } forall
  /Encoding ISOLatin1Encoding def
  currentdict
  end } bind def
/KicadFont /Helvetica reencodefont definefont pop
/KicadFont-Bold /Helvetica-Bold reencodefont definefont pop
/KicadFont-Oblique /Helvetica-Oblique reencodefont definefont pop
/KicadFont-BoldOblique /Helvetica-BoldOblique reencodefont definefont pop
%%EndProlog
%%Page: 1 1
%%BeginPageSetup
gsave
0.0072 0.0072 scale
linemode1
82680 0 translate 90 rotate
39.3701 setlinewidth
%%EndPageSetup
0 0 0 setrgbcolor
0 0 0 setrgbcolor
118.11 setlinewidth
newpath
22764.6 33083.3 moveto
23214.5 33083.3 lineto
stroke
newpath
22989.5 32858.3 moveto
22989.5 33308.2 lineto
stroke
0 0 0 setrgbcolor
newpath
25520.5 57492.7 moveto
25970.4 57492.7 lineto
stroke
newpath
25745.5 57267.7 moveto
25745.5 57717.7 lineto
stroke
0 0 0 setrgbcolor
39.3701 setlinewidth
newpath
70824.2 51235.7 moveto
70824.2 57928.6 lineto
stroke
0 0 0 setrgbcolor
118.11 setlinewidth
newpath
47566 36424.2 moveto
47943.8 36245.2 lineto
47764.9 36623 lineto
stroke
newpath
47804.6 36861.6 moveto
47804.6 36901.4 lineto
47824.5 36961.1 lineto
47923.9 37060.5 lineto
47983.6 37080.4 lineto
48023.4 37080.4 lineto
48083 37060.5 lineto
48122.8 37020.7 lineto
48162.6 36941.2 lineto
48162.6 36463.9 lineto
48421.1 36722.4 lineto
stroke
newpath
48262 37398.5 moveto
48301.8 37438.3 lineto
48361.4 37458.2 lineto
48401.2 37458.2 lineto
48460.8 37438.3 lineto
48560.3 37378.7 lineto
48659.7 37279.2 lineto
48719.3 37179.8 lineto
48739.2 37120.1 lineto
48739.2 37080.4 lineto
48719.3 37020.7 lineto
48679.6 36981 lineto
48619.9 36961.1 lineto
48580.2 36961.1 lineto
48520.5 36981 lineto
48421.1 37040.6 lineto
48321.6 37140 lineto
48262 37239.5 lineto
48242.1 37299.1 lineto
48242.1 37338.9 lineto
48262 37398.5 lineto
stroke
newpath
49216.5 37517.8 moveto
48977.8 37279.2 lineto
stroke
newpath
49097.2 37398.5 moveto
48679.6 37816.1 lineto
48699.5 37716.7 lineto
48699.5 37637.2 lineto
48679.6 37577.5 lineto
stroke
newpath
49176.7 38313.2 moveto
48977.8 38114.4 lineto
49156.8 37895.7 lineto
49156.8 37935.4 lineto
49176.7 37995.1 lineto
49276.1 38094.5 lineto
49335.8 38114.4 lineto
49375.5 38114.4 lineto
49435.2 38094.5 lineto
49534.6 37995.1 lineto
49554.5 37935.4 lineto
49554.5 37895.7 lineto
49534.6 37836 lineto
49435.2 37736.6 lineto
49375.5 37716.7 lineto
49335.8 37716.7 lineto
stroke
newpath
49753.4 38134.3 moveto
49793.1 38134.3 lineto
49793.1 38094.5 lineto
49753.4 38094.5 lineto
49753.4 38134.3 lineto
49793.1 38094.5 lineto
stroke
newpath
49653.9 38790.5 moveto
49693.7 38830.2 lineto
49753.4 38850.1 lineto
49793.1 38850.1 lineto
49852.8 38830.2 lineto
49952.2 38770.6 lineto
50051.6 38671.2 lineto
50111.3 38571.7 lineto
50131.2 38512.1 lineto
50131.2 38472.3 lineto
50111.3 38412.7 lineto
50071.5 38372.9 lineto
50011.9 38353 lineto
49972.1 38353 lineto
49912.4 38372.9 lineto
49813 38432.5 lineto
49713.6 38532 lineto
49653.9 38631.4 lineto
49634.1 38691.1 lineto
49634.1 38730.8 lineto
49653.9 38790.5 lineto
stroke
newpath
50608.4 38909.8 moveto
50369.8 38671.2 lineto
stroke
newpath
50489.1 38790.5 moveto
50071.5 39208.1 lineto
50091.4 39108.6 lineto
50091.4 39029.1 lineto
50071.5 38969.4 lineto
stroke
0 0 0 setrgbcolor
39.3701 setlinewidth
newpath
20430.5 25645.1 moveto
34603.7 25645.1 lineto
stroke
0 0 0 setrgbcolor
newpath
18068.3 57141.2 moveto
18068.3 33519.1 lineto
stroke
0 0 0 setrgbcolor
newpath
34603.7 65015.2 moveto
20430.5 65015.2 lineto
stroke
0 0 0 setrgbcolor
newpath
35784.8 63834.1 moveto
34603.7 65015.2 lineto
stroke
0 0 0 setrgbcolor
newpath
35784.8 59897.1 moveto
35784.8 63834.1 lineto
stroke
0 0 0 setrgbcolor
newpath
36965.9 58716 moveto
35784.8 59897.1 lineto
stroke
0 0 0 setrgbcolor
newpath
45627.3 58716 moveto
36965.9 58716 lineto
stroke
0 0 0 setrgbcolor
newpath
56257.3 48086.1 moveto
45627.3 58716 lineto
stroke
0 0 0 setrgbcolor
newpath
67674.6 48086.1 moveto
56257.3 48086.1 lineto
stroke
0 0 0 setrgbcolor
newpath
70824.2 51235.7 moveto
67674.6 48086.1 lineto
stroke
0 0 0 setrgbcolor
newpath
72792.7 59897.1 moveto
70824.2 57928.6 lineto
stroke
0 0 0 setrgbcolor
newpath
75154.9 59897.1 moveto
72792.7 59897.1 lineto
stroke
0 0 0 setrgbcolor
newpath
77123.4 57928.6 moveto
75154.9 59897.1 lineto
stroke
0 0 0 setrgbcolor
newpath
77123.4 56747.5 moveto
77123.4 57928.6 lineto
stroke
0 0 0 setrgbcolor
newpath
76336 55960.1 moveto
77123.4 56747.5 lineto
stroke
0 0 0 setrgbcolor
newpath
76336 34700.2 moveto
76336 55960.1 lineto
stroke
0 0 0 setrgbcolor
newpath
77123.4 33912.8 moveto
76336 34700.2 lineto
stroke
0 0 0 setrgbcolor
newpath
77123.4 32731.7 moveto
77123.4 33912.8 lineto
stroke
0 0 0 setrgbcolor
newpath
75154.9 30763.2 moveto
77123.4 32731.7 lineto
stroke
0 0 0 setrgbcolor
newpath
72792.7 30763.2 moveto
75154.9 30763.2 lineto
stroke
0 0 0 setrgbcolor
newpath
70824.2 32731.7 moveto
72792.7 30763.2 lineto
stroke
0 0 0 setrgbcolor
newpath
70824.2 39424.6 moveto
70824.2 32731.7 lineto
stroke
0 0 0 setrgbcolor
newpath
67674.6 42574.3 moveto
70824.2 39424.6 lineto
stroke
0 0 0 setrgbcolor
newpath
56257.3 42574.3 moveto
67674.6 42574.3 lineto
stroke
0 0 0 setrgbcolor
newpath
45627.3 31944.3 moveto
56257.3 42574.3 lineto
stroke
0 0 0 setrgbcolor
newpath
36965.9 31944.3 moveto
45627.3 31944.3 lineto
stroke
0 0 0 setrgbcolor
newpath
35784.8 30763.2 moveto
36965.9 31944.3 lineto
stroke
0 0 0 setrgbcolor
newpath
35784.8 26826.2 moveto
35784.8 30763.2 lineto
stroke
0 0 0 setrgbcolor
newpath
34603.7 25645.1 moveto
35784.8 26826.2 lineto
stroke
0 0 0 setrgbcolor
newpath
19249.4 63834.1 moveto
20430.5 65015.2 lineto
stroke
0 0 0 setrgbcolor
newpath
19249.4 58322.3 moveto
19249.4 63834.1 lineto
stroke
0 0 0 setrgbcolor
newpath
18068.3 57141.2 moveto
19249.4 58322.3 lineto
stroke
0 0 0 setrgbcolor
newpath
19249.4 26826.2 moveto
20430.5 25645.1 lineto
stroke
0 0 0 setrgbcolor
newpath
19249.4 32338 moveto
19249.4 26826.2 lineto
stroke
0 0 0 setrgbcolor
newpath
18068.3 33519.1 moveto
19249.4 32338 lineto
stroke
0 0 0 setrgbcolor
59.0551 setlinewidth
newpath
76048.6 41786.8 moveto
75798.6 41536.8 lineto
stroke
0 0 0 setrgbcolor
newpath
75298.6 41786.8 moveto
76048.6 41786.8 lineto
stroke
0 0 0 setrgbcolor
newpath
76048.6 41786.8 moveto
75798.6 42036.8 lineto
stroke
0 0 0 setrgbcolor
newpath
75154.9 40408.9 moveto
75154.9 43164.8 lineto
stroke
0 0 0 setrgbcolor
newpath
75154.9 43164.8 moveto
76139.2 43164.8 lineto
stroke
0 0 0 setrgbcolor
newpath
76139.2 43164.8 moveto
76139.2 40408.9 lineto
stroke
0 0 0 setrgbcolor
newpath
76139.2 40408.9 moveto
75154.9 40408.9 lineto
stroke
0 0 0 setrgbcolor
newpath
20824.2 52023.1 moveto
21178.5 52023.1 lineto
stroke
0 0 0 setrgbcolor
newpath
18895.1 52023.1 moveto
19249.4 52023.1 lineto
stroke
0 0 0 setrgbcolor
newpath
21178.5 52023.1 moveto
21178.5 56747.5 lineto
stroke
0 0 0 setrgbcolor
newpath
21178.5 56747.5 moveto
20824.2 56747.5 lineto
stroke
0 0 0 setrgbcolor
newpath
18895.1 52023.1 moveto
18895.1 56747.5 lineto
stroke
0 0 0 setrgbcolor
newpath
18895.1 56747.5 moveto
19249.4 56747.5 lineto
stroke
0 0 0 setrgbcolor
newpath
33371.4 33530.9 moveto
33371.4 57129.4 lineto
stroke
0 0 0 setrgbcolor
newpath
33371.4 57129.4 moveto
39773 57129.4 lineto
stroke
0 0 0 setrgbcolor
newpath
39773 57129.4 moveto
39773 33530.9 lineto
stroke
0 0 0 setrgbcolor
newpath
39773 33530.9 moveto
33371.4 33530.9 lineto
stroke
0 0 0 setrgbcolor
newpath
33080.1 57129.4 moveto
33080.1 33530.9 lineto
stroke
0 0 0 setrgbcolor
newpath
33080.1 33530.9 moveto
26678.5 33530.9 lineto
stroke
0 0 0 setrgbcolor
newpath
26678.5 33530.9 moveto
26678.5 57129.4 lineto
stroke
0 0 0 setrgbcolor
newpath
26678.5 57129.4 moveto
33080.1 57129.4 lineto
stroke
0 0 0 setrgbcolor
newpath
26279.3 65015.2 moveto
33479.3 65015.2 lineto
stroke
0 0 0 setrgbcolor
33479.3 63215.2 1800 -90 90 arc0
0 0 0 setrgbcolor
26279.3 63215.2 1800 -270 -90 arc0
0 0 0 setrgbcolor
newpath
26279.3 58715.2 moveto
26279.3 61415.2 lineto
stroke
0 0 0 setrgbcolor
newpath
33479.3 58715.2 moveto
33479.3 61415.2 lineto
stroke
0 0 0 setrgbcolor
newpath
26279.3 58715.2 moveto
33479.3 58715.2 lineto
stroke
0 0 0 setrgbcolor
newpath
21161.2 65015.2 moveto
28361.2 65015.2 lineto
stroke
0 0 0 setrgbcolor
28361.2 63215.2 1800 -90 90 arc0
0 0 0 setrgbcolor
21161.2 63215.2 1800 -270 -90 arc0
0 0 0 setrgbcolor
newpath
21161.2 58715.2 moveto
21161.2 61415.2 lineto
stroke
0 0 0 setrgbcolor
newpath
28361.2 58715.2 moveto
28361.2 61415.2 lineto
stroke
0 0 0 setrgbcolor
newpath
21161.2 58715.2 moveto
28361.2 58715.2 lineto
stroke
0 0 0 setrgbcolor
newpath
28361.2 25645.1 moveto
21161.2 25645.1 lineto
stroke
0 0 0 setrgbcolor
21161.2 27445.1 1800 -270 -90 arc0
0 0 0 setrgbcolor
28361.2 27445.1 1800 -90 90 arc0
0 0 0 setrgbcolor
newpath
28361.2 31945.1 moveto
28361.2 29245.1 lineto
stroke
0 0 0 setrgbcolor
newpath
21161.2 31945.1 moveto
21161.2 29245.1 lineto
stroke
0 0 0 setrgbcolor
newpath
28361.2 31945.1 moveto
21161.2 31945.1 lineto
stroke
0 0 0 setrgbcolor
newpath
33479.3 25645.1 moveto
26279.3 25645.1 lineto
stroke
0 0 0 setrgbcolor
26279.3 27445.1 1800 -270 -90 arc0
0 0 0 setrgbcolor
33479.3 27445.1 1800 -90 90 arc0
0 0 0 setrgbcolor
newpath
33479.3 31945.1 moveto
33479.3 29245.1 lineto
stroke
0 0 0 setrgbcolor
newpath
26279.3 31945.1 moveto
26279.3 29245.1 lineto
stroke
0 0 0 setrgbcolor
newpath
33479.3 31945.1 moveto
26279.3 31945.1 lineto
stroke
0 0 0 setrgbcolor
68356.1 45330.2 2370 90 150 arc0
0 0 0 setrgbcolor
68356.1 45330.2 2370 30 90 arc0
0 0 0 setrgbcolor
68356.1 45330.2 2370 -90 -30 arc0
0 0 0 setrgbcolor
68356.1 45330.2 2370 -150 -90 arc0
0 0 0 setrgbcolor
71006.1 45330.2 1100 cir0
0 0 0 setrgbcolor
65706.1 45330.2 1100 cir0
0 0 0 setrgbcolor
newpath
61269.1 47330.2 moveto
61269.1 43330.2 lineto
stroke
0 0 0 setrgbcolor
newpath
61269.1 43330.2 moveto
62269.1 43330.2 lineto
stroke
0 0 0 setrgbcolor
newpath
62269.1 43330.2 moveto
62269.1 47330.2 lineto
stroke
0 0 0 setrgbcolor
newpath
62269.1 47330.2 moveto
61269.1 47330.2 lineto
stroke
0 0 0 setrgbcolor
newpath
41658.8 57428.6 moveto
45658.8 57428.6 lineto
stroke
0 0 0 setrgbcolor
newpath
45658.8 57428.6 moveto
45658.8 58428.6 lineto
stroke
0 0 0 setrgbcolor
newpath
45658.8 58428.6 moveto
41658.8 58428.6 lineto
stroke
0 0 0 setrgbcolor
newpath
41658.8 58428.6 moveto
41658.8 57428.6 lineto
stroke
0 0 0 setrgbcolor
newpath
45658.8 33231.7 moveto
41658.8 33231.7 lineto
stroke
0 0 0 setrgbcolor
newpath
41658.8 33231.7 moveto
41658.8 32231.7 lineto
stroke
0 0 0 setrgbcolor
newpath
41658.8 32231.7 moveto
45658.8 32231.7 lineto
stroke
0 0 0 setrgbcolor
newpath
45658.8 32231.7 moveto
45658.8 33231.7 lineto
stroke
0 0 0 setrgbcolor
120 setlinewidth
newpath
24367.5 57034.9 moveto
24367.5 58034.9 lineto
stroke
0 0 0 setrgbcolor
newpath
24367.5 58034.9 moveto
25367.5 57034.9 lineto
stroke
0 0 0 setrgbcolor
newpath
25367.5 58034.9 moveto
24367.5 57034.9 lineto
stroke
0 0 0 setrgbcolor
newpath
23367.5 58034.9 moveto
25367.5 58034.9 lineto
stroke
0 0 0 setrgbcolor
newpath
25367.5 57034.9 moveto
23367.5 57034.9 lineto
stroke
0 0 0 setrgbcolor
newpath
25367.5 58034.9 moveto
25367.5 57034.9 lineto
stroke
0 0 0 setrgbcolor
newpath
23367.5 57034.9 moveto
23367.5 58034.9 lineto
stroke
0 0 0 setrgbcolor
newpath
24367.5 33625.4 moveto
24367.5 32625.4 lineto
stroke
0 0 0 setrgbcolor
newpath
24367.5 32625.4 moveto
23367.5 33625.4 lineto
stroke
0 0 0 setrgbcolor
newpath
23367.5 32625.4 moveto
24367.5 33625.4 lineto
stroke
0 0 0 setrgbcolor
newpath
25367.5 32625.4 moveto
23367.5 32625.4 lineto
stroke
0 0 0 setrgbcolor
newpath
23367.5 33625.4 moveto
25367.5 33625.4 lineto
stroke
0 0 0 setrgbcolor
newpath
23367.5 32625.4 moveto
23367.5 33625.4 lineto
stroke
0 0 0 setrgbcolor
newpath
25367.5 33625.4 moveto
25367.5 32625.4 lineto
stroke
0 0 0 setrgbcolor
newpath
18836.8 37868.7 moveto
21236.8 37868.7 lineto
stroke
0 0 0 setrgbcolor
newpath
21236.8 37868.7 moveto
21236.8 35468.7 lineto
stroke
0 0 0 setrgbcolor
newpath
21236.8 35468.7 moveto
18836.8 35468.7 lineto
stroke
0 0 0 setrgbcolor
newpath
18836.8 35468.7 moveto
18836.8 37868.7 lineto
stroke
0 0 0 setrgbcolor
1000 setlinewidth
20036.8 36668.7 316.228 cir0
0 0 0 setrgbcolor
100 setlinewidth
newpath
44839.9 52337.8 moveto
44839.9 52455.8 lineto
stroke
0 0 0 setrgbcolor
newpath
44878.9 52534.8 moveto
44878.9 52298.8 lineto
stroke
0 0 0 setrgbcolor
newpath
44957.9 52180.8 moveto
44957.9 52652.8 lineto
stroke
0 0 0 setrgbcolor
newpath
44957.9 52652.8 moveto
44721.9 52416.8 lineto
stroke
0 0 0 setrgbcolor
newpath
44721.9 52416.8 moveto
44957.9 52180.8 lineto
stroke
0 0 0 setrgbcolor
newpath
44524.9 52770.8 moveto
44524.9 52062.8 lineto
stroke
0 0 0 setrgbcolor
newpath
45154.9 52062.8 moveto
45154.9 52770.8 lineto
stroke
0 0 0 setrgbcolor
newpath
45469.9 52062.8 moveto
44209.9 52062.8 lineto
stroke
0 0 0 setrgbcolor
newpath
44209.9 52062.8 moveto
44209.9 52770.8 lineto
stroke
0 0 0 setrgbcolor
newpath
44209.9 52770.8 moveto
45469.9 52770.8 lineto
stroke
0 0 0 setrgbcolor
newpath
45469.9 52770.8 moveto
45469.9 52062.8 lineto
stroke
0 0 0 setrgbcolor
50 setlinewidth
newpath
45289.9 50915.7 moveto
45289.9 51555.7 lineto
stroke
0 0 0 setrgbcolor
newpath
44389.9 51555.7 moveto
44389.9 50915.7 lineto
stroke
0 0 0 setrgbcolor
newpath
44209.9 51555.7 moveto
44209.9 50915.7 lineto
stroke
0 0 0 setrgbcolor
newpath
44209.9 50915.7 moveto
45469.9 50915.7 lineto
stroke
0 0 0 setrgbcolor
newpath
45469.9 50915.7 moveto
45469.9 51555.7 lineto
stroke
0 0 0 setrgbcolor
newpath
45469.9 51555.7 moveto
44209.9 51555.7 lineto
stroke
0 0 0 setrgbcolor
59.0551 setlinewidth
newpath
23899 44330.2 moveto
23899 47830.2 lineto
stroke
0 0 0 setrgbcolor
newpath
23899 47830.2 moveto
20899 47830.2 lineto
stroke
0 0 0 setrgbcolor
newpath
20899 47830.2 moveto
20899 44330.2 lineto
stroke
0 0 0 setrgbcolor
newpath
20899 44330.2 moveto
23899 44330.2 lineto
stroke
0 0 0 setrgbcolor
newpath
22899 42330.2 moveto
22899 43330.2 lineto
stroke
0 0 0 setrgbcolor
newpath
22899 43330.2 moveto
21899 43330.2 lineto
stroke
0 0 0 setrgbcolor
newpath
21899 43330.2 moveto
21899 42330.2 lineto
stroke
0 0 0 setrgbcolor
newpath
21899 42330.2 moveto
22899 42330.2 lineto
stroke
0 0 0 setrgbcolor
newpath
26399 41330.2 moveto
18399 41330.2 lineto
stroke
0 0 0 setrgbcolor
newpath
18399 41330.2 moveto
18399 49330.2 lineto
stroke
0 0 0 setrgbcolor
newpath
18399 49330.2 moveto
26399 49330.2 lineto
stroke
0 0 0 setrgbcolor
newpath
26399 49330.2 moveto
26399 41330.2 lineto
stroke
0 0 0 setrgbcolor
newpath
48532.9 49330.2 moveto
54532.9 49330.2 lineto
stroke
0 0 0 setrgbcolor
newpath
54532.9 49330.2 moveto
54532.9 41330.2 lineto
stroke
0 0 0 setrgbcolor
newpath
54532.9 41330.2 moveto
48532.9 41330.2 lineto
stroke
0 0 0 setrgbcolor
newpath
48532.9 41330.2 moveto
48532.9 49330.2 lineto
stroke
0 0 0 setrgbcolor
39.3701 setlinewidth
newpath
48559.3 35074.4 moveto
48307.2 34822.8 lineto
48241.9 34757.9 lineto
48187.4 34704 lineto
48142.5 34660.1 lineto
48106.2 34625.3 lineto
48077.6 34598.7 lineto
48055.6 34579.3 lineto
48039.3 34566.1 lineto
48027.6 34558.3 lineto
48024.6 34556.7 lineto
47965.3 34537.3 lineto
47904.4 34533.5 lineto
47845 34545.4 lineto
47818.5 34556.3 lineto
47805.5 34565.2 lineto
47783.8 34583.6 lineto
47752.8 34612 lineto
47711.9 34650.9 lineto
47660.8 34700.8 lineto
47599 34762 lineto
47565.5 34795.4 lineto
47339.6 35021.4 lineto
47416.2 35098 lineto
47492.8 35174.6 lineto
47696.1 34971.3 lineto
47750.5 34917 lineto
47794.4 34873.3 lineto
47829.2 34839.1 lineto
47856.1 34813.2 lineto
47876.4 34794.5 lineto
47891.4 34781.8 lineto
47902.5 34774 lineto
47910.8 34769.9 lineto
47917.8 34768.3 lineto
47922.9 34768 lineto
47929.3 34768.4 lineto
47936.1 34770.4 lineto
47944.5 34774.9 lineto
47955.7 34783.1 lineto
47971 34796.2 lineto
47991.5 34815.1 lineto
48018.4 34841 lineto
48053 34875 lineto
48096.4 34918.1 lineto
48149.9 34971.4 lineto
48176.3 34997.8 lineto
48406.1 35227.7 lineto
48482.7 35151.1 lineto
48559.3 35074.4 lineto
48559.3 35074.4 lineto
poly1
0 0 0 setrgbcolor
newpath
48795 35310.2 moveto
48712.5 35227.7 lineto
48630 35145.2 lineto
48338.3 35436.8 lineto
48046.7 35728.5 lineto
48129.2 35811 lineto
48211.7 35893.5 lineto
48503.3 35601.8 lineto
48795 35310.2 lineto
48795 35310.2 lineto
poly1
0 0 0 setrgbcolor
newpath
49546.1 36391 moveto
49548.9 36388.2 lineto
49585.9 36348.7 lineto
49611.1 36315.8 lineto
49626.4 36286.2 lineto
49633.4 36256.7 lineto
49634 36227.2 lineto
49633.1 36211 lineto
49631.4 36196.2 lineto
49628.2 36181.9 lineto
49622.6 36166.9 lineto
49613.8 36150.5 lineto
49601 36131.4 lineto
49583.3 36108.8 lineto
49559.9 36081.7 lineto
49535.2 36054.9 lineto
49136.8 36453.3 lineto
49128.6 36460.2 lineto
49120 36464.1 lineto
49110.1 36463.9 lineto
49097.6 36458.9 lineto
49081.3 36448.2 lineto
49060.1 36430.8 lineto
49032.8 36406 lineto
48998.3 36372.9 lineto
48955.3 36330.6 lineto
48902.8 36278.2 lineto
48844.7 36220.1 lineto
48600.6 35976 lineto
48630 35946.5 lineto
48659.5 35917.1 lineto
48912.9 36170.5 lineto
49166.2 36423.8 lineto
49146 36444 lineto
49136.8 36453.3 lineto
49535.2 36054.9 lineto
49535.2 36054.9 lineto
49343.4 36246.7 lineto
49325.3 36264.7 lineto
49072 36011.4 lineto
48818.6 35758 lineto
48848.1 35728.5 lineto
48877.5 35699.1 lineto
49124.8 35946.3 lineto
49185.3 36006.8 lineto
49234.9 36056.7 lineto
49274.9 36097 lineto
49306.1 36129 lineto
49329.6 36153.7 lineto
49346.4 36172.2 lineto
49357.6 36185.7 lineto
49364.2 36195.3 lineto
49367.2 36202.2 lineto
49367.6 36207.4 lineto
49366.8 36211.1 lineto
49357 36229.9 lineto
49343.4 36246.7 lineto
49535.2 36054.9 lineto
49530 36049.1 lineto
49492.7 36009.9 lineto
49447.2 35963.3 lineto
49392.7 35908.1 lineto
49328.3 35843.5 lineto
49253.2 35768.3 lineto
49227.1 35742.2 lineto
48865.7 35380.9 lineto
48755.3 35491.4 lineto
48719.6 35527.3 lineto
48675.2 35572.5 lineto
48625 35623.9 lineto
48571.7 35678.8 lineto
48518.1 35734.3 lineto
48467.3 35787.1 lineto
48289.8 35972.4 lineto
48657.3 36336.6 lineto
48735 36413.6 lineto
48801.7 36479.7 lineto
48858.7 36535.7 lineto
48906.7 36582.6 lineto
48946.8 36621 lineto
48980 36651.9 lineto
49007.3 36676.1 lineto
49029.8 36694.4 lineto
49048.2 36707.7 lineto
49063.8 36716.7 lineto
49077.4 36722.4 lineto
49090.1 36725.4 lineto
49102.9 36726.8 lineto
49116.6 36727.2 lineto
49124.7 36727.4 lineto
49150.2 36725.4 lineto
49175.3 36717.1 lineto
49202.6 36701.1 lineto
49234.5 36675.7 lineto
49273.6 36639.4 lineto
49286.6 36626.7 lineto
49318.1 36595.2 lineto
49339.7 36572.2 lineto
49353.8 36554.7 lineto
49362.5 36539.7 lineto
49368.1 36524.3 lineto
49370.1 36516.9 lineto
49379.5 36480.3 lineto
49434.9 36463.8 lineto
49461.2 36455.5 lineto
49481.1 36447 lineto
49499 36435.3 lineto
49519.2 36417.6 lineto
49546.1 36391 lineto
49546.1 36391 lineto
poly1
0 0 0 setrgbcolor
newpath
50592.2 37107.4 moveto
50251.7 36767.3 lineto
50176.2 36692.1 lineto
50111.5 36627.8 lineto
50056.8 36573.8 lineto
50011.2 36529.2 lineto
49973.9 36493.2 lineto
49944 36464.9 lineto
49920.5 36443.6 lineto
49902.8 36428.3 lineto
49889.9 36418.4 lineto
49880.9 36413 lineto
49880.7 36412.9 lineto
49821.8 36393.5 lineto
49761 36389.5 lineto
49701.7 36400.5 lineto
49647 36426.5 lineto
49646 36427.1 lineto
49625.5 36443.1 lineto
49595 36470.3 lineto
49555.8 36507.6 lineto
49509 36554 lineto
49469.5 36594.2 lineto
49425.6 36639.4 lineto
49391.8 36674.7 lineto
49366.5 36701.8 lineto
49348.3 36722.7 lineto
49335.5 36739.3 lineto
49326.5 36753.5 lineto
49319.8 36767.1 lineto
49314.4 36780.9 lineto
49302.3 36832.4 lineto
49300.8 36889.8 lineto
49309.9 36946.4 lineto
49316.4 36966.9 lineto
49319.8 36975.7 lineto
49323.8 36984.3 lineto
49329.4 36993.7 lineto
49337.4 37004.9 lineto
49348.9 37019 lineto
49364.7 37036.9 lineto
49385.8 37059.7 lineto
49413.1 37088.3 lineto
49447.5 37123.8 lineto
49490.1 37167.2 lineto
49541.6 37219.5 lineto
49603.1 37281.7 lineto
49669.9 37349.2 lineto
50008.5 37691.1 lineto
50085.3 37614.3 lineto
50162.1 37537.5 lineto
49841.4 37216.8 lineto
49769.5 37145 lineto
49708.6 37084.1 lineto
49657.9 37033 lineto
49616.5 36990.8 lineto
49583.7 36956.4 lineto
49558.7 36928.9 lineto
49540.6 36907.2 lineto
49528.9 36890.3 lineto
49522.5 36877.3 lineto
49520.8 36867.1 lineto
49523 36858.7 lineto
49528.3 36851.2 lineto
49535.9 36843.5 lineto
49543.8 36835.9 lineto
49566.9 36812.8 lineto
49896.9 37142.7 lineto
50226.9 37472.7 lineto
50303.5 37396.1 lineto
50380.1 37319.5 lineto
50050.1 36989.5 lineto
49720.2 36659.5 lineto
49740.4 36639.3 lineto
49748.4 36631 lineto
49755.6 36624.3 lineto
49763 36620.1 lineto
49771.4 36619 lineto
49782 36621.9 lineto
49795.7 36629.5 lineto
49813.4 36642.8 lineto
49836.3 36662.4 lineto
49865.3 36689.2 lineto
49901.4 36723.9 lineto
49945.5 36767.3 lineto
49998.8 36820.3 lineto
50062.1 36883.6 lineto
50118.3 36939.9 lineto
50439 37260.6 lineto
50515.6 37184 lineto
50592.2 37107.4 lineto
50592.2 37107.4 lineto
poly1
0 0 0 setrgbcolor
newpath
51495.2 38031 moveto
51498.4 38025.8 lineto
51497 38018.7 lineto
51489.5 38007.6 lineto
51474.3 37990.4 lineto
51449.8 37965 lineto
51426.9 37942 lineto
51348.2 37863.3 lineto
51251.3 37940.3 lineto
51215.1 37968.9 lineto
51181.8 37995 lineto
51154.4 38016.2 lineto
51135.9 38030.2 lineto
51132 38033.1 lineto
51118.3 38042.7 lineto
50900.2 38260.8 lineto
50896 38260.3 lineto
50886.9 38254.3 lineto
50872 38242 lineto
50850.4 38222.4 lineto
50821.3 38194.7 lineto
50783.7 38158.1 lineto
50736.8 38111.9 lineto
50679.6 38055 lineto
50639.4 38014.8 lineto
50386 37761.5 lineto
50418.4 37729 lineto
50450.8 37696.6 lineto
50690.9 37936.8 lineto
50743 37989.2 lineto
50791.3 38038.3 lineto
50834.7 38082.7 lineto
50871.7 38121.1 lineto
50901.2 38152.2 lineto
50921.9 38174.7 lineto
50932.5 38187.3 lineto
50933.6 38189.3 lineto
50931.4 38204.2 lineto
50922.6 38225.9 lineto
50910.3 38247.8 lineto
50900.2 38260.8 lineto
51118.3 38042.7 lineto
51109.5 38048.9 lineto
50856.8 37796.2 lineto
50604 37543.4 lineto
50710.1 37437.4 lineto
50816.2 37331.3 lineto
50736.6 37251.7 lineto
50657.1 37172.2 lineto
50365.4 37463.9 lineto
50073.7 37755.6 lineto
50431.8 38113.4 lineto
50496.5 38177.9 lineto
50558.4 38239.2 lineto
50616.3 38296.2 lineto
50669.1 38348 lineto
50715.8 38393.3 lineto
50755.2 38431.2 lineto
50786.2 38460.5 lineto
50807.6 38480.1 lineto
50818.4 38489 lineto
50863 38508 lineto
50909.6 38510.5 lineto
50930.7 38506.4 lineto
50944.9 38501.6 lineto
50959.6 38493.3 lineto
50977.3 38479.8 lineto
51000.6 38458.8 lineto
51032 38428.5 lineto
51045 38415.7 lineto
51078.4 38382.3 lineto
51101.9 38357.8 lineto
51117.7 38339.4 lineto
51127.7 38324.4 lineto
51134.2 38310 lineto
51139.1 38294 lineto
51149.7 38255 lineto
51189.1 38247.8 lineto
51204 38244.4 lineto
51218.9 38238.9 lineto
51236 38229.9 lineto
51257.5 38215.8 lineto
51285.8 38195.3 lineto
51323.2 38166.8 lineto
51356.6 38140.9 lineto
51397 38109.4 lineto
51433.2 38081 lineto
51463 38057.3 lineto
51484.4 38040.1 lineto
51494.9 38031.2 lineto
51495.2 38031 lineto
51495.2 38031 lineto
poly1
0 0 0 setrgbcolor
newpath
51947.5 39323 moveto
51779.6 39155 lineto
51611.7 38987.1 lineto
51826.7 38772 lineto
52041.8 38556.9 lineto
51965.2 38480.3 lineto
51888.6 38403.7 lineto
51673.5 38618.8 lineto
51458.5 38833.9 lineto
51287.6 38663 lineto
51116.7 38492.1 lineto
51040.1 38568.7 lineto
50963.5 38645.3 lineto
51378.9 39060.8 lineto
51794.3 39476.2 lineto
51870.9 39399.6 lineto
51947.5 39323 lineto
51947.5 39323 lineto
poly1
0 0 0 setrgbcolor
newpath
53241.4 39762.4 moveto
53123.6 39641.5 lineto
53005.9 39520.5 lineto
52858.2 39520.4 lineto
52710.5 39520.2 lineto
52580.8 39390.6 lineto
52451.2 39520.2 lineto
52309.9 39520.4 lineto
52263.4 39520.4 lineto
52223.1 39520.2 lineto
52191.8 39519.8 lineto
52172.4 39519.4 lineto
52167.1 39519 lineto
52172 39512.9 lineto
52186.6 39497.4 lineto
52208.5 39474.8 lineto
52235.5 39447.4 lineto
52236.3 39446.7 lineto
52307 39376 lineto
52379.1 39448.1 lineto
52451.2 39520.2 lineto
52580.8 39390.6 lineto
52573.5 39383.3 lineto
52436.6 39246.4 lineto
52510.3 39172.7 lineto
52583.9 39099.1 lineto
52507.3 39022.5 lineto
52430.7 38945.9 lineto
52184.4 39192.2 lineto
51938.1 39438.5 lineto
51922.7 39484.5 lineto
51913.2 39528.6 lineto
51916.5 39569.7 lineto
51933.3 39610.7 lineto
51964.6 39654.3 lineto
51975.5 39666.9 lineto
51989.9 39682.9 lineto
52003.1 39696.8 lineto
52016.2 39708.8 lineto
52030.6 39718.9 lineto
52047.5 39727.5 lineto
52068 39734.5 lineto
52093.5 39740.2 lineto
52125.2 39744.7 lineto
52164.3 39748.3 lineto
52212.1 39751 lineto
52269.9 39753 lineto
52338.7 39754.5 lineto
52420 39755.6 lineto
52514.8 39756.5 lineto
52624.6 39757.4 lineto
52679 39757.9 lineto
53241.4 39762.4 lineto
53241.4 39762.4 lineto
poly1
0 0 0 setrgbcolor
newpath
53980.5 40855 moveto
54013.6 40821.6 lineto
54036.9 40797 lineto
54052.6 40778.5 lineto
54062.7 40763.1 lineto
54069.3 40748.2 lineto
54074.5 40731.5 lineto
54080.2 40699.7 lineto
54080.9 40667.6 lineto
54079.5 40656.9 lineto
54076.3 40641.4 lineto
54072.5 40627.1 lineto
54067.3 40612.9 lineto
54059.8 40597.9 lineto
54049.1 40581.1 lineto
54034.4 40561.4 lineto
54014.7 40537.9 lineto
53989.3 40509.6 lineto
53957.3 40475.4 lineto
53917.7 40434.4 lineto
53869.8 40385.6 lineto
53812.7 40328 lineto
53745.4 40260.6 lineto
53670 40185.2 lineto
53308.7 39823.8 lineto
53235.1 39897.5 lineto
53161.4 39971.2 lineto
53497.5 40307.3 lineto
53833.7 40643.4 lineto
53833.7 40672.4 lineto
53827 40702.9 lineto
53815.7 40719.2 lineto
53797.8 40737.2 lineto
53506.4 40445.8 lineto
53432.3 40371.8 lineto
53368.8 40308.9 lineto
53314.8 40256 lineto
53269.1 40212.3 lineto
53230.6 40176.9 lineto
53198.4 40149 lineto
53171.1 40127.5 lineto
53147.8 40111.7 lineto
53127.3 40100.7 lineto
53108.5 40093.4 lineto
53090.3 40089.1 lineto
53071.6 40086.9 lineto
53060 40086.2 lineto
53028.7 40087.2 lineto
52999.6 40094.4 lineto
52969.7 40109.4 lineto
52936 40133.8 lineto
52895.5 40169.2 lineto
52884.4 40179.6 lineto
52836.8 40227.3 lineto
52802.5 40268.7 lineto
52780.7 40306.3 lineto
52770.3 40342.1 lineto
52770.3 40378.5 lineto
52779.8 40417.6 lineto
52785 40431.6 lineto
52791.6 40445.8 lineto
52800.5 40461.1 lineto
52812.5 40478.5 lineto
52828.7 40499 lineto
52849.7 40523.6 lineto
52876.7 40553.2 lineto
52910.3 40588.9 lineto
52951.6 40631.7 lineto
53001.4 40682.4 lineto
53060.6 40742.1 lineto
53130 40811.8 lineto
53191.2 40873 lineto
53544.4 41226.3 lineto
53621 41149.7 lineto
53697.6 41073.1 lineto
53350.3 40725.8 lineto
53003 40378.5 lineto
53028.5 40359.8 lineto
53039.6 40351.3 lineto
53049.2 40344.6 lineto
53058.3 40340.4 lineto
53068.2 40339.5 lineto
53080 40342.9 lineto
53094.8 40351.4 lineto
53113.7 40365.7 lineto
53137.9 40386.9 lineto
53168.6 40415.6 lineto
53206.7 40452.8 lineto
53253.6 40499.4 lineto
53310.3 40556 lineto
53364.5 40610.3 lineto
53436.3 40681.8 lineto
53500.3 40744.9 lineto
53555.7 40798.9 lineto
53602 40843.2 lineto
53638.5 40877.2 lineto
53664.7 40900.4 lineto
53677.8 40910.7 lineto
53728.2 40940.2 lineto
53774.9 40955.3 lineto
53821.2 40956.9 lineto
53861.7 40948.4 lineto
53877.6 40942.8 lineto
53892.6 40934.9 lineto
53909.5 40922.6 lineto
53930.8 40903.7 lineto
53959.3 40876.1 lineto
53980.5 40855 lineto
53980.5 40855 lineto
poly1
0 0 0 setrgbcolor
120 setlinewidth
newpath
51245.5 50235.7 moveto
50245.5 51235.7 lineto
stroke
0 0 0 setrgbcolor
newpath
51245.5 52235.7 moveto
51245.5 50235.7 lineto
stroke
0 0 0 setrgbcolor
newpath
50245.5 50235.7 moveto
50245.5 52235.7 lineto
stroke
0 0 0 setrgbcolor
newpath
51245.5 50235.7 moveto
50245.5 50235.7 lineto
stroke
0 0 0 setrgbcolor
newpath
50245.5 52235.7 moveto
51245.5 52235.7 lineto
stroke
0 0 0 setrgbcolor
59.0551 setlinewidth
newpath
76048.6 48873.5 moveto
75798.6 48623.5 lineto
stroke
0 0 0 setrgbcolor
newpath
75298.6 48873.5 moveto
76048.6 48873.5 lineto
stroke
0 0 0 setrgbcolor
newpath
76048.6 48873.5 moveto
75798.6 49123.5 lineto
stroke
0 0 0 setrgbcolor
newpath
75154.9 47495.5 moveto
75154.9 50251.4 lineto
stroke
0 0 0 setrgbcolor
newpath
75154.9 50251.4 moveto
76139.2 50251.4 lineto
stroke
0 0 0 setrgbcolor
newpath
76139.2 50251.4 moveto
76139.2 47495.5 lineto
stroke
0 0 0 setrgbcolor
newpath
76139.2 47495.5 moveto
75154.9 47495.5 lineto
stroke
0 0 0 setrgbcolor
newpath
40158.8 34105.7 moveto
47158.8 34105.7 lineto
stroke
0 0 0 setrgbcolor
newpath
47158.8 34105.7 moveto
47158.8 47105.7 lineto
stroke
0 0 0 setrgbcolor
newpath
47158.8 47105.7 moveto
40158.8 47105.7 lineto
stroke
0 0 0 setrgbcolor
newpath
40158.8 47105.7 moveto
40158.8 34105.7 lineto
stroke
0 0 0 setrgbcolor
0 0 0 setrgbcolor
0 0 0 setrgbcolor
newpath
75708 38740.4 moveto
75726.7 38796.6 lineto
75726.7 38890.3 lineto
75708 38927.8 lineto
75689.2 38946.6 lineto
75651.7 38965.3 lineto
75614.2 38965.3 lineto
75576.7 38946.6 lineto
75558 38927.8 lineto
75539.2 38890.3 lineto
75520.5 38815.3 lineto
75501.7 38777.9 lineto
75483 38759.1 lineto
75445.5 38740.4 lineto
75408 38740.4 lineto
75370.5 38759.1 lineto
75351.8 38777.9 lineto
75333 38815.3 lineto
75333 38909.1 lineto
75351.8 38965.3 lineto
stroke
newpath
75520.5 39134.1 moveto
75520.5 39265.3 lineto
stroke
newpath
75726.7 39321.5 moveto
75726.7 39134.1 lineto
75333 39134.1 lineto
75333 39321.5 lineto
stroke
newpath
75726.7 39490.3 moveto
75333 39490.3 lineto
75726.7 39715.2 lineto
75333 39715.2 lineto
stroke
newpath
75370.5 39884 moveto
75351.8 39902.7 lineto
75333 39940.2 lineto
75333 40033.9 lineto
75351.8 40071.4 lineto
75370.5 40090.2 lineto
75408 40108.9 lineto
75445.5 40108.9 lineto
75501.7 40090.2 lineto
75726.7 39865.2 lineto
75726.7 40108.9 lineto
stroke
0 0 0 setrgbcolor
0 0 0 setrgbcolor
0 0 0 setrgbcolor
newpath
21889.1 53860.3 moveto
21907.8 53916.6 lineto
21907.8 54010.3 lineto
21889.1 54047.8 lineto
21870.3 54066.6 lineto
21832.8 54085.3 lineto
21795.3 54085.3 lineto
21757.8 54066.6 lineto
21739.1 54047.8 lineto
21720.3 54010.3 lineto
21701.6 53935.3 lineto
21682.8 53897.8 lineto
21664.1 53879.1 lineto
21626.6 53860.3 lineto
21589.1 53860.3 lineto
21551.6 53879.1 lineto
21532.9 53897.8 lineto
21514.1 53935.3 lineto
21514.1 54029.1 lineto
21532.9 54085.3 lineto
stroke
newpath
21514.1 54216.5 moveto
21907.8 54310.3 lineto
21626.6 54385.3 lineto
21907.8 54460.3 lineto
21514.1 54554 lineto
stroke
newpath
21907.8 54910.2 moveto
21907.8 54685.2 lineto
stroke
newpath
21907.8 54797.7 moveto
21514.1 54797.7 lineto
21570.4 54760.2 lineto
21607.8 54722.7 lineto
21626.6 54685.2 lineto
stroke
0 0 0 setrgbcolor
0 0 0 setrgbcolor
0 0 0 setrgbcolor
newpath
33900.7 33153.6 moveto
33956.9 33134.8 lineto
33975.7 33116.1 lineto
33994.4 33078.6 lineto
33994.4 33022.3 lineto
33975.7 32984.8 lineto
33956.9 32966.1 lineto
33919.4 32947.3 lineto
33769.5 32947.3 lineto
33769.5 33341 lineto
33900.7 33341 lineto
33938.2 33322.3 lineto
33956.9 33303.5 lineto
33975.7 33266 lineto
33975.7 33228.5 lineto
33956.9 33191 lineto
33938.2 33172.3 lineto
33900.7 33153.6 lineto
33769.5 33153.6 lineto
stroke
newpath
34106.9 33341 moveto
34331.9 33341 lineto
stroke
newpath
34219.4 32947.3 moveto
34219.4 33341 lineto
stroke
newpath
34669.3 32947.3 moveto
34444.4 32947.3 lineto
stroke
newpath
34556.9 32947.3 moveto
34556.9 33341 lineto
34519.4 33284.8 lineto
34481.9 33247.3 lineto
34444.4 33228.5 lineto
stroke
0 0 0 setrgbcolor
0 0 0 setrgbcolor
0 0 0 setrgbcolor
newpath
36628.5 57628.6 moveto
36628.5 58228.5 lineto
stroke
0 0 0 setrgbcolor
0 0 0 setrgbcolor
0 0 0 setrgbcolor
newpath
36628.5 32431.8 moveto
36628.5 33031.7 lineto
stroke
newpath
36928.4 32731.7 moveto
36328.5 32731.7 lineto
stroke
0 0 0 setrgbcolor
0 0 0 setrgbcolor
0 0 0 setrgbcolor
newpath
27207.8 33153.6 moveto
27264 33134.8 lineto
27282.8 33116.1 lineto
27301.5 33078.6 lineto
27301.5 33022.3 lineto
27282.8 32984.8 lineto
27264 32966.1 lineto
27226.5 32947.3 lineto
27076.5 32947.3 lineto
27076.5 33341 lineto
27207.8 33341 lineto
27245.3 33322.3 lineto
27264 33303.5 lineto
27282.8 33266 lineto
27282.8 33228.5 lineto
27264 33191 lineto
27245.3 33172.3 lineto
27207.8 33153.6 lineto
27076.5 33153.6 lineto
stroke
newpath
27414 33341 moveto
27639 33341 lineto
stroke
newpath
27526.5 32947.3 moveto
27526.5 33341 lineto
stroke
newpath
27751.5 33303.5 moveto
27770.2 33322.3 lineto
27807.7 33341 lineto
27901.4 33341 lineto
27938.9 33322.3 lineto
27957.7 33303.5 lineto
27976.4 33266 lineto
27976.4 33228.5 lineto
27957.7 33172.3 lineto
27732.7 32947.3 lineto
27976.4 32947.3 lineto
stroke
0 0 0 setrgbcolor
0 0 0 setrgbcolor
0 0 0 setrgbcolor
newpath
29935.6 32431.8 moveto
29935.6 33031.7 lineto
stroke
0 0 0 setrgbcolor
0 0 0 setrgbcolor
0 0 0 setrgbcolor
newpath
29935.6 57628.6 moveto
29935.6 58228.5 lineto
stroke
newpath
30235.5 57928.6 moveto
29635.6 57928.6 lineto
stroke
0 0 0 setrgbcolor
0 0 0 setrgbcolor
0 0 0 setrgbcolor
newpath
62912.7 44252.2 moveto
62931.4 44308.4 lineto
62931.4 44402.1 lineto
62912.7 44439.6 lineto
62893.9 44458.4 lineto
62856.4 44477.1 lineto
62818.9 44477.1 lineto
62781.5 44458.4 lineto
62762.7 44439.6 lineto
62744 44402.1 lineto
62725.2 44327.2 lineto
62706.5 44289.7 lineto
62687.7 44270.9 lineto
62650.2 44252.2 lineto
62612.7 44252.2 lineto
62575.2 44270.9 lineto
62556.5 44289.7 lineto
62537.7 44327.2 lineto
62537.7 44420.9 lineto
62556.5 44477.1 lineto
stroke
newpath
62537.7 44720.9 moveto
62537.7 44795.8 lineto
62556.5 44833.3 lineto
62594 44870.8 lineto
62669 44889.6 lineto
62800.2 44889.6 lineto
62875.2 44870.8 lineto
62912.7 44833.3 lineto
62931.4 44795.8 lineto
62931.4 44720.9 lineto
62912.7 44683.4 lineto
62875.2 44645.9 lineto
62800.2 44627.1 lineto
62669 44627.1 lineto
62594 44645.9 lineto
62556.5 44683.4 lineto
62537.7 44720.9 lineto
stroke
newpath
62931.4 45058.3 moveto
62537.7 45058.3 lineto
62931.4 45283.3 lineto
62537.7 45283.3 lineto
stroke
newpath
62818.9 45452 moveto
62818.9 45639.5 lineto
stroke
newpath
62931.4 45414.5 moveto
62537.7 45545.8 lineto
62931.4 45677 lineto
stroke
newpath
62931.4 46033.2 moveto
62744 45902 lineto
stroke
newpath
62931.4 45808.2 moveto
62537.7 45808.2 lineto
62537.7 45958.2 lineto
62556.5 45995.7 lineto
62575.2 46014.4 lineto
62612.7 46033.2 lineto
62669 46033.2 lineto
62706.5 46014.4 lineto
62725.2 45995.7 lineto
62744 45958.2 lineto
62744 45808.2 lineto
stroke
newpath
62931.4 46408.1 moveto
62931.4 46183.2 lineto
stroke
newpath
62931.4 46295.7 moveto
62537.7 46295.7 lineto
62594 46258.2 lineto
62631.5 46220.7 lineto
62650.2 46183.2 lineto
stroke
0 0 0 setrgbcolor
0 0 0 setrgbcolor
0 0 0 setrgbcolor
newpath
42580.9 56769.2 moveto
42637.1 56750.5 lineto
42730.8 56750.5 lineto
42768.3 56769.2 lineto
42787.1 56788 lineto
42805.8 56825.5 lineto
42805.8 56863 lineto
42787.1 56900.5 lineto
42768.3 56919.2 lineto
42730.8 56938 lineto
42655.8 56956.7 lineto
42618.3 56975.5 lineto
42599.6 56994.2 lineto
42580.9 57031.7 lineto
42580.9 57069.2 lineto
42599.6 57106.7 lineto
42618.3 57125.4 lineto
42655.8 57144.2 lineto
42749.6 57144.2 lineto
42805.8 57125.4 lineto
stroke
newpath
43049.5 57144.2 moveto
43124.5 57144.2 lineto
43162 57125.4 lineto
43199.5 57087.9 lineto
43218.3 57012.9 lineto
43218.3 56881.7 lineto
43199.5 56806.7 lineto
43162 56769.2 lineto
43124.5 56750.5 lineto
43049.5 56750.5 lineto
43012 56769.2 lineto
42974.6 56806.7 lineto
42955.8 56881.7 lineto
42955.8 57012.9 lineto
42974.6 57087.9 lineto
43012 57125.4 lineto
43049.5 57144.2 lineto
stroke
newpath
43387 56750.5 moveto
43387 57144.2 lineto
43612 56750.5 lineto
43612 57144.2 lineto
stroke
newpath
43780.7 56863 moveto
43968.2 56863 lineto
stroke
newpath
43743.2 56750.5 moveto
43874.4 57144.2 lineto
44005.7 56750.5 lineto
stroke
newpath
44361.9 56750.5 moveto
44230.6 56938 lineto
stroke
newpath
44136.9 56750.5 moveto
44136.9 57144.2 lineto
44286.9 57144.2 lineto
44324.4 57125.4 lineto
44343.1 57106.7 lineto
44361.9 57069.2 lineto
44361.9 57012.9 lineto
44343.1 56975.5 lineto
44324.4 56956.7 lineto
44286.9 56938 lineto
44136.9 56938 lineto
stroke
newpath
44511.9 57106.7 moveto
44530.6 57125.4 lineto
44568.1 57144.2 lineto
44661.8 57144.2 lineto
44699.3 57125.4 lineto
44718.1 57106.7 lineto
44736.8 57069.2 lineto
44736.8 57031.7 lineto
44718.1 56975.5 lineto
44493.1 56750.5 lineto
44736.8 56750.5 lineto
stroke
0 0 0 setrgbcolor
0 0 0 setrgbcolor
0 0 0 setrgbcolor
newpath
38643.8 32572.4 moveto
38700.1 32553.6 lineto
38793.8 32553.6 lineto
38831.3 32572.4 lineto
38850.1 32591.1 lineto
38868.8 32628.6 lineto
38868.8 32666.1 lineto
38850.1 32703.6 lineto
38831.3 32722.4 lineto
38793.8 32741.1 lineto
38718.8 32759.9 lineto
38681.3 32778.6 lineto
38662.6 32797.3 lineto
38643.8 32834.8 lineto
38643.8 32872.3 lineto
38662.6 32909.8 lineto
38681.3 32928.6 lineto
38718.8 32947.3 lineto
38812.6 32947.3 lineto
38868.8 32928.6 lineto
stroke
newpath
39112.5 32947.3 moveto
39187.5 32947.3 lineto
39225 32928.6 lineto
39262.5 32891.1 lineto
39281.3 32816.1 lineto
39281.3 32684.9 lineto
39262.5 32609.9 lineto
39225 32572.4 lineto
39187.5 32553.6 lineto
39112.5 32553.6 lineto
39075 32572.4 lineto
39037.5 32609.9 lineto
39018.8 32684.9 lineto
39018.8 32816.1 lineto
39037.5 32891.1 lineto
39075 32928.6 lineto
39112.5 32947.3 lineto
stroke
newpath
39450 32553.6 moveto
39450 32947.3 lineto
39675 32553.6 lineto
39675 32947.3 lineto
stroke
newpath
39843.7 32666.1 moveto
40031.2 32666.1 lineto
stroke
newpath
39806.2 32553.6 moveto
39937.4 32947.3 lineto
40068.7 32553.6 lineto
stroke
newpath
40424.9 32553.6 moveto
40293.6 32741.1 lineto
stroke
newpath
40199.9 32553.6 moveto
40199.9 32947.3 lineto
40349.9 32947.3 lineto
40387.4 32928.6 lineto
40406.1 32909.8 lineto
40424.9 32872.3 lineto
40424.9 32816.1 lineto
40406.1 32778.6 lineto
40387.4 32759.9 lineto
40349.9 32741.1 lineto
40199.9 32741.1 lineto
stroke
newpath
40556.1 32947.3 moveto
40799.8 32947.3 lineto
40668.6 32797.3 lineto
40724.8 32797.3 lineto
40762.3 32778.6 lineto
40781.1 32759.9 lineto
40799.8 32722.4 lineto
40799.8 32628.6 lineto
40781.1 32591.1 lineto
40762.3 32572.4 lineto
40724.8 32553.6 lineto
40612.3 32553.6 lineto
40574.9 32572.4 lineto
40556.1 32591.1 lineto
stroke
0 0 0 setrgbcolor
0 0 0 setrgbcolor
0 0 0 setrgbcolor
newpath
23692.6 56506.8 moveto
23692.6 56900.5 lineto
23823.8 56619.3 lineto
23955.1 56900.5 lineto
23955.1 56506.8 lineto
stroke
newpath
24217.5 56900.5 moveto
24292.5 56900.5 lineto
24330 56881.7 lineto
24367.5 56844.2 lineto
24386.2 56769.2 lineto
24386.2 56638 lineto
24367.5 56563 lineto
24330 56525.5 lineto
24292.5 56506.8 lineto
24217.5 56506.8 lineto
24180 56525.5 lineto
24142.5 56563 lineto
24123.8 56638 lineto
24123.8 56769.2 lineto
24142.5 56844.2 lineto
24180 56881.7 lineto
24217.5 56900.5 lineto
stroke
newpath
24498.7 56900.5 moveto
24723.7 56900.5 lineto
stroke
newpath
24611.2 56506.8 moveto
24611.2 56900.5 lineto
stroke
newpath
25061.2 56506.8 moveto
24836.2 56506.8 lineto
stroke
newpath
24948.7 56506.8 moveto
24948.7 56900.5 lineto
24911.2 56844.2 lineto
24873.7 56806.7 lineto
24836.2 56788 lineto
stroke
0 0 0 setrgbcolor
0 0 0 setrgbcolor
0 0 0 setrgbcolor
newpath
23692.6 33797.3 moveto
23692.6 34191 lineto
23823.8 33909.8 lineto
23955.1 34191 lineto
23955.1 33797.3 lineto
stroke
newpath
24217.5 34191 moveto
24292.5 34191 lineto
24330 34172.3 lineto
24367.5 34134.8 lineto
24386.2 34059.8 lineto
24386.2 33928.6 lineto
24367.5 33853.6 lineto
24330 33816.1 lineto
24292.5 33797.3 lineto
24217.5 33797.3 lineto
24180 33816.1 lineto
24142.5 33853.6 lineto
24123.8 33928.6 lineto
24123.8 34059.8 lineto
24142.5 34134.8 lineto
24180 34172.3 lineto
24217.5 34191 lineto
stroke
newpath
24498.7 34191 moveto
24723.7 34191 lineto
stroke
newpath
24611.2 33797.3 moveto
24611.2 34191 lineto
stroke
newpath
24836.2 34153.5 moveto
24854.9 34172.3 lineto
24892.4 34191 lineto
24986.2 34191 lineto
25023.7 34172.3 lineto
25042.4 34153.5 lineto
25061.2 34116 lineto
25061.2 34078.5 lineto
25042.4 34022.3 lineto
24817.4 33797.3 lineto
25061.2 33797.3 lineto
stroke
0 0 0 setrgbcolor
0 0 0 setrgbcolor
0 0 0 setrgbcolor
newpath
19511.9 38509.4 moveto
19568.1 38490.6 lineto
19661.8 38490.6 lineto
19699.3 38509.4 lineto
19718.1 38528.1 lineto
19736.8 38565.6 lineto
19736.8 38603.1 lineto
19718.1 38640.6 lineto
19699.3 38659.4 lineto
19661.8 38678.1 lineto
19586.8 38696.9 lineto
19549.4 38715.6 lineto
19530.6 38734.4 lineto
19511.9 38771.9 lineto
19511.9 38809.3 lineto
19530.6 38846.8 lineto
19549.4 38865.6 lineto
19586.8 38884.3 lineto
19680.6 38884.3 lineto
19736.8 38865.6 lineto
stroke
newpath
19868.1 38884.3 moveto
19961.8 38490.6 lineto
20036.8 38771.9 lineto
20111.8 38490.6 lineto
20205.5 38884.3 lineto
stroke
newpath
20336.8 38846.8 moveto
20355.5 38865.6 lineto
20393 38884.3 lineto
20486.7 38884.3 lineto
20524.2 38865.6 lineto
20543 38846.8 lineto
20561.7 38809.3 lineto
20561.7 38771.9 lineto
20543 38715.6 lineto
20318 38490.6 lineto
20561.7 38490.6 lineto
stroke
0 0 0 setrgbcolor
0 0 0 setrgbcolor
0 0 0 setrgbcolor
newpath
44549.4 53026.1 moveto
44549.4 53419.8 lineto
44643.1 53419.8 lineto
44699.3 53401 lineto
44736.8 53363.5 lineto
44755.6 53326 lineto
44774.3 53251 lineto
44774.3 53194.8 lineto
44755.6 53119.8 lineto
44736.8 53082.3 lineto
44699.3 53044.8 lineto
44643.1 53026.1 lineto
44549.4 53026.1 lineto
stroke
newpath
45149.3 53026.1 moveto
44924.3 53026.1 lineto
stroke
newpath
45036.8 53026.1 moveto
45036.8 53419.8 lineto
44999.3 53363.5 lineto
44961.8 53326 lineto
44924.3 53307.3 lineto
stroke
0 0 0 setrgbcolor
0 0 0 setrgbcolor
0 0 0 setrgbcolor
newpath
44586.8 50270.2 moveto
44455.6 50457.6 lineto
stroke
newpath
44361.9 50270.2 moveto
44361.9 50663.9 lineto
44511.9 50663.9 lineto
44549.4 50645.1 lineto
44568.1 50626.4 lineto
44586.8 50588.9 lineto
44586.8 50532.6 lineto
44568.1 50495.1 lineto
44549.4 50476.4 lineto
44511.9 50457.6 lineto
44361.9 50457.6 lineto
stroke
newpath
44961.8 50270.2 moveto
44736.8 50270.2 lineto
stroke
newpath
44849.3 50270.2 moveto
44849.3 50663.9 lineto
44811.8 50607.6 lineto
44774.3 50570.1 lineto
44736.8 50551.4 lineto
stroke
newpath
45318 50663.9 moveto
45130.5 50663.9 lineto
45111.8 50476.4 lineto
45130.5 50495.1 lineto
45168 50513.9 lineto
45261.8 50513.9 lineto
45299.3 50495.1 lineto
45318 50476.4 lineto
45336.8 50438.9 lineto
45336.8 50345.2 lineto
45318 50307.7 lineto
45299.3 50288.9 lineto
45261.8 50270.2 lineto
45168 50270.2 lineto
45130.5 50288.9 lineto
45111.8 50307.7 lineto
stroke
0 0 0 setrgbcolor
0 0 0 setrgbcolor
0 0 0 setrgbcolor
newpath
22099 50045.8 moveto
22099 49727 lineto
22117.8 49689.5 lineto
22136.5 49670.8 lineto
22174 49652.1 lineto
22249 49652.1 lineto
22286.5 49670.8 lineto
22305.3 49689.5 lineto
22324 49727 lineto
22324 50045.8 lineto
stroke
newpath
22474 50045.8 moveto
22736.5 50045.8 lineto
22567.7 49652.1 lineto
stroke
0 0 0 setrgbcolor
0 0 0 setrgbcolor
0 0 0 setrgbcolor
newpath
48870.7 50073.3 moveto
48870.7 49754.6 lineto
48889.4 49717.1 lineto
48908.2 49698.4 lineto
48945.7 49679.6 lineto
49020.7 49679.6 lineto
49058.2 49698.4 lineto
49076.9 49717.1 lineto
49095.7 49754.6 lineto
49095.7 50073.3 lineto
stroke
newpath
49470.6 50073.3 moveto
49283.1 50073.3 lineto
49264.4 49885.8 lineto
49283.1 49904.6 lineto
49320.6 49923.3 lineto
49414.4 49923.3 lineto
49451.9 49904.6 lineto
49470.6 49885.8 lineto
49489.4 49848.3 lineto
49489.4 49754.6 lineto
49470.6 49717.1 lineto
49451.9 49698.4 lineto
49414.4 49679.6 lineto
49320.6 49679.6 lineto
49283.1 49698.4 lineto
49264.4 49717.1 lineto
stroke
0 0 0 setrgbcolor
0 0 0 setrgbcolor
0 0 0 setrgbcolor
newpath
50073.6 50945.1 moveto
49679.9 50945.1 lineto
49679.9 51095.1 lineto
49698.6 51132.6 lineto
49717.4 51151.3 lineto
49754.8 51170.1 lineto
49811.1 51170.1 lineto
49848.6 51151.3 lineto
49867.3 51132.6 lineto
49886.1 51095.1 lineto
49886.1 50945.1 lineto
stroke
newpath
50073.6 51545 moveto
50073.6 51320 lineto
stroke
newpath
50073.6 51432.5 moveto
49679.9 51432.5 lineto
49736.1 51395 lineto
49773.6 51357.5 lineto
49792.3 51320 lineto
stroke
0 0 0 setrgbcolor
0 0 0 setrgbcolor
0 0 0 setrgbcolor
newpath
75708 50551.4 moveto
75726.7 50607.6 lineto
75726.7 50701.4 lineto
75708 50738.9 lineto
75689.2 50757.6 lineto
75651.7 50776.4 lineto
75614.2 50776.4 lineto
75576.7 50757.6 lineto
75558 50738.9 lineto
75539.2 50701.4 lineto
75520.5 50626.4 lineto
75501.7 50588.9 lineto
75483 50570.1 lineto
75445.5 50551.4 lineto
75408 50551.4 lineto
75370.5 50570.1 lineto
75351.8 50588.9 lineto
75333 50626.4 lineto
75333 50720.1 lineto
75351.8 50776.4 lineto
stroke
newpath
75520.5 50945.1 moveto
75520.5 51076.3 lineto
stroke
newpath
75726.7 51132.6 moveto
75726.7 50945.1 lineto
75333 50945.1 lineto
75333 51132.6 lineto
stroke
newpath
75726.7 51301.3 moveto
75333 51301.3 lineto
75726.7 51526.3 lineto
75333 51526.3 lineto
stroke
newpath
75726.7 51920 moveto
75726.7 51695 lineto
stroke
newpath
75726.7 51807.5 moveto
75333 51807.5 lineto
75389.2 51770 lineto
75426.7 51732.5 lineto
75445.5 51695 lineto
stroke
0 0 0 setrgbcolor
0 0 0 setrgbcolor
0 0 0 setrgbcolor
newpath
43208.9 33929.1 moveto
43208.9 33451.1 lineto
43237 33394.8 lineto
43265.1 33366.7 lineto
43321.4 33338.6 lineto
43433.9 33338.6 lineto
43490.1 33366.7 lineto
43518.2 33394.8 lineto
43546.4 33451.1 lineto
43546.4 33929.1 lineto
stroke
newpath
43799.4 33872.9 moveto
43827.6 33901 lineto
43883.8 33929.1 lineto
44024.4 33929.1 lineto
44080.7 33901 lineto
44108.8 33872.9 lineto
44136.9 33816.7 lineto
44136.9 33760.4 lineto
44108.8 33676.1 lineto
43771.3 33338.6 lineto
44136.9 33338.6 lineto
stroke
showpage
grestore
%%EOF
