%!PS-Adobe-3.0
%%Creator: PCBNEW
%%CreationDate: Sun Jan 25 14:28:57 2015
%%Title: /home/ad/kicad/robot2015/ps/robot2015-F_Mask.ps
%%Pages: 1
%%PageOrder: Ascend
%%BoundingBox: 0 0 596 842
%%DocumentMedia: A4 595 842 0 () ()
%%Orientation: Landscape
%%EndComments
%%BeginProlog
/line { newpath moveto lineto stroke } bind def
/cir0 { newpath 0 360 arc stroke } bind def
/cir1 { newpath 0 360 arc gsave fill grestore stroke } bind def
/cir2 { newpath 0 360 arc gsave fill grestore stroke } bind def
/arc0 { newpath arc stroke } bind def
/arc1 { newpath 4 index 4 index moveto arc closepath gsave fill
    grestore stroke } bind def
/arc2 { newpath 4 index 4 index moveto arc closepath gsave fill
    grestore stroke } bind def
/poly0 { stroke } bind def
/poly1 { closepath gsave fill grestore stroke } bind def
/poly2 { closepath gsave fill grestore stroke } bind def
/rect0 { rectstroke } bind def
/rect1 { rectfill } bind def
/rect2 { rectfill } bind def
/linemode0 { 0 setlinecap 0 setlinejoin 0 setlinewidth } bind def
/linemode1 { 1 setlinecap 1 setlinejoin } bind def
/dashedline { [200] 100 setdash } bind def
/solidline { [] 0 setdash } bind def
/phantomshow { moveto
    /KicadFont findfont 0.000001 scalefont setfont
    show } bind def
/textshow { gsave
    findfont exch scalefont setfont concat 1 scale 0 0 moveto show
    } bind def
/reencodefont {
  findfont dup length dict begin
  { 1 index /FID ne
    { def }
    { pop pop } ifelse
  } forall
  /Encoding ISOLatin1Encoding def
  currentdict
  end } bind def
/KicadFont /Helvetica reencodefont definefont pop
/KicadFont-Bold /Helvetica-Bold reencodefont definefont pop
/KicadFont-Oblique /Helvetica-Oblique reencodefont definefont pop
/KicadFont-BoldOblique /Helvetica-BoldOblique reencodefont definefont pop
%%EndProlog
%%Page: 1 1
%%BeginPageSetup
gsave
0.0072 0.0072 scale
linemode1
82680 0 translate 90 rotate
39.3701 setlinewidth
%%EndPageSetup
0 0 0 setrgbcolor
0 0 0 setrgbcolor
39.3701 setlinewidth
newpath
70824.2 51235.7 moveto
70824.2 57928.6 lineto
stroke
0 0 0 setrgbcolor
newpath
20430.5 25645.1 moveto
34603.7 25645.1 lineto
stroke
0 0 0 setrgbcolor
newpath
18068.3 57141.2 moveto
18068.3 33519.1 lineto
stroke
0 0 0 setrgbcolor
newpath
34603.7 65015.2 moveto
20430.5 65015.2 lineto
stroke
0 0 0 setrgbcolor
newpath
35784.8 63834.1 moveto
34603.7 65015.2 lineto
stroke
0 0 0 setrgbcolor
newpath
35784.8 59897.1 moveto
35784.8 63834.1 lineto
stroke
0 0 0 setrgbcolor
newpath
36965.9 58716 moveto
35784.8 59897.1 lineto
stroke
0 0 0 setrgbcolor
newpath
45627.3 58716 moveto
36965.9 58716 lineto
stroke
0 0 0 setrgbcolor
newpath
56257.3 48086.1 moveto
45627.3 58716 lineto
stroke
0 0 0 setrgbcolor
newpath
67674.6 48086.1 moveto
56257.3 48086.1 lineto
stroke
0 0 0 setrgbcolor
newpath
70824.2 51235.7 moveto
67674.6 48086.1 lineto
stroke
0 0 0 setrgbcolor
newpath
72792.7 59897.1 moveto
70824.2 57928.6 lineto
stroke
0 0 0 setrgbcolor
newpath
75154.9 59897.1 moveto
72792.7 59897.1 lineto
stroke
0 0 0 setrgbcolor
newpath
77123.4 57928.6 moveto
75154.9 59897.1 lineto
stroke
0 0 0 setrgbcolor
newpath
77123.4 56747.5 moveto
77123.4 57928.6 lineto
stroke
0 0 0 setrgbcolor
newpath
76336 55960.1 moveto
77123.4 56747.5 lineto
stroke
0 0 0 setrgbcolor
newpath
76336 34700.2 moveto
76336 55960.1 lineto
stroke
0 0 0 setrgbcolor
newpath
77123.4 33912.8 moveto
76336 34700.2 lineto
stroke
0 0 0 setrgbcolor
newpath
77123.4 32731.7 moveto
77123.4 33912.8 lineto
stroke
0 0 0 setrgbcolor
newpath
75154.9 30763.2 moveto
77123.4 32731.7 lineto
stroke
0 0 0 setrgbcolor
newpath
72792.7 30763.2 moveto
75154.9 30763.2 lineto
stroke
0 0 0 setrgbcolor
newpath
70824.2 32731.7 moveto
72792.7 30763.2 lineto
stroke
0 0 0 setrgbcolor
newpath
70824.2 39424.6 moveto
70824.2 32731.7 lineto
stroke
0 0 0 setrgbcolor
newpath
67674.6 42574.3 moveto
70824.2 39424.6 lineto
stroke
0 0 0 setrgbcolor
newpath
56257.3 42574.3 moveto
67674.6 42574.3 lineto
stroke
0 0 0 setrgbcolor
newpath
45627.3 31944.3 moveto
56257.3 42574.3 lineto
stroke
0 0 0 setrgbcolor
newpath
36965.9 31944.3 moveto
45627.3 31944.3 lineto
stroke
0 0 0 setrgbcolor
newpath
35784.8 30763.2 moveto
36965.9 31944.3 lineto
stroke
0 0 0 setrgbcolor
newpath
35784.8 26826.2 moveto
35784.8 30763.2 lineto
stroke
0 0 0 setrgbcolor
newpath
34603.7 25645.1 moveto
35784.8 26826.2 lineto
stroke
0 0 0 setrgbcolor
newpath
19249.4 63834.1 moveto
20430.5 65015.2 lineto
stroke
0 0 0 setrgbcolor
newpath
19249.4 58322.3 moveto
19249.4 63834.1 lineto
stroke
0 0 0 setrgbcolor
newpath
18068.3 57141.2 moveto
19249.4 58322.3 lineto
stroke
0 0 0 setrgbcolor
newpath
19249.4 26826.2 moveto
20430.5 25645.1 lineto
stroke
0 0 0 setrgbcolor
newpath
19249.4 32338 moveto
19249.4 26826.2 lineto
stroke
0 0 0 setrgbcolor
newpath
18068.3 33519.1 moveto
19249.4 32338 lineto
stroke
0 0 0 setrgbcolor
472.441 setlinewidth
newpath
75450.2 42786.8 moveto
75647 42786.8 lineto
stroke
0 0 0 setrgbcolor
newpath
75450.2 42286.8 moveto
75647 42286.8 lineto
stroke
0 0 0 setrgbcolor
newpath
75450.2 40786.8 moveto
75647 40786.8 lineto
stroke
0 0 0 setrgbcolor
newpath
75450.2 41286.8 moveto
75647 41286.8 lineto
stroke
0 0 0 setrgbcolor
39.3701 setlinewidth
74328.1 57641.2 295.276 cir1
0 0 0 setrgbcolor
74328.1 56641.2 295.276 cir1
0 0 0 setrgbcolor
73225.8 57641.2 295.276 cir1
0 0 0 setrgbcolor
73225.8 56641.2 295.276 cir1
0 0 0 setrgbcolor
74328.1 52916.8 295.276 cir1
0 0 0 setrgbcolor
74328.1 51916.8 295.276 cir1
0 0 0 setrgbcolor
73225.8 52916.8 295.276 cir1
0 0 0 setrgbcolor
73225.8 51916.8 295.276 cir1
0 0 0 setrgbcolor
74328.1 48192.4 295.276 cir1
0 0 0 setrgbcolor
74328.1 47192.4 295.276 cir1
0 0 0 setrgbcolor
73225.8 48192.4 295.276 cir1
0 0 0 setrgbcolor
73225.8 47192.4 295.276 cir1
0 0 0 setrgbcolor
74328.1 43468 295.276 cir1
0 0 0 setrgbcolor
74328.1 42468 295.276 cir1
0 0 0 setrgbcolor
73225.8 43468 295.276 cir1
0 0 0 setrgbcolor
73225.8 42468 295.276 cir1
0 0 0 setrgbcolor
74328.1 38743.5 295.276 cir1
0 0 0 setrgbcolor
74328.1 37743.5 295.276 cir1
0 0 0 setrgbcolor
73225.8 38743.5 295.276 cir1
0 0 0 setrgbcolor
73225.8 37743.5 295.276 cir1
0 0 0 setrgbcolor
551.181 setlinewidth
newpath
19918.7 54385.3 moveto
20154.9 54385.3 lineto
stroke
0 0 0 setrgbcolor
newpath
19918.7 55527 moveto
20154.9 55527 lineto
stroke
0 0 0 setrgbcolor
newpath
19918.7 53243.5 moveto
20154.9 53243.5 lineto
stroke
0 0 0 setrgbcolor
826.772 setlinewidth
newpath
19780.9 56668.7 moveto
20292.7 56668.7 lineto
stroke
0 0 0 setrgbcolor
newpath
19780.9 52101.8 moveto
20292.7 52101.8 lineto
stroke
0 0 0 setrgbcolor
39.3701 setlinewidth
36572.2 34530.9 492.126 cir1
0 0 0 setrgbcolor
36572.2 56129.4 492.126 cir1
0 0 0 setrgbcolor
33780.9 34530.9 527.559 cir1
0 0 0 setrgbcolor
29879.3 56129.4 492.126 cir1
0 0 0 setrgbcolor
29879.3 34530.9 492.126 cir1
0 0 0 setrgbcolor
32670.7 56129.4 527.559 cir1
0 0 0 setrgbcolor
26329.3 63215.2 619.685 cir1
0 0 0 setrgbcolor
33429.3 63215.2 619.685 cir1
0 0 0 setrgbcolor
21211.2 63215.2 619.685 cir1
0 0 0 setrgbcolor
28311.2 63215.2 619.685 cir1
0 0 0 setrgbcolor
28311.2 27445.1 619.685 cir1
0 0 0 setrgbcolor
21211.2 27445.1 619.685 cir1
0 0 0 setrgbcolor
33429.3 27445.1 619.685 cir1
0 0 0 setrgbcolor
26329.3 27445.1 619.685 cir1
0 0 0 setrgbcolor
65706.1 45330.2 649.606 cir1
0 0 0 setrgbcolor
71006.1 45330.2 649.606 cir1
0 0 0 setrgbcolor
61769.1 46830.2 334.646 cir1
0 0 0 setrgbcolor
61769.1 45830.2 334.646 cir1
0 0 0 setrgbcolor
61769.1 44830.2 334.646 cir1
0 0 0 setrgbcolor
61769.1 43830.2 334.646 cir1
0 0 0 setrgbcolor
42158.8 57928.6 334.646 cir1
0 0 0 setrgbcolor
43158.8 57928.6 334.646 cir1
0 0 0 setrgbcolor
44158.8 57928.6 334.646 cir1
0 0 0 setrgbcolor
45158.8 57928.6 334.646 cir1
0 0 0 setrgbcolor
45158.8 32731.7 334.646 cir1
0 0 0 setrgbcolor
44158.8 32731.7 334.646 cir1
0 0 0 setrgbcolor
43158.8 32731.7 334.646 cir1
0 0 0 setrgbcolor
42158.8 32731.7 334.646 cir1
0 0 0 setrgbcolor
newpath
25187.2 57987.6 moveto
25187.2 57082.2 lineto
24547.8 57082.2 lineto
24547.8 57987.6 lineto
25187.2 57987.6 lineto
poly1
0 0 0 setrgbcolor
678.74 setlinewidth
newpath
23867.5 57401.9 moveto
23867.5 57667.9 lineto
stroke
0 0 0 setrgbcolor
39.3701 setlinewidth
newpath
23547.8 32672.7 moveto
23547.8 33578.1 lineto
24187.2 33578.1 lineto
24187.2 32672.7 lineto
23547.8 32672.7 lineto
poly1
0 0 0 setrgbcolor
678.74 setlinewidth
newpath
24867.5 33258.4 moveto
24867.5 32992.4 lineto
stroke
0 0 0 setrgbcolor
39.3701 setlinewidth
19150.8 37948.7 413.185 cir1
0 0 0 setrgbcolor
20922.8 35388.7 413.185 cir1
0 0 0 setrgbcolor
20922.8 37948.7 413.185 cir1
0 0 0 setrgbcolor
19150.8 35388.7 413.185 cir1
0 0 0 setrgbcolor
newpath
45842.6 52731.5 moveto
45842.6 52102.1 lineto
45213.3 52102.1 lineto
45213.3 52731.5 lineto
45842.6 52731.5 lineto
poly1
0 0 0 setrgbcolor
newpath
44466.6 52731.5 moveto
44466.6 52102.1 lineto
43837.3 52102.1 lineto
43837.3 52731.5 lineto
44466.6 52731.5 lineto
poly1
0 0 0 setrgbcolor
newpath
45055.3 50861 moveto
45055.3 51610.4 lineto
45724.6 51610.4 lineto
45724.6 50861 lineto
45055.3 50861 lineto
poly1
0 0 0 setrgbcolor
newpath
43955.3 50861 moveto
43955.3 51610.4 lineto
44624.6 51610.4 lineto
44624.6 50861 lineto
43955.3 50861 lineto
poly1
0 0 0 setrgbcolor
74328.1 34019.1 295.276 cir1
0 0 0 setrgbcolor
74328.1 33019.1 295.276 cir1
0 0 0 setrgbcolor
73225.8 34019.1 295.276 cir1
0 0 0 setrgbcolor
73225.8 33019.1 295.276 cir1
0 0 0 setrgbcolor
25399 41830.2 334.646 cir1
0 0 0 setrgbcolor
25399 42830.2 334.646 cir1
0 0 0 setrgbcolor
25399 43830.2 334.646 cir1
0 0 0 setrgbcolor
25399 44830.2 334.646 cir1
0 0 0 setrgbcolor
25399 45830.2 334.646 cir1
0 0 0 setrgbcolor
25399 46830.2 334.646 cir1
0 0 0 setrgbcolor
25399 47830.2 334.646 cir1
0 0 0 setrgbcolor
25399 48830.2 334.646 cir1
0 0 0 setrgbcolor
19399 48830.2 334.646 cir1
0 0 0 setrgbcolor
19399 47830.2 334.646 cir1
0 0 0 setrgbcolor
19399 46830.2 334.646 cir1
0 0 0 setrgbcolor
19399 45830.2 334.646 cir1
0 0 0 setrgbcolor
19399 44830.2 334.646 cir1
0 0 0 setrgbcolor
19399 43830.2 334.646 cir1
0 0 0 setrgbcolor
19399 42830.2 334.646 cir1
0 0 0 setrgbcolor
19399 41830.2 334.646 cir1
0 0 0 setrgbcolor
49032.9 48830.2 334.646 cir1
0 0 0 setrgbcolor
49032.9 47830.2 334.646 cir1
0 0 0 setrgbcolor
49032.9 46830.2 334.646 cir1
0 0 0 setrgbcolor
49032.9 45830.2 334.646 cir1
0 0 0 setrgbcolor
49032.9 44830.2 334.646 cir1
0 0 0 setrgbcolor
49032.9 43830.2 334.646 cir1
0 0 0 setrgbcolor
49032.9 42830.2 334.646 cir1
0 0 0 setrgbcolor
49032.9 41830.2 334.646 cir1
0 0 0 setrgbcolor
53532.9 48330.2 728.346 cir1
0 0 0 setrgbcolor
53532.9 42330.2 728.346 cir1
0 0 0 setrgbcolor
newpath
51198.1 50416 moveto
50292.8 50416 lineto
50292.8 51055.4 lineto
51198.1 51055.4 lineto
51198.1 50416 lineto
poly1
0 0 0 setrgbcolor
678.74 setlinewidth
newpath
50612.5 51735.7 moveto
50878.5 51735.7 lineto
stroke
0 0 0 setrgbcolor
472.441 setlinewidth
newpath
75450.2 49873.5 moveto
75647 49873.5 lineto
stroke
0 0 0 setrgbcolor
newpath
75450.2 49373.5 moveto
75647 49373.5 lineto
stroke
0 0 0 setrgbcolor
newpath
75450.2 47873.5 moveto
75647 47873.5 lineto
stroke
0 0 0 setrgbcolor
newpath
75450.2 48373.5 moveto
75647 48373.5 lineto
stroke
0 0 0 setrgbcolor
39.3701 setlinewidth
40658.8 45605.7 334.646 cir1
0 0 0 setrgbcolor
40658.8 44605.7 334.646 cir1
0 0 0 setrgbcolor
40658.8 43605.7 334.646 cir1
0 0 0 setrgbcolor
40658.8 42605.7 334.646 cir1
0 0 0 setrgbcolor
40658.8 41605.7 334.646 cir1
0 0 0 setrgbcolor
40658.8 40605.7 334.646 cir1
0 0 0 setrgbcolor
40658.8 39605.7 334.646 cir1
0 0 0 setrgbcolor
40658.8 38605.7 334.646 cir1
0 0 0 setrgbcolor
40658.8 37605.7 334.646 cir1
0 0 0 setrgbcolor
40658.8 36605.7 334.646 cir1
0 0 0 setrgbcolor
40658.8 35605.7 334.646 cir1
0 0 0 setrgbcolor
40658.8 34605.7 334.646 cir1
0 0 0 setrgbcolor
44658.8 34605.7 334.646 cir1
0 0 0 setrgbcolor
45658.8 34605.7 334.646 cir1
0 0 0 setrgbcolor
44658.8 35605.7 334.646 cir1
0 0 0 setrgbcolor
45658.8 35605.7 334.646 cir1
0 0 0 setrgbcolor
46658.8 34605.7 334.646 cir1
0 0 0 setrgbcolor
46658.8 35605.7 334.646 cir1
0 0 0 setrgbcolor
46658.8 36605.7 334.646 cir1
0 0 0 setrgbcolor
46658.8 37605.7 334.646 cir1
0 0 0 setrgbcolor
46658.8 38605.7 334.646 cir1
0 0 0 setrgbcolor
46658.8 39605.7 334.646 cir1
0 0 0 setrgbcolor
46658.8 40605.7 334.646 cir1
0 0 0 setrgbcolor
46658.8 41605.7 334.646 cir1
0 0 0 setrgbcolor
46658.8 42605.7 334.646 cir1
0 0 0 setrgbcolor
46658.8 43605.7 334.646 cir1
0 0 0 setrgbcolor
46658.8 44605.7 334.646 cir1
0 0 0 setrgbcolor
46658.8 45605.7 334.646 cir1
showpage
grestore
%%EOF
